Elect,78, time,1569446016.62, setpoint,300.00, impVal,0.00, Temp,0.00, rate,0.00, avgDrop,33.33, avgEvp,-1.00, step,6.00, upperStepLimit,-10.00, Period,60.00, pCalc,0.00, measP,11917.00, Date,Wed Sep 25 17:13:36 2019
Elect,78, time,1569446190.19, setpoint,300.00, impVal,0.00, Temp,0.00, rate,0.00, avgDrop,33.33, avgEvp,-1.00, step,6.00, upperStepLimit,-10.00, Period,60.00, pCalc,0.00, measP,10.84, Date,Wed Sep 25 17:16:30 2019
Elect,78, time,1569446195.52, setpoint,300.00, impVal,0.00, Temp,0.00, rate,0.00, avgDrop,33.33, avgEvp,-1.00, step,6.00, upperStepLimit,-10.00, Period,60.00, pCalc,0.00, measP,5.39, Date,Wed Sep 25 17:16:35 2019
Elect,78, time,1569446200.85, setpoint,300.00, impVal,0.00, Temp,0.00, rate,0.00, avgDrop,33.33, avgEvp,-1.00, step,6.00, upperStepLimit,-10.00, Period,60.00, pCalc,0.00, measP,5.33, Date,Wed Sep 25 17:16:40 2019
Elect,78, time,1569447127.48, setpoint,300.00, impVal,239.00, Temp,0.00, rate,0.32, avgDrop,33.33, avgEvp,-1.00, step,6.00, upperStepLimit,-10.00, Period,60.00, pCalc,0.00, measP,737.50, Date,Wed Sep 25 17:32:07 2019
Elect,78, time,1569447136.21, setpoint,300.00, impVal,238.00, Temp,0.00, rate,-0.11, avgDrop,33.33, avgEvp,-1.00, step,6.00, upperStepLimit,-10.00, Period,60.00, pCalc,0.00, measP,8.73, Date,Wed Sep 25 17:32:16 2019
Elect,78, time,1569447145.14, setpoint,300.00, impVal,236.00, Temp,0.00, rate,-0.23, avgDrop,33.33, avgEvp,-1.00, step,6.00, upperStepLimit,-10.00, Period,60.00, pCalc,0.00, measP,8.81, Date,Wed Sep 25 17:32:25 2019
Elect,78, time,1569447698.17, setpoint,300.00, impVal,126.00, Temp,0.00, rate,0.33, avgDrop,33.33, avgEvp,-1.00, step,6.00, upperStepLimit,-10.00, Period,60.00, pCalc,0.00, measP,385.71, Date,Wed Sep 25 17:41:38 2019
Elect,78, time,1569447876.88, setpoint,300.00, impVal,97.00, Temp,0.00, rate,16.64, avgDrop,33.33, avgEvp,-1.00, step,6.00, upperStepLimit,-10.00, Period,60.00, pCalc,0.00, measP,5.83, Date,Wed Sep 25 17:44:36 2019
Elect,78, time,1569448165.71, setpoint,300.00, impVal,53.00, Temp,0.00, rate,0.39, avgDrop,33.33, avgEvp,-1.00, step,6.00, upperStepLimit,-10.00, Period,60.00, pCalc,0.00, measP,137.31, Date,Wed Sep 25 17:49:25 2019
Elect,78, time,1569448179.74, setpoint,300.00, impVal,151.00, Temp,0.00, rate,6.96, avgDrop,54.89, avgEvp,-1.00, step,6.00, upperStepLimit,-10.00, Period,60.00, pCalc,0.00, measP,14.08, Date,Wed Sep 25 17:49:39 2019
Elect,78, time,1569448193.83, setpoint,300.00, impVal,256.00, Temp,0.00, rate,7.46, avgDrop,78.78, avgEvp,-1.00, step,6.00, upperStepLimit,-10.00, Period,60.00, pCalc,0.00, measP,14.08, Date,Wed Sep 25 17:49:53 2019
Elect,78, time,1569448207.85, setpoint,300.00, impVal,254.00, Temp,0.00, rate,-0.14, avgDrop,78.78, avgEvp,-1.00, step,6.00, upperStepLimit,-10.00, Period,60.00, pCalc,0.00, measP,14.03, Date,Wed Sep 25 17:50:07 2019
Elect,78, time,1569448221.90, setpoint,300.00, impVal,368.00, Temp,0.00, rate,8.15, avgDrop,105.67, avgEvp,-1.00, step,6.00, upperStepLimit,-10.00, Period,60.00, pCalc,0.00, measP,13.99, Date,Wed Sep 25 17:50:21 2019
Elect,78, time,1569448698.40, setpoint,300.00, impVal,238.00, Temp,0.00, rate,33.48, avgDrop,33.33, avgEvp,-1.00, step,6.00, upperStepLimit,-10.00, Period,60.00, pCalc,0.00, measP,7.11, Date,Wed Sep 25 17:58:18 2019
Elect,78, time,1569449695.52, setpoint,300.00, impVal,34.00, Temp,0.00, rate,0.04, avgDrop,33.33, avgEvp,-1.00, step,6.00, upperStepLimit,-10.00, Period,60.00, pCalc,0.00, measP,938.37, Date,Wed Sep 25 18:14:55 2019
Elect,78, time,1569449731.24, setpoint,300.00, impVal,30.00, Temp,0.00, rate,4.35, avgDrop,33.33, avgEvp,-1.00, step,6.00, upperStepLimit,-10.00, Period,60.00, pCalc,0.00, measP,6.89, Date,Wed Sep 25 18:15:31 2019
Elect,78, time,1569450331.97, setpoint,300.00, impVal,0.00, Temp,0.00, rate,0.00, avgDrop,33.33, avgEvp,-1.00, step,6.00, upperStepLimit,-10.00, Period,60.00, pCalc,0.00, measP,6.41, Date,Wed Sep 25 18:25:31 2019
Elect,78, time,1569450488.91, setpoint,300.00, impVal,0.00, Temp,0.00, rate,0.00, avgDrop,33.33, avgEvp,-1.00, step,6.00, upperStepLimit,-10.00, Period,60.00, pCalc,0.00, measP,4.37, Date,Wed Sep 25 18:28:08 2019
Elect,78, time,1569450676.59, setpoint,300.00, impVal,0.00, Temp,0.00, rate,0.00, avgDrop,33.33, avgEvp,-1.00, step,6.00, upperStepLimit,-10.00, Period,60.00, pCalc,0.00, measP,17.97, Date,Wed Sep 25 18:31:16 2019
Elect,78, time,1569450848.76, setpoint,300.00, impVal,0.00, Temp,0.00, rate,0.00, avgDrop,33.33, avgEvp,-1.00, step,6.00, upperStepLimit,-10.00, Period,60.00, pCalc,0.00, measP,5.84, Date,Wed Sep 25 18:34:08 2019
Elect,78, time,1569451053.94, setpoint,300.00, impVal,0.00, Temp,0.00, rate,0.00, avgDrop,33.33, avgEvp,-1.00, step,6.00, upperStepLimit,-10.00, Period,60.00, pCalc,0.00, measP,4.75, Date,Wed Sep 25 18:37:33 2019
Elect,78, time,1569451323.62, setpoint,300.00, impVal,0.00, Temp,0.00, rate,0.00, avgDrop,33.33, avgEvp,-1.00, step,6.00, upperStepLimit,-10.00, Period,60.00, pCalc,0.00, measP,47.53, Date,Wed Sep 25 18:42:03 2019
Elect,78, time,1569451326.73, setpoint,300.00, impVal,0.00, Temp,0.00, rate,0.00, avgDrop,33.33, avgEvp,-1.00, step,6.00, upperStepLimit,-10.00, Period,60.00, pCalc,0.00, measP,3.11, Date,Wed Sep 25 18:42:06 2019
Elect,78, time,1569451329.90, setpoint,300.00, impVal,0.00, Temp,0.00, rate,0.00, avgDrop,33.33, avgEvp,-1.00, step,6.00, upperStepLimit,-10.00, Period,60.00, pCalc,0.00, measP,3.16, Date,Wed Sep 25 18:42:09 2019
Elect,78, time,1569452043.63, setpoint,300.00, impVal,0.00, Temp,0.00, rate,0.00, avgDrop,33.33, avgEvp,-1.00, step,6.00, upperStepLimit,-10.00, Period,60.00, pCalc,0.00, measP,713.73, Date,Wed Sep 25 18:54:03 2019
Elect,78, time,1569452057.52, setpoint,300.00, impVal,86.00, Temp,0.00, rate,6.19, avgDrop,50.89, avgEvp,-1.00, step,6.00, upperStepLimit,-10.00, Period,60.00, pCalc,0.00, measP,13.89, Date,Wed Sep 25 18:54:17 2019
Elect,78, time,1569452071.21, setpoint,300.00, impVal,224.00, Temp,0.00, rate,10.08, avgDrop,85.78, avgEvp,-1.00, step,6.00, upperStepLimit,-10.00, Period,60.00, pCalc,0.00, measP,13.69, Date,Wed Sep 25 18:54:31 2019
Elect,78, time,1569452084.91, setpoint,300.00, impVal,363.00, Temp,0.00, rate,10.14, avgDrop,121.00, avgEvp,-1.00, step,6.00, upperStepLimit,-10.00, Period,60.00, pCalc,0.00, measP,13.71, Date,Wed Sep 25 18:54:44 2019
Elect,78, time,1569452223.60, setpoint,300.00, impVal,327.00, Temp,0.00, rate,-0.26, avgDrop,121.00, avgEvp,-0.75, step,6.00, upperStepLimit,-10.00, Period,60.00, pCalc,0.00, measP,138.69, Date,Wed Sep 25 18:57:03 2019
Elect,78, time,1569452343.57, setpoint,300.00, impVal,292.00, Temp,0.00, rate,-0.29, avgDrop,121.00, avgEvp,-0.52, step,6.00, upperStepLimit,-10.00, Period,60.00, pCalc,0.00, measP,119.97, Date,Wed Sep 25 18:59:03 2019
Elect,78, time,1569452403.67, setpoint,300.00, impVal,274.00, Temp,0.00, rate,-0.30, avgDrop,121.00, avgEvp,-0.28, step,6.00, upperStepLimit,-10.00, Period,60.00, pCalc,0.00, measP,60.04, Date,Wed Sep 25 19:00:03 2019
Elect,78, time,1569452463.60, setpoint,300.00, impVal,257.00, Temp,0.00, rate,-0.28, avgDrop,121.00, avgEvp,-0.29, step,6.00, upperStepLimit,-10.00, Period,60.00, pCalc,0.00, measP,59.99, Date,Wed Sep 25 19:01:03 2019
Elect,78, time,1569452523.67, setpoint,300.00, impVal,241.00, Temp,0.00, rate,-0.27, avgDrop,121.00, avgEvp,-0.28, step,6.00, upperStepLimit,-10.00, Period,60.00, pCalc,0.00, measP,60.01, Date,Wed Sep 25 19:02:03 2019
Elect,78, time,1569452537.27, setpoint,300.00, impVal,366.00, Temp,0.00, rate,9.19, avgDrop,134.00, avgEvp,-0.28, step,6.00, upperStepLimit,-10.00, Period,60.00, pCalc,0.00, measP,13.60, Date,Wed Sep 25 19:02:17 2019
Elect,78, time,1569452583.59, setpoint,300.00, impVal,356.00, Temp,0.00, rate,-0.22, avgDrop,134.00, avgEvp,-0.26, step,6.00, upperStepLimit,-10.00, Period,60.00, pCalc,0.00, measP,46.39, Date,Wed Sep 25 19:03:03 2019
Elect,78, time,1569452643.67, setpoint,300.00, impVal,341.00, Temp,0.00, rate,-0.25, avgDrop,134.00, avgEvp,-0.24, step,6.00, upperStepLimit,-10.00, Period,60.00, pCalc,0.00, measP,60.01, Date,Wed Sep 25 19:04:03 2019
Elect,78, time,1569452703.59, setpoint,300.00, impVal,323.00, Temp,0.00, rate,-0.30, avgDrop,134.00, avgEvp,-0.26, step,6.00, upperStepLimit,-10.00, Period,60.00, pCalc,0.00, measP,59.99, Date,Wed Sep 25 19:05:03 2019
Elect,78, time,1569452763.61, setpoint,300.00, impVal,308.00, Temp,0.00, rate,-0.25, avgDrop,134.00, avgEvp,-0.27, step,6.00, upperStepLimit,-10.00, Period,60.00, pCalc,0.00, measP,59.96, Date,Wed Sep 25 19:06:03 2019
Elect,78, time,1569452823.56, setpoint,300.00, impVal,292.00, Temp,0.00, rate,-0.27, avgDrop,134.00, avgEvp,-0.27, step,6.00, upperStepLimit,-10.00, Period,60.00, pCalc,0.00, measP,60.01, Date,Wed Sep 25 19:07:03 2019
Elect,78, time,1569452883.58, setpoint,300.00, impVal,272.00, Temp,0.00, rate,-0.33, avgDrop,134.00, avgEvp,-0.28, step,6.00, upperStepLimit,-10.00, Period,60.00, pCalc,0.00, measP,60.01, Date,Wed Sep 25 19:08:03 2019
Elect,78, time,1569452943.58, setpoint,300.00, impVal,257.00, Temp,0.00, rate,-0.25, avgDrop,134.00, avgEvp,-0.28, step,6.00, upperStepLimit,-10.00, Period,60.00, pCalc,0.00, measP,60.00, Date,Wed Sep 25 19:09:03 2019
Elect,78, time,1569453003.62, setpoint,300.00, impVal,238.00, Temp,0.00, rate,-0.32, avgDrop,134.00, avgEvp,-0.30, step,6.00, upperStepLimit,-10.00, Period,60.00, pCalc,0.00, measP,59.98, Date,Wed Sep 25 19:10:03 2019
Elect,78, time,1569453017.25, setpoint,300.00, impVal,370.00, Temp,0.00, rate,9.64, avgDrop,132.00, avgEvp,-0.30, step,6.00, upperStepLimit,-10.00, Period,60.00, pCalc,0.00, measP,13.69, Date,Wed Sep 25 19:10:17 2019
Elect,78, time,1569453063.63, setpoint,300.00, impVal,363.00, Temp,0.00, rate,-0.15, avgDrop,132.00, avgEvp,-0.24, step,6.00, upperStepLimit,-10.00, Period,60.00, pCalc,0.00, measP,46.31, Date,Wed Sep 25 19:11:03 2019
Elect,78, time,1569453123.67, setpoint,300.00, impVal,345.00, Temp,0.00, rate,-0.30, avgDrop,132.00, avgEvp,-0.26, step,6.00, upperStepLimit,-10.00, Period,60.00, pCalc,0.00, measP,60.05, Date,Wed Sep 25 19:12:03 2019
Elect,78, time,1569453183.55, setpoint,300.00, impVal,329.00, Temp,0.00, rate,-0.27, avgDrop,132.00, avgEvp,-0.24, step,6.00, upperStepLimit,-10.00, Period,60.00, pCalc,0.00, measP,59.95, Date,Wed Sep 25 19:13:03 2019
Elect,78, time,1569453243.61, setpoint,300.00, impVal,313.00, Temp,0.00, rate,-0.27, avgDrop,132.00, avgEvp,-0.28, step,6.00, upperStepLimit,-10.00, Period,60.00, pCalc,0.00, measP,60.05, Date,Wed Sep 25 19:14:03 2019
Elect,78, time,1569453303.55, setpoint,300.00, impVal,296.00, Temp,0.00, rate,-0.28, avgDrop,132.00, avgEvp,-0.27, step,6.00, upperStepLimit,-10.00, Period,60.00, pCalc,0.00, measP,59.94, Date,Wed Sep 25 19:15:03 2019
Elect,78, time,1569453363.62, setpoint,300.00, impVal,278.00, Temp,0.00, rate,-0.30, avgDrop,132.00, avgEvp,-0.28, step,6.00, upperStepLimit,-10.00, Period,60.00, pCalc,0.00, measP,60.00, Date,Wed Sep 25 19:16:03 2019
Elect,78, time,1569453423.58, setpoint,300.00, impVal,262.00, Temp,0.00, rate,-0.27, avgDrop,132.00, avgEvp,-0.28, step,6.00, upperStepLimit,-10.00, Period,60.00, pCalc,0.00, measP,60.02, Date,Wed Sep 25 19:17:03 2019
Elect,78, time,1569453483.55, setpoint,300.00, impVal,245.00, Temp,0.00, rate,-0.28, avgDrop,132.00, avgEvp,-0.28, step,6.00, upperStepLimit,-10.00, Period,60.00, pCalc,0.00, measP,59.98, Date,Wed Sep 25 19:18:03 2019
Elect,78, time,1569453543.55, setpoint,300.00, impVal,229.00, Temp,0.00, rate,-0.27, avgDrop,132.00, avgEvp,-0.27, step,6.00, upperStepLimit,-10.00, Period,60.00, pCalc,0.00, measP,60.00, Date,Wed Sep 25 19:19:03 2019
Elect,78, time,1569453557.12, setpoint,300.00, impVal,353.00, Temp,0.00, rate,9.14, avgDrop,127.00, avgEvp,-0.27, step,6.00, upperStepLimit,-10.00, Period,60.00, pCalc,0.00, measP,13.57, Date,Wed Sep 25 19:19:17 2019
Elect,78, time,1569453603.59, setpoint,300.00, impVal,340.00, Temp,0.00, rate,-0.28, avgDrop,127.00, avgEvp,-0.28, step,6.00, upperStepLimit,-10.00, Period,60.00, pCalc,0.00, measP,46.47, Date,Wed Sep 25 19:20:03 2019
Elect,78, time,1569453663.69, setpoint,300.00, impVal,324.00, Temp,0.00, rate,-0.27, avgDrop,127.00, avgEvp,-0.27, step,6.00, upperStepLimit,-10.00, Period,60.00, pCalc,0.00, measP,59.96, Date,Wed Sep 25 19:21:03 2019
Elect,78, time,1569453723.72, setpoint,300.00, impVal,308.00, Temp,0.00, rate,-0.27, avgDrop,127.00, avgEvp,-0.27, step,6.00, upperStepLimit,-10.00, Period,60.00, pCalc,0.00, measP,60.03, Date,Wed Sep 25 19:22:03 2019
Elect,78, time,1569453786.40, setpoint,300.00, impVal,288.00, Temp,0.00, rate,-0.32, avgDrop,127.00, avgEvp,-0.28, step,6.00, upperStepLimit,-10.00, Period,60.00, pCalc,0.00, measP,62.81, Date,Wed Sep 25 19:23:06 2019
Elect,78, time,1569453843.61, setpoint,300.00, impVal,273.00, Temp,0.00, rate,-0.26, avgDrop,127.00, avgEvp,-0.28, step,6.00, upperStepLimit,-10.00, Period,60.00, pCalc,0.00, measP,57.20, Date,Wed Sep 25 19:24:03 2019
Elect,78, time,1569453903.67, setpoint,300.00, impVal,258.00, Temp,0.00, rate,-0.25, avgDrop,127.00, avgEvp,-0.28, step,6.00, upperStepLimit,-10.00, Period,60.00, pCalc,0.00, measP,59.95, Date,Wed Sep 25 19:25:03 2019
Elect,78, time,1569453963.63, setpoint,300.00, impVal,240.00, Temp,0.00, rate,-0.30, avgDrop,127.00, avgEvp,-0.27, step,6.00, upperStepLimit,-10.00, Period,60.00, pCalc,0.00, measP,60.00, Date,Wed Sep 25 19:26:03 2019
Elect,78, time,1569453977.37, setpoint,300.00, impVal,354.00, Temp,0.00, rate,8.33, avgDrop,123.33, avgEvp,-0.27, step,6.00, upperStepLimit,-10.00, Period,60.00, pCalc,0.00, measP,13.69, Date,Wed Sep 25 19:26:17 2019
Elect,78, time,1569454023.58, setpoint,300.00, impVal,344.00, Temp,0.00, rate,-0.22, avgDrop,123.33, avgEvp,-0.26, step,6.00, upperStepLimit,-10.00, Period,60.00, pCalc,0.00, measP,46.34, Date,Wed Sep 25 19:27:03 2019
Elect,78, time,1569454083.70, setpoint,300.00, impVal,328.00, Temp,0.00, rate,-0.27, avgDrop,123.33, avgEvp,-0.26, step,6.00, upperStepLimit,-10.00, Period,60.00, pCalc,0.00, measP,59.99, Date,Wed Sep 25 19:28:03 2019
Elect,78, time,1569454143.55, setpoint,300.00, impVal,312.00, Temp,0.00, rate,-0.27, avgDrop,123.33, avgEvp,-0.25, step,6.00, upperStepLimit,-10.00, Period,60.00, pCalc,0.00, measP,59.99, Date,Wed Sep 25 19:29:03 2019
Elect,78, time,1569454203.60, setpoint,300.00, impVal,293.00, Temp,0.00, rate,-0.32, avgDrop,123.33, avgEvp,-0.28, step,6.00, upperStepLimit,-10.00, Period,60.00, pCalc,0.00, measP,60.05, Date,Wed Sep 25 19:30:03 2019
Elect,78, time,1569454263.58, setpoint,300.00, impVal,277.00, Temp,0.00, rate,-0.27, avgDrop,123.33, avgEvp,-0.28, step,6.00, upperStepLimit,-10.00, Period,60.00, pCalc,0.00, measP,59.98, Date,Wed Sep 25 19:31:03 2019
Elect,78, time,1569454323.55, setpoint,300.00, impVal,261.00, Temp,0.00, rate,-0.27, avgDrop,123.33, avgEvp,-0.28, step,6.00, upperStepLimit,-10.00, Period,60.00, pCalc,0.00, measP,59.97, Date,Wed Sep 25 19:32:03 2019
Elect,78, time,1569454383.55, setpoint,300.00, impVal,244.00, Temp,0.00, rate,-0.28, avgDrop,123.33, avgEvp,-0.27, step,6.00, upperStepLimit,-10.00, Period,60.00, pCalc,0.00, measP,60.00, Date,Wed Sep 25 19:33:03 2019
Elect,78, time,1569454397.35, setpoint,300.00, impVal,350.00, Temp,0.00, rate,7.68, avgDrop,114.67, avgEvp,-0.27, step,6.00, upperStepLimit,-10.00, Period,60.00, pCalc,0.00, measP,13.80, Date,Wed Sep 25 19:33:17 2019
Elect,78, time,1569454503.58, setpoint,300.00, impVal,323.00, Temp,0.00, rate,-0.25, avgDrop,114.67, avgEvp,-0.27, step,6.00, upperStepLimit,-10.00, Period,60.00, pCalc,0.00, measP,106.23, Date,Wed Sep 25 19:35:03 2019
Elect,78, time,1569454563.59, setpoint,300.00, impVal,309.00, Temp,0.00, rate,-0.23, avgDrop,114.67, avgEvp,-0.26, step,6.00, upperStepLimit,-10.00, Period,60.00, pCalc,0.00, measP,60.00, Date,Wed Sep 25 19:36:03 2019
Elect,78, time,1569454623.55, setpoint,300.00, impVal,290.00, Temp,0.00, rate,-0.32, avgDrop,114.67, avgEvp,-0.27, step,6.00, upperStepLimit,-10.00, Period,60.00, pCalc,0.00, measP,59.97, Date,Wed Sep 25 19:37:03 2019
Elect,78, time,1569454683.56, setpoint,300.00, impVal,277.00, Temp,0.00, rate,-0.22, avgDrop,114.67, avgEvp,-0.26, step,6.00, upperStepLimit,-10.00, Period,60.00, pCalc,0.00, measP,60.00, Date,Wed Sep 25 19:38:03 2019
Elect,78, time,1569454743.62, setpoint,300.00, impVal,261.00, Temp,0.00, rate,-0.27, avgDrop,114.67, avgEvp,-0.27, step,6.00, upperStepLimit,-10.00, Period,60.00, pCalc,0.00, measP,60.00, Date,Wed Sep 25 19:39:03 2019
Elect,78, time,1569454803.55, setpoint,300.00, impVal,243.00, Temp,0.00, rate,-0.30, avgDrop,114.67, avgEvp,-0.26, step,6.00, upperStepLimit,-10.00, Period,60.00, pCalc,0.00, measP,60.00, Date,Wed Sep 25 19:40:03 2019
Elect,78, time,1569454817.11, setpoint,300.00, impVal,349.00, Temp,0.00, rate,7.82, avgDrop,108.67, avgEvp,-0.26, step,6.00, upperStepLimit,-10.00, Period,60.00, pCalc,0.00, measP,13.56, Date,Wed Sep 25 19:40:17 2019
Elect,78, time,1569454863.60, setpoint,300.00, impVal,336.00, Temp,0.00, rate,-0.28, avgDrop,108.67, avgEvp,-0.28, step,6.00, upperStepLimit,-10.00, Period,60.00, pCalc,0.00, measP,46.49, Date,Wed Sep 25 19:41:03 2019
Elect,78, time,1569454923.58, setpoint,300.00, impVal,320.00, Temp,0.00, rate,-0.27, avgDrop,108.67, avgEvp,-0.28, step,6.00, upperStepLimit,-10.00, Period,60.00, pCalc,0.00, measP,59.97, Date,Wed Sep 25 19:42:03 2019
Elect,78, time,1569454983.73, setpoint,300.00, impVal,304.00, Temp,0.00, rate,-0.27, avgDrop,108.67, avgEvp,-0.27, step,6.00, upperStepLimit,-10.00, Period,60.00, pCalc,0.00, measP,60.03, Date,Wed Sep 25 19:43:03 2019
Elect,78, time,1569455043.61, setpoint,300.00, impVal,287.00, Temp,0.00, rate,-0.28, avgDrop,108.67, avgEvp,-0.27, step,6.00, upperStepLimit,-10.00, Period,60.00, pCalc,0.00, measP,60.02, Date,Wed Sep 25 19:44:03 2019
Elect,78, time,1569455103.69, setpoint,300.00, impVal,272.00, Temp,0.00, rate,-0.25, avgDrop,108.67, avgEvp,-0.27, step,6.00, upperStepLimit,-10.00, Period,60.00, pCalc,0.00, measP,59.94, Date,Wed Sep 25 19:45:03 2019
Elect,78, time,1569455163.60, setpoint,300.00, impVal,256.00, Temp,0.00, rate,-0.27, avgDrop,108.67, avgEvp,-0.27, step,6.00, upperStepLimit,-10.00, Period,60.00, pCalc,0.00, measP,60.05, Date,Wed Sep 25 19:46:03 2019
Elect,78, time,1569455223.61, setpoint,300.00, impVal,238.00, Temp,0.00, rate,-0.30, avgDrop,108.67, avgEvp,-0.27, step,6.00, upperStepLimit,-10.00, Period,60.00, pCalc,0.00, measP,59.95, Date,Wed Sep 25 19:47:03 2019
Elect,78, time,1569455237.25, setpoint,300.00, impVal,349.00, Temp,0.00, rate,8.10, avgDrop,107.67, avgEvp,-0.27, step,6.00, upperStepLimit,-10.00, Period,60.00, pCalc,0.00, measP,13.70, Date,Wed Sep 25 19:47:17 2019
Elect,78, time,1569455283.62, setpoint,300.00, impVal,336.00, Temp,0.00, rate,-0.28, avgDrop,107.67, avgEvp,-0.28, step,6.00, upperStepLimit,-10.00, Period,60.00, pCalc,0.00, measP,46.30, Date,Wed Sep 25 19:48:03 2019
Elect,78, time,1569455343.55, setpoint,300.00, impVal,320.00, Temp,0.00, rate,-0.27, avgDrop,107.67, avgEvp,-0.28, step,6.00, upperStepLimit,-10.00, Period,60.00, pCalc,0.00, measP,60.00, Date,Wed Sep 25 19:49:03 2019
Elect,78, time,1569514134.56, setpoint,300.00, impVal,0.00, Temp,0.00, rate,0.00, avgDrop,33.33, avgEvp,-1.00, step,6.00, upperStepLimit,-10.00, Period,60.00, pCalc,0.00, measP,66.13, Date,Thu Sep 26 12:08:54 2019
Elect,78, time,1569514137.97, setpoint,300.00, impVal,0.00, Temp,0.00, rate,0.00, avgDrop,33.33, avgEvp,-1.00, step,6.00, upperStepLimit,-10.00, Period,60.00, pCalc,0.00, measP,3.40, Date,Thu Sep 26 12:08:57 2019
Elect,78, time,1569514141.14, setpoint,300.00, impVal,0.00, Temp,0.00, rate,0.00, avgDrop,33.33, avgEvp,-1.00, step,6.00, upperStepLimit,-10.00, Period,60.00, pCalc,0.00, measP,3.17, Date,Thu Sep 26 12:09:01 2019
Elect,78, time,1569517806.92, setpoint,300.00, impVal,0.00, Temp,0.00, rate,0.00, avgDrop,33.33, avgEvp,-1.00, step,6.00, upperStepLimit,-10.00, Period,60.00, pCalc,0.00, measP,10.75, Date,Thu Sep 26 13:10:06 2019
Elect,78, time,1569517838.45, setpoint,300.00, impVal,51.00, Temp,0.00, rate,1.62, avgDrop,39.22, avgEvp,-1.00, step,6.00, upperStepLimit,-10.00, Period,60.00, pCalc,0.00, measP,31.52, Date,Thu Sep 26 13:10:38 2019
Elect,78, time,1569517852.06, setpoint,300.00, impVal,153.00, Temp,0.00, rate,7.46, avgDrop,62.11, avgEvp,-1.00, step,6.00, upperStepLimit,-10.00, Period,60.00, pCalc,0.00, measP,13.68, Date,Thu Sep 26 13:10:52 2019
Elect,78, time,1569517865.76, setpoint,300.00, impVal,238.00, Temp,0.00, rate,6.24, avgDrop,79.33, avgEvp,-1.00, step,6.00, upperStepLimit,-10.00, Period,60.00, pCalc,0.00, measP,13.62, Date,Thu Sep 26 13:11:05 2019
Elect,78, time,1569517886.28, setpoint,300.00, impVal,338.00, Temp,0.00, rate,4.86, avgDrop,95.67, avgEvp,-1.00, step,6.00, upperStepLimit,-10.00, Period,60.00, pCalc,0.00, measP,20.59, Date,Thu Sep 26 13:11:26 2019
Elect,78, time,1569518301.60, setpoint,300.00, impVal,239.00, Temp,0.00, rate,5.18, avgDrop,33.33, avgEvp,-1.00, step,6.00, upperStepLimit,-10.00, Period,60.00, pCalc,0.00, measP,46.10, Date,Thu Sep 26 13:18:21 2019
Elect,78, time,1569518353.72, setpoint,300.00, impVal,230.00, Temp,0.00, rate,57.03, avgDrop,33.33, avgEvp,-1.00, step,6.00, upperStepLimit,-10.00, Period,60.00, pCalc,0.00, measP,4.03, Date,Thu Sep 26 13:19:13 2019
Elect,78, time,1569518374.42, setpoint,300.00, impVal,309.00, Temp,0.00, rate,3.80, avgDrop,48.56, avgEvp,-1.00, step,6.00, upperStepLimit,-10.00, Period,60.00, pCalc,0.00, measP,20.77, Date,Thu Sep 26 13:19:34 2019
Elect,78, time,1569519013.57, setpoint,300.00, impVal,175.00, Temp,0.00, rate,-0.21, avgDrop,48.56, avgEvp,-0.74, step,6.00, upperStepLimit,-10.00, Period,60.00, pCalc,0.00, measP,639.14, Date,Thu Sep 26 13:30:13 2019
Elect,78, time,1569519027.36, setpoint,300.00, impVal,312.00, Temp,0.00, rate,9.89, avgDrop,83.11, avgEvp,-0.74, step,6.00, upperStepLimit,-10.00, Period,60.00, pCalc,0.00, measP,13.85, Date,Thu Sep 26 13:30:27 2019
Elect,78, time,1569519073.54, setpoint,300.00, impVal,303.00, Temp,0.00, rate,-0.19, avgDrop,83.11, avgEvp,-0.47, step,6.00, upperStepLimit,-10.00, Period,60.00, pCalc,0.00, measP,46.18, Date,Thu Sep 26 13:31:13 2019
Elect,78, time,1569519193.50, setpoint,300.00, impVal,278.00, Temp,0.00, rate,-0.21, avgDrop,83.11, avgEvp,-0.20, step,6.00, upperStepLimit,-10.00, Period,60.00, pCalc,0.00, measP,119.96, Date,Thu Sep 26 13:33:13 2019
Elect,78, time,1569519253.51, setpoint,300.00, impVal,263.00, Temp,0.00, rate,-0.25, avgDrop,83.11, avgEvp,-0.22, step,6.00, upperStepLimit,-10.00, Period,60.00, pCalc,0.00, measP,60.01, Date,Thu Sep 26 13:34:13 2019
Elect,78, time,1569519267.32, setpoint,300.00, impVal,374.00, Temp,0.00, rate,8.07, avgDrop,109.00, avgEvp,-0.22, step,6.00, upperStepLimit,-10.00, Period,60.00, pCalc,0.00, measP,13.75, Date,Thu Sep 26 13:34:27 2019
Elect,78, time,1569519373.62, setpoint,300.00, impVal,352.00, Temp,0.00, rate,-0.21, avgDrop,109.00, avgEvp,-0.22, step,6.00, upperStepLimit,-10.00, Period,60.00, pCalc,0.00, measP,106.29, Date,Thu Sep 26 13:36:13 2019
Elect,78, time,1569519433.51, setpoint,300.00, impVal,340.00, Temp,0.00, rate,-0.20, avgDrop,109.00, avgEvp,-0.22, step,6.00, upperStepLimit,-10.00, Period,60.00, pCalc,0.00, measP,59.95, Date,Thu Sep 26 13:37:13 2019
Elect,78, time,1569519493.49, setpoint,300.00, impVal,327.00, Temp,0.00, rate,-0.22, avgDrop,109.00, avgEvp,-0.21, step,6.00, upperStepLimit,-10.00, Period,60.00, pCalc,0.00, measP,59.99, Date,Thu Sep 26 13:38:13 2019
Elect,78, time,1569519553.52, setpoint,300.00, impVal,313.00, Temp,0.00, rate,-0.23, avgDrop,109.00, avgEvp,-0.22, step,6.00, upperStepLimit,-10.00, Period,60.00, pCalc,0.00, measP,60.03, Date,Thu Sep 26 13:39:13 2019
Elect,78, time,1569519613.50, setpoint,300.00, impVal,299.00, Temp,0.00, rate,-0.23, avgDrop,109.00, avgEvp,-0.23, step,6.00, upperStepLimit,-10.00, Period,60.00, pCalc,0.00, measP,59.97, Date,Thu Sep 26 13:40:13 2019
Elect,78, time,1569519673.49, setpoint,300.00, impVal,286.00, Temp,0.00, rate,-0.22, avgDrop,109.00, avgEvp,-0.23, step,6.00, upperStepLimit,-10.00, Period,60.00, pCalc,0.00, measP,60.00, Date,Thu Sep 26 13:41:13 2019
Elect,78, time,1569519733.55, setpoint,300.00, impVal,271.00, Temp,0.00, rate,-0.25, avgDrop,109.00, avgEvp,-0.23, step,6.00, upperStepLimit,-10.00, Period,60.00, pCalc,0.00, measP,60.04, Date,Thu Sep 26 13:42:13 2019
Elect,78, time,1569519793.51, setpoint,300.00, impVal,256.00, Temp,0.00, rate,-0.25, avgDrop,109.00, avgEvp,-0.24, step,6.00, upperStepLimit,-10.00, Period,60.00, pCalc,0.00, measP,59.97, Date,Thu Sep 26 13:43:13 2019
Elect,78, time,1569519853.49, setpoint,300.00, impVal,242.00, Temp,0.00, rate,-0.23, avgDrop,109.00, avgEvp,-0.24, step,6.00, upperStepLimit,-10.00, Period,60.00, pCalc,0.00, measP,59.99, Date,Thu Sep 26 13:44:13 2019
Elect,78, time,1569519867.30, setpoint,300.00, impVal,351.00, Temp,0.00, rate,7.90, avgDrop,119.00, avgEvp,-0.24, step,6.00, upperStepLimit,-10.00, Period,60.00, pCalc,0.00, measP,13.80, Date,Thu Sep 26 13:44:27 2019
Elect,78, time,1569519913.92, setpoint,300.00, impVal,343.00, Temp,0.00, rate,-0.17, avgDrop,119.00, avgEvp,-0.22, step,6.00, upperStepLimit,-10.00, Period,60.00, pCalc,0.00, measP,46.56, Date,Thu Sep 26 13:45:13 2019
Elect,78, time,1569519973.61, setpoint,300.00, impVal,330.00, Temp,0.00, rate,-0.22, avgDrop,119.00, avgEvp,-0.21, step,6.00, upperStepLimit,-10.00, Period,60.00, pCalc,0.00, measP,59.70, Date,Thu Sep 26 13:46:13 2019
Elect,78, time,1569520033.53, setpoint,300.00, impVal,317.00, Temp,0.00, rate,-0.22, avgDrop,119.00, avgEvp,-0.20, step,6.00, upperStepLimit,-10.00, Period,60.00, pCalc,0.00, measP,59.98, Date,Thu Sep 26 13:47:13 2019
Elect,78, time,1569520093.49, setpoint,300.00, impVal,304.00, Temp,0.00, rate,-0.22, avgDrop,119.00, avgEvp,-0.22, step,6.00, upperStepLimit,-10.00, Period,60.00, pCalc,0.00, measP,59.96, Date,Thu Sep 26 13:48:13 2019
Elect,78, time,1569520153.58, setpoint,300.00, impVal,291.00, Temp,0.00, rate,-0.22, avgDrop,119.00, avgEvp,-0.22, step,6.00, upperStepLimit,-10.00, Period,60.00, pCalc,0.00, measP,60.02, Date,Thu Sep 26 13:49:13 2019
Elect,78, time,1569520213.53, setpoint,300.00, impVal,277.00, Temp,0.00, rate,-0.23, avgDrop,119.00, avgEvp,-0.22, step,6.00, upperStepLimit,-10.00, Period,60.00, pCalc,0.00, measP,60.01, Date,Thu Sep 26 13:50:13 2019
Elect,78, time,1569520273.52, setpoint,300.00, impVal,263.00, Temp,0.00, rate,-0.23, avgDrop,119.00, avgEvp,-0.23, step,6.00, upperStepLimit,-10.00, Period,60.00, pCalc,0.00, measP,59.98, Date,Thu Sep 26 13:51:13 2019
Elect,78, time,1569520333.52, setpoint,300.00, impVal,248.00, Temp,0.00, rate,-0.25, avgDrop,119.00, avgEvp,-0.24, step,6.00, upperStepLimit,-10.00, Period,60.00, pCalc,0.00, measP,60.01, Date,Thu Sep 26 13:52:13 2019
Elect,78, time,1569520393.50, setpoint,300.00, impVal,232.00, Temp,0.00, rate,-0.27, avgDrop,119.00, avgEvp,-0.25, step,6.00, upperStepLimit,-10.00, Period,60.00, pCalc,0.00, measP,59.98, Date,Thu Sep 26 13:53:13 2019
Elect,78, time,1569520425.04, setpoint,300.00, impVal,346.00, Temp,0.00, rate,3.61, avgDrop,111.33, avgEvp,-0.25, step,6.00, upperStepLimit,-10.00, Period,60.00, pCalc,0.00, measP,31.54, Date,Thu Sep 26 13:53:45 2019
Elect,78, time,1569520513.51, setpoint,300.00, impVal,326.00, Temp,0.00, rate,-0.23, avgDrop,111.33, avgEvp,-0.25, step,6.00, upperStepLimit,-10.00, Period,60.00, pCalc,0.00, measP,88.47, Date,Thu Sep 26 13:55:13 2019
Elect,78, time,1569520573.52, setpoint,300.00, impVal,312.00, Temp,0.00, rate,-0.23, avgDrop,111.33, avgEvp,-0.24, step,6.00, upperStepLimit,-10.00, Period,60.00, pCalc,0.00, measP,60.01, Date,Thu Sep 26 13:56:13 2019
Elect,78, time,1569520633.49, setpoint,300.00, impVal,296.00, Temp,0.00, rate,-0.27, avgDrop,111.33, avgEvp,-0.24, step,6.00, upperStepLimit,-10.00, Period,60.00, pCalc,0.00, measP,59.97, Date,Thu Sep 26 13:57:13 2019
Elect,78, time,1569520700.37, setpoint,300.00, impVal,284.00, Temp,0.00, rate,-0.20, avgDrop,111.33, avgEvp,-0.23, step,6.00, upperStepLimit,-10.00, Period,60.00, pCalc,0.00, measP,60.00, Date,Thu Sep 26 13:58:20 2019
Elect,78, time,1569520753.59, setpoint,300.00, impVal,270.00, Temp,0.00, rate,-0.23, avgDrop,111.33, avgEvp,-0.23, step,6.00, upperStepLimit,-10.00, Period,60.00, pCalc,0.00, measP,60.04, Date,Thu Sep 26 13:59:13 2019
Elect,78, time,1569520819.18, setpoint,300.00, impVal,255.00, Temp,0.00, rate,41.20, avgDrop,33.33, avgEvp,-1.00, step,6.00, upperStepLimit,-10.00, Period,60.00, pCalc,0.00, measP,6.19, Date,Thu Sep 26 14:00:19 2019
Elect,78, time,1569520839.82, setpoint,300.00, impVal,332.00, Temp,0.00, rate,3.72, avgDrop,47.89, avgEvp,-1.00, step,6.00, upperStepLimit,-10.00, Period,60.00, pCalc,0.00, measP,20.71, Date,Thu Sep 26 14:00:39 2019
Elect,78, time,1569520939.06, setpoint,300.00, impVal,307.00, Temp,0.00, rate,-0.25, avgDrop,47.89, avgEvp,-0.75, step,6.00, upperStepLimit,-10.00, Period,60.00, pCalc,0.00, measP,99.17, Date,Thu Sep 26 14:02:19 2019
Elect,78, time,1569520999.04, setpoint,300.00, impVal,289.00, Temp,0.00, rate,-0.30, avgDrop,47.89, avgEvp,-0.52, step,6.00, upperStepLimit,-10.00, Period,60.00, pCalc,0.00, measP,59.99, Date,Thu Sep 26 14:03:19 2019
Elect,78, time,1569521044.62, setpoint,300.00, impVal,399.00, Temp,0.00, rate,2.41, avgDrop,73.44, avgEvp,-0.52, step,6.00, upperStepLimit,-10.00, Period,60.00, pCalc,0.00, measP,45.57, Date,Thu Sep 26 14:04:04 2019
Elect,78, time,1569521059.03, setpoint,300.00, impVal,398.00, Temp,0.00, rate,-0.07, avgDrop,73.44, avgEvp,-0.21, step,6.00, upperStepLimit,-10.00, Period,60.00, pCalc,0.00, measP,14.47, Date,Thu Sep 26 14:04:19 2019
Elect,78, time,1569521118.98, setpoint,300.00, impVal,387.00, Temp,0.00, rate,-0.18, avgDrop,73.44, avgEvp,-0.18, step,6.00, upperStepLimit,-10.00, Period,60.00, pCalc,0.00, measP,59.95, Date,Thu Sep 26 14:05:18 2019
Elect,78, time,1569521179.01, setpoint,300.00, impVal,376.00, Temp,0.00, rate,-0.18, avgDrop,73.44, avgEvp,-0.15, step,6.00, upperStepLimit,-10.00, Period,60.00, pCalc,0.00, measP,60.03, Date,Thu Sep 26 14:06:19 2019
Elect,78, time,1569521239.09, setpoint,300.00, impVal,368.00, Temp,0.00, rate,-0.13, avgDrop,73.44, avgEvp,-0.17, step,6.00, upperStepLimit,-10.00, Period,60.00, pCalc,0.00, measP,60.02, Date,Thu Sep 26 14:07:19 2019
Elect,78, time,1569521299.05, setpoint,300.00, impVal,359.00, Temp,0.00, rate,-0.15, avgDrop,73.44, avgEvp,-0.16, step,6.00, upperStepLimit,-10.00, Period,60.00, pCalc,0.00, measP,59.96, Date,Thu Sep 26 14:08:19 2019
Elect,78, time,1569521359.04, setpoint,300.00, impVal,346.00, Temp,0.00, rate,-0.22, avgDrop,73.44, avgEvp,-0.17, step,6.00, upperStepLimit,-10.00, Period,60.00, pCalc,0.00, measP,60.06, Date,Thu Sep 26 14:09:19 2019
Elect,78, time,1569521419.00, setpoint,300.00, impVal,332.00, Temp,0.00, rate,-0.23, avgDrop,73.44, avgEvp,-0.20, step,6.00, upperStepLimit,-10.00, Period,60.00, pCalc,0.00, measP,59.96, Date,Thu Sep 26 14:10:19 2019
Elect,78, time,1569521478.98, setpoint,300.00, impVal,318.00, Temp,0.00, rate,-0.23, avgDrop,73.44, avgEvp,-0.23, step,6.00, upperStepLimit,-10.00, Period,60.00, pCalc,0.00, measP,59.98, Date,Thu Sep 26 14:11:18 2019
Elect,78, time,1569521539.03, setpoint,300.00, impVal,300.00, Temp,0.00, rate,-0.30, avgDrop,73.44, avgEvp,-0.26, step,6.00, upperStepLimit,-10.00, Period,60.00, pCalc,0.00, measP,60.05, Date,Thu Sep 26 14:12:19 2019
Elect,78, time,1569521599.03, setpoint,300.00, impVal,288.00, Temp,0.00, rate,-0.20, avgDrop,73.44, avgEvp,-0.24, step,6.00, upperStepLimit,-10.00, Period,60.00, pCalc,0.00, measP,60.01, Date,Thu Sep 26 14:13:19 2019
Elect,78, time,1569521659.11, setpoint,300.00, impVal,274.00, Temp,0.00, rate,-0.23, avgDrop,73.44, avgEvp,-0.24, step,6.00, upperStepLimit,-10.00, Period,60.00, pCalc,0.00, measP,59.94, Date,Thu Sep 26 14:14:19 2019
Elect,78, time,1569521719.04, setpoint,300.00, impVal,260.00, Temp,0.00, rate,-0.23, avgDrop,73.44, avgEvp,-0.22, step,6.00, upperStepLimit,-10.00, Period,60.00, pCalc,0.00, measP,60.00, Date,Thu Sep 26 14:15:19 2019
Elect,78, time,1569521732.74, setpoint,300.00, impVal,367.00, Temp,0.00, rate,7.78, avgDrop,98.00, avgEvp,-0.22, step,6.00, upperStepLimit,-10.00, Period,60.00, pCalc,0.00, measP,13.76, Date,Thu Sep 26 14:15:32 2019
Elect,78, time,1569521779.06, setpoint,300.00, impVal,358.00, Temp,0.00, rate,-0.19, avgDrop,98.00, avgEvp,-0.22, step,6.00, upperStepLimit,-10.00, Period,60.00, pCalc,0.00, measP,46.25, Date,Thu Sep 26 14:16:19 2019
Elect,78, time,1569521839.15, setpoint,300.00, impVal,347.00, Temp,0.00, rate,-0.18, avgDrop,98.00, avgEvp,-0.20, step,6.00, upperStepLimit,-10.00, Period,60.00, pCalc,0.00, measP,60.04, Date,Thu Sep 26 14:17:19 2019
Elect,78, time,1569521898.99, setpoint,300.00, impVal,335.00, Temp,0.00, rate,-0.20, avgDrop,98.00, avgEvp,-0.19, step,6.00, upperStepLimit,-10.00, Period,60.00, pCalc,0.00, measP,59.95, Date,Thu Sep 26 14:18:18 2019
Elect,78, time,1569521959.03, setpoint,300.00, impVal,320.00, Temp,0.00, rate,-0.25, avgDrop,98.00, avgEvp,-0.21, step,6.00, upperStepLimit,-10.00, Period,60.00, pCalc,0.00, measP,60.05, Date,Thu Sep 26 14:19:19 2019
Elect,78, time,1569522019.04, setpoint,300.00, impVal,304.00, Temp,0.00, rate,-0.27, avgDrop,98.00, avgEvp,-0.24, step,6.00, upperStepLimit,-10.00, Period,60.00, pCalc,0.00, measP,59.95, Date,Thu Sep 26 14:20:19 2019
Elect,78, time,1569522078.97, setpoint,300.00, impVal,291.00, Temp,0.00, rate,-0.22, avgDrop,98.00, avgEvp,-0.24, step,6.00, upperStepLimit,-10.00, Period,60.00, pCalc,0.00, measP,60.00, Date,Thu Sep 26 14:21:18 2019
Elect,78, time,1569522139.00, setpoint,300.00, impVal,276.00, Temp,0.00, rate,-0.25, avgDrop,98.00, avgEvp,-0.24, step,6.00, upperStepLimit,-10.00, Period,60.00, pCalc,0.00, measP,60.02, Date,Thu Sep 26 14:22:18 2019
Elect,78, time,1569522198.98, setpoint,300.00, impVal,260.00, Temp,0.00, rate,-0.27, avgDrop,98.00, avgEvp,-0.24, step,6.00, upperStepLimit,-10.00, Period,60.00, pCalc,0.00, measP,59.98, Date,Thu Sep 26 14:23:18 2019
Elect,78, time,1569522258.98, setpoint,300.00, impVal,246.00, Temp,0.00, rate,-0.23, avgDrop,98.00, avgEvp,-0.25, step,6.00, upperStepLimit,-10.00, Period,60.00, pCalc,0.00, measP,60.00, Date,Thu Sep 26 14:24:18 2019
Elect,78, time,1569522290.30, setpoint,300.00, impVal,357.00, Temp,0.00, rate,3.54, avgDrop,109.33, avgEvp,-0.25, step,6.00, upperStepLimit,-10.00, Period,60.00, pCalc,0.00, measP,31.31, Date,Thu Sep 26 14:24:50 2019
Elect,78, time,1569522319.02, setpoint,300.00, impVal,352.00, Temp,0.00, rate,-0.17, avgDrop,109.33, avgEvp,-0.22, step,6.00, upperStepLimit,-10.00, Period,60.00, pCalc,0.00, measP,28.73, Date,Thu Sep 26 14:25:19 2019
Elect,78, time,1569522378.98, setpoint,300.00, impVal,340.00, Temp,0.00, rate,-0.20, avgDrop,109.33, avgEvp,-0.20, step,6.00, upperStepLimit,-10.00, Period,60.00, pCalc,0.00, measP,59.95, Date,Thu Sep 26 14:26:18 2019
Elect,78, time,1569522438.98, setpoint,300.00, impVal,327.00, Temp,0.00, rate,-0.22, avgDrop,109.33, avgEvp,-0.20, step,6.00, upperStepLimit,-10.00, Period,60.00, pCalc,0.00, measP,60.00, Date,Thu Sep 26 14:27:18 2019
Elect,78, time,1569522499.03, setpoint,300.00, impVal,313.00, Temp,0.00, rate,-0.23, avgDrop,109.33, avgEvp,-0.22, step,6.00, upperStepLimit,-10.00, Period,60.00, pCalc,0.00, measP,60.05, Date,Thu Sep 26 14:28:19 2019
Elect,78, time,1569522559.04, setpoint,300.00, impVal,298.00, Temp,0.00, rate,-0.25, avgDrop,109.33, avgEvp,-0.23, step,6.00, upperStepLimit,-10.00, Period,60.00, pCalc,0.00, measP,60.01, Date,Thu Sep 26 14:29:19 2019
Elect,78, time,1569522619.02, setpoint,300.00, impVal,284.00, Temp,0.00, rate,-0.23, avgDrop,109.33, avgEvp,-0.24, step,6.00, upperStepLimit,-10.00, Period,60.00, pCalc,0.00, measP,59.95, Date,Thu Sep 26 14:30:19 2019
Elect,78, time,1569522679.10, setpoint,300.00, impVal,269.00, Temp,0.00, rate,-0.25, avgDrop,109.33, avgEvp,-0.24, step,6.00, upperStepLimit,-10.00, Period,60.00, pCalc,0.00, measP,59.98, Date,Thu Sep 26 14:31:19 2019
Elect,78, time,1569522738.98, setpoint,300.00, impVal,254.00, Temp,0.00, rate,-0.25, avgDrop,109.33, avgEvp,-0.24, step,6.00, upperStepLimit,-10.00, Period,60.00, pCalc,0.00, measP,60.00, Date,Thu Sep 26 14:32:18 2019
Elect,78, time,1569522799.02, setpoint,300.00, impVal,238.00, Temp,0.00, rate,-0.27, avgDrop,109.33, avgEvp,-0.26, step,6.00, upperStepLimit,-10.00, Period,60.00, pCalc,0.00, measP,60.05, Date,Thu Sep 26 14:33:19 2019
Elect,78, time,1569522812.81, setpoint,300.00, impVal,333.00, Temp,0.00, rate,6.95, avgDrop,104.33, avgEvp,-0.26, step,6.00, upperStepLimit,-10.00, Period,60.00, pCalc,0.00, measP,13.67, Date,Thu Sep 26 14:33:32 2019
Elect,78, time,1569522859.02, setpoint,300.00, impVal,321.00, Temp,0.00, rate,-0.26, avgDrop,104.33, avgEvp,-0.26, step,6.00, upperStepLimit,-10.00, Period,60.00, pCalc,0.00, measP,46.33, Date,Thu Sep 26 14:34:19 2019
Elect,78, time,1569522919.02, setpoint,300.00, impVal,306.00, Temp,0.00, rate,-0.25, avgDrop,104.33, avgEvp,-0.26, step,6.00, upperStepLimit,-10.00, Period,60.00, pCalc,0.00, measP,60.00, Date,Thu Sep 26 14:35:19 2019
Elect,78, time,1569522979.00, setpoint,300.00, impVal,291.00, Temp,0.00, rate,-0.25, avgDrop,104.33, avgEvp,-0.25, step,6.00, upperStepLimit,-10.00, Period,60.00, pCalc,0.00, measP,59.98, Date,Thu Sep 26 14:36:19 2019
Elect,78, time,1569523039.05, setpoint,300.00, impVal,279.00, Temp,0.00, rate,-0.20, avgDrop,104.33, avgEvp,-0.23, step,6.00, upperStepLimit,-10.00, Period,60.00, pCalc,0.00, measP,59.99, Date,Thu Sep 26 14:37:19 2019
Elect,78, time,1569523099.14, setpoint,300.00, impVal,259.00, Temp,0.00, rate,-0.33, avgDrop,104.33, avgEvp,-0.26, step,6.00, upperStepLimit,-10.00, Period,60.00, pCalc,0.00, measP,60.07, Date,Thu Sep 26 14:38:19 2019
Elect,78, time,1569523159.09, setpoint,300.00, impVal,244.00, Temp,24.96, rate,-0.25, avgDrop,104.33, avgEvp,-0.26, step,6.00, upperStepLimit,-10.00, Period,60.00, pCalc,0.00, measP,59.97, Date,Thu Sep 26 14:39:19 2019
Elect,78, time,1569523173.24, setpoint,300.00, impVal,360.00, Temp,24.96, rate,8.23, avgDrop,107.33, avgEvp,-0.26, step,6.00, upperStepLimit,-10.00, Period,60.00, pCalc,0.00, measP,14.10, Date,Thu Sep 26 14:39:33 2019
Elect,78, time,1569523219.05, setpoint,300.00, impVal,349.00, Temp,25.04, rate,-0.24, avgDrop,107.33, avgEvp,-0.27, step,6.00, upperStepLimit,-10.00, Period,60.00, pCalc,0.00, measP,45.87, Date,Thu Sep 26 14:40:19 2019
Elect,78, time,1569523279.15, setpoint,300.00, impVal,332.00, Temp,24.96, rate,-0.28, avgDrop,107.33, avgEvp,-0.26, step,6.00, upperStepLimit,-10.00, Period,60.00, pCalc,0.00, measP,60.05, Date,Thu Sep 26 14:41:19 2019
Elect,78, time,1569523339.11, setpoint,300.00, impVal,316.00, Temp,24.96, rate,-0.27, avgDrop,107.33, avgEvp,-0.26, step,6.00, upperStepLimit,-10.00, Period,60.00, pCalc,0.00, measP,59.94, Date,Thu Sep 26 14:42:19 2019
Elect,78, time,1569523399.06, setpoint,300.00, impVal,297.00, Temp,25.04, rate,-0.32, avgDrop,107.33, avgEvp,-0.29, step,6.00, upperStepLimit,-10.00, Period,60.00, pCalc,0.00, measP,60.03, Date,Thu Sep 26 14:43:19 2019
Elect,78, time,1569523459.12, setpoint,300.00, impVal,285.00, Temp,25.04, rate,-0.20, avgDrop,107.33, avgEvp,-0.26, step,6.00, upperStepLimit,-10.00, Period,60.00, pCalc,0.00, measP,59.97, Date,Thu Sep 26 14:44:19 2019
Elect,78, time,1569523519.15, setpoint,300.00, impVal,282.00, Temp,14.97, rate,-0.05, avgDrop,107.33, avgEvp,-0.19, step,6.00, upperStepLimit,-10.00, Period,60.00, pCalc,0.00, measP,60.00, Date,Thu Sep 26 14:45:19 2019
Elect,78, time,1569523579.04, setpoint,300.00, impVal,279.00, Temp,16.07, rate,-0.05, avgDrop,107.33, avgEvp,-0.10, step,6.00, upperStepLimit,-10.00, Period,60.00, pCalc,0.00, measP,60.00, Date,Thu Sep 26 14:46:19 2019
Elect,78, time,1569523639.15, setpoint,300.00, impVal,266.00, Temp,16.07, rate,-0.22, avgDrop,107.33, avgEvp,-0.11, step,6.00, upperStepLimit,-10.00, Period,60.00, pCalc,0.00, measP,60.04, Date,Thu Sep 26 14:47:19 2019
Elect,78, time,1569523701.59, setpoint,300.00, impVal,212.00, Temp,34.31, rate,-0.86, avgDrop,107.33, avgEvp,-0.38, step,6.00, upperStepLimit,-10.00, Period,60.00, pCalc,0.00, measP,62.44, Date,Thu Sep 26 14:48:21 2019
Elect,78, time,1569523715.62, setpoint,300.00, impVal,288.00, Temp,37.04, rate,5.41, avgDrop,95.67, avgEvp,-0.38, step,6.00, upperStepLimit,-10.00, Period,60.00, pCalc,0.00, measP,14.05, Date,Thu Sep 26 14:48:35 2019
Elect,78, time,1569523819.72, setpoint,300.00, impVal,210.00, Temp,36.94, rate,-0.75, avgDrop,95.67, avgEvp,-0.61, step,6.00, upperStepLimit,-10.00, Period,60.00, pCalc,0.00, measP,104.16, Date,Thu Sep 26 14:50:19 2019
Elect,78, time,1569523851.31, setpoint,300.00, impVal,360.00, Temp,37.04, rate,4.75, avgDrop,114.00, avgEvp,-0.61, step,6.00, upperStepLimit,-10.00, Period,60.00, pCalc,0.00, measP,31.58, Date,Thu Sep 26 14:50:51 2019
