Elect,74, time,1569446219.45, setpoint,300.00, impVal,0.00, Temp,0.00, rate,0.00, avgDrop,33.33, avgEvp,-1.00, step,6.00, upperStepLimit,-10.00, Period,60.00, pCalc,0.00, measP,40.12, Date,Wed Sep 25 17:16:59 2019
Elect,74, time,1569446222.75, setpoint,300.00, impVal,0.00, Temp,0.00, rate,0.00, avgDrop,33.33, avgEvp,-1.00, step,6.00, upperStepLimit,-10.00, Period,60.00, pCalc,0.00, measP,3.34, Date,Wed Sep 25 17:17:02 2019
Elect,74, time,1569446226.20, setpoint,300.00, impVal,0.00, Temp,0.00, rate,0.00, avgDrop,33.33, avgEvp,-1.00, step,6.00, upperStepLimit,-10.00, Period,60.00, pCalc,0.00, measP,3.30, Date,Wed Sep 25 17:17:06 2019
Elect,74, time,1569448300.98, setpoint,300.00, impVal,3.00, Temp,0.00, rate,0.01, avgDrop,33.33, avgEvp,-1.00, step,6.00, upperStepLimit,-10.00, Period,60.00, pCalc,0.00, measP,272.63, Date,Wed Sep 25 17:51:40 2019
Elect,74, time,1569451342.68, setpoint,300.00, impVal,0.00, Temp,0.00, rate,0.00, avgDrop,33.33, avgEvp,-1.00, step,6.00, upperStepLimit,-10.00, Period,60.00, pCalc,0.00, measP,66.52, Date,Wed Sep 25 18:42:22 2019
Elect,74, time,1569451345.93, setpoint,300.00, impVal,0.00, Temp,0.00, rate,0.00, avgDrop,33.33, avgEvp,-1.00, step,6.00, upperStepLimit,-10.00, Period,60.00, pCalc,0.00, measP,3.25, Date,Wed Sep 25 18:42:25 2019
Elect,74, time,1569451349.16, setpoint,300.00, impVal,0.00, Temp,0.00, rate,0.00, avgDrop,33.33, avgEvp,-1.00, step,6.00, upperStepLimit,-10.00, Period,60.00, pCalc,0.00, measP,3.23, Date,Wed Sep 25 18:42:29 2019
Elect,74, time,1569451853.64, setpoint,300.00, impVal,6.00, Temp,0.00, rate,0.01, avgDrop,33.33, avgEvp,-1.00, step,6.00, upperStepLimit,-10.00, Period,60.00, pCalc,0.00, measP,504.46, Date,Wed Sep 25 18:50:53 2019
Elect,74, time,1569451866.00, setpoint,300.00, impVal,46.00, Temp,0.00, rate,3.22, avgDrop,35.56, avgEvp,-1.00, step,6.00, upperStepLimit,-10.00, Period,60.00, pCalc,0.00, measP,12.44, Date,Wed Sep 25 18:51:06 2019
Elect,74, time,1569451878.09, setpoint,300.00, impVal,137.00, Temp,0.00, rate,7.53, avgDrop,54.78, avgEvp,-1.00, step,6.00, upperStepLimit,-10.00, Period,60.00, pCalc,0.00, measP,12.08, Date,Wed Sep 25 18:51:18 2019
Elect,74, time,1569451890.28, setpoint,300.00, impVal,230.00, Temp,0.00, rate,7.67, avgDrop,74.67, avgEvp,-1.00, step,6.00, upperStepLimit,-10.00, Period,60.00, pCalc,0.00, measP,12.13, Date,Wed Sep 25 18:51:30 2019
Elect,74, time,1569451902.77, setpoint,300.00, impVal,306.00, Temp,0.00, rate,6.12, avgDrop,86.67, avgEvp,-1.00, step,6.00, upperStepLimit,-10.00, Period,60.00, pCalc,0.00, measP,12.43, Date,Wed Sep 25 18:51:42 2019
Elect,74, time,1569451938.63, setpoint,300.00, impVal,299.00, Temp,0.00, rate,-0.19, avgDrop,86.67, avgEvp,-0.73, step,6.00, upperStepLimit,-10.00, Period,60.00, pCalc,0.00, measP,36.00, Date,Wed Sep 25 18:52:18 2019
Elect,74, time,1569451984.21, setpoint,300.00, impVal,296.00, Temp,0.00, rate,-0.07, avgDrop,86.67, avgEvp,-0.42, step,6.00, upperStepLimit,-10.00, Period,60.00, pCalc,0.00, measP,45.51, Date,Wed Sep 25 18:53:04 2019
Elect,74, time,1569451991.10, setpoint,300.00, impVal,295.00, Temp,0.00, rate,-0.14, avgDrop,86.67, avgEvp,-0.13, step,6.00, upperStepLimit,-10.00, Period,60.00, pCalc,0.00, measP,6.95, Date,Wed Sep 25 18:53:11 2019
Elect,74, time,1569451997.74, setpoint,300.00, impVal,293.00, Temp,0.00, rate,-0.30, avgDrop,86.67, avgEvp,-0.17, step,6.00, upperStepLimit,-10.00, Period,60.00, pCalc,0.00, measP,6.57, Date,Wed Sep 25 18:53:17 2019
Elect,74, time,1569452004.54, setpoint,300.00, impVal,293.00, Temp,0.00, rate,0.00, avgDrop,86.67, avgEvp,-0.17, step,6.00, upperStepLimit,-10.00, Period,60.00, pCalc,0.00, measP,6.82, Date,Wed Sep 25 18:53:24 2019
Elect,74, time,1569452010.87, setpoint,300.00, impVal,292.00, Temp,0.00, rate,-0.16, avgDrop,86.67, avgEvp,-0.20, step,6.00, upperStepLimit,-10.00, Period,60.00, pCalc,0.00, measP,6.39, Date,Wed Sep 25 18:53:30 2019
Elect,74, time,1569452086.98, setpoint,300.00, impVal,281.00, Temp,0.00, rate,-0.14, avgDrop,86.67, avgEvp,-0.20, step,6.00, upperStepLimit,-10.00, Period,60.00, pCalc,0.00, measP,76.11, Date,Wed Sep 25 18:54:46 2019
Elect,74, time,1569452132.64, setpoint,300.00, impVal,274.00, Temp,0.00, rate,-0.15, avgDrop,86.67, avgEvp,-0.15, step,6.00, upperStepLimit,-10.00, Period,60.00, pCalc,0.00, measP,45.65, Date,Wed Sep 25 18:55:32 2019
Elect,74, time,1569452158.89, setpoint,300.00, impVal,273.00, Temp,0.00, rate,-0.04, avgDrop,86.67, avgEvp,-0.11, step,6.00, upperStepLimit,-10.00, Period,60.00, pCalc,0.00, measP,26.19, Date,Wed Sep 25 18:55:58 2019
Elect,74, time,1569452175.27, setpoint,300.00, impVal,270.00, Temp,0.00, rate,-0.18, avgDrop,86.67, avgEvp,-0.13, step,6.00, upperStepLimit,-10.00, Period,60.00, pCalc,0.00, measP,16.34, Date,Wed Sep 25 18:56:15 2019
Elect,74, time,1569452238.51, setpoint,300.00, impVal,261.00, Temp,0.00, rate,-0.14, avgDrop,86.67, avgEvp,-0.12, step,6.00, upperStepLimit,-10.00, Period,60.00, pCalc,0.00, measP,63.34, Date,Wed Sep 25 18:57:18 2019
Elect,74, time,1569452274.38, setpoint,300.00, impVal,257.00, Temp,0.00, rate,-0.11, avgDrop,86.67, avgEvp,-0.15, step,6.00, upperStepLimit,-10.00, Period,60.00, pCalc,0.00, measP,35.81, Date,Wed Sep 25 18:57:54 2019
Elect,74, time,1569452286.58, setpoint,300.00, impVal,319.00, Temp,0.00, rate,5.06, avgDrop,77.00, avgEvp,-0.15, step,6.00, upperStepLimit,-10.00, Period,60.00, pCalc,0.00, measP,12.26, Date,Wed Sep 25 18:58:06 2019
Elect,74, time,1569452345.66, setpoint,300.00, impVal,311.00, Temp,0.00, rate,-0.14, avgDrop,77.00, avgEvp,-0.13, step,6.00, upperStepLimit,-10.00, Period,60.00, pCalc,0.00, measP,59.07, Date,Wed Sep 25 18:59:05 2019
Elect,74, time,1569452405.99, setpoint,300.00, impVal,304.00, Temp,0.00, rate,-0.12, avgDrop,77.00, avgEvp,-0.12, step,6.00, upperStepLimit,-10.00, Period,60.00, pCalc,0.00, measP,60.22, Date,Wed Sep 25 19:00:05 2019
Elect,74, time,1569452465.75, setpoint,300.00, impVal,296.00, Temp,0.00, rate,-0.13, avgDrop,77.00, avgEvp,-0.13, step,6.00, upperStepLimit,-10.00, Period,60.00, pCalc,0.00, measP,59.82, Date,Wed Sep 25 19:01:05 2019
Elect,74, time,1569452539.36, setpoint,300.00, impVal,288.00, Temp,0.00, rate,-0.11, avgDrop,77.00, avgEvp,-0.12, step,6.00, upperStepLimit,-10.00, Period,60.00, pCalc,0.00, measP,73.66, Date,Wed Sep 25 19:02:19 2019
Elect,74, time,1569452563.04, setpoint,300.00, impVal,285.00, Temp,0.00, rate,-0.13, avgDrop,77.00, avgEvp,-0.12, step,6.00, upperStepLimit,-10.00, Period,60.00, pCalc,0.00, measP,23.69, Date,Wed Sep 25 19:02:43 2019
Elect,74, time,1569452586.87, setpoint,300.00, impVal,285.00, Temp,0.00, rate,0.00, avgDrop,77.00, avgEvp,-0.12, step,6.00, upperStepLimit,-10.00, Period,60.00, pCalc,0.00, measP,22.71, Date,Wed Sep 25 19:03:06 2019
Elect,74, time,1569452645.74, setpoint,300.00, impVal,277.00, Temp,0.00, rate,-0.13, avgDrop,77.00, avgEvp,-0.12, step,6.00, upperStepLimit,-10.00, Period,60.00, pCalc,0.00, measP,60.00, Date,Wed Sep 25 19:04:05 2019
Elect,74, time,1569452718.79, setpoint,300.00, impVal,269.00, Temp,0.00, rate,-0.11, avgDrop,77.00, avgEvp,-0.12, step,6.00, upperStepLimit,-10.00, Period,60.00, pCalc,0.00, measP,73.04, Date,Wed Sep 25 19:05:18 2019
Elect,74, time,1569452725.55, setpoint,300.00, impVal,269.00, Temp,0.00, rate,0.00, avgDrop,77.00, avgEvp,-0.12, step,6.00, upperStepLimit,-10.00, Period,60.00, pCalc,0.00, measP,6.76, Date,Wed Sep 25 19:05:25 2019
Elect,74, time,1569452765.69, setpoint,300.00, impVal,264.00, Temp,0.00, rate,-0.12, avgDrop,77.00, avgEvp,-0.12, step,6.00, upperStepLimit,-10.00, Period,60.00, pCalc,0.00, measP,40.14, Date,Wed Sep 25 19:06:05 2019
Elect,74, time,1569452777.98, setpoint,300.00, impVal,328.00, Temp,0.00, rate,5.21, avgDrop,67.33, avgEvp,-0.12, step,6.00, upperStepLimit,-10.00, Period,60.00, pCalc,0.00, measP,12.29, Date,Wed Sep 25 19:06:17 2019
Elect,74, time,1569452825.63, setpoint,300.00, impVal,322.00, Temp,0.00, rate,-0.13, avgDrop,67.33, avgEvp,-0.12, step,6.00, upperStepLimit,-10.00, Period,60.00, pCalc,0.00, measP,47.65, Date,Wed Sep 25 19:07:05 2019
Elect,74, time,1569452885.66, setpoint,300.00, impVal,315.00, Temp,0.00, rate,-0.12, avgDrop,67.33, avgEvp,-0.12, step,6.00, upperStepLimit,-10.00, Period,60.00, pCalc,0.00, measP,60.03, Date,Wed Sep 25 19:08:05 2019
Elect,74, time,1569452945.74, setpoint,300.00, impVal,309.00, Temp,0.00, rate,-0.10, avgDrop,67.33, avgEvp,-0.11, step,6.00, upperStepLimit,-10.00, Period,60.00, pCalc,0.00, measP,60.07, Date,Wed Sep 25 19:09:05 2019
Elect,74, time,1569453019.33, setpoint,300.00, impVal,298.00, Temp,0.00, rate,-0.15, avgDrop,67.33, avgEvp,-0.12, step,6.00, upperStepLimit,-10.00, Period,60.00, pCalc,0.00, measP,73.60, Date,Wed Sep 25 19:10:19 2019
Elect,74, time,1569453027.20, setpoint,300.00, impVal,303.00, Temp,0.00, rate,0.65, avgDrop,67.33, avgEvp,-0.12, step,6.00, upperStepLimit,-10.00, Period,60.00, pCalc,0.00, measP,7.75, Date,Wed Sep 25 19:10:27 2019
Elect,74, time,1569453065.72, setpoint,300.00, impVal,296.00, Temp,0.00, rate,-0.18, avgDrop,67.33, avgEvp,-0.14, step,6.00, upperStepLimit,-10.00, Period,60.00, pCalc,0.00, measP,38.65, Date,Wed Sep 25 19:11:05 2019
Elect,74, time,1569453125.79, setpoint,300.00, impVal,290.00, Temp,0.00, rate,-0.10, avgDrop,67.33, avgEvp,-0.14, step,6.00, upperStepLimit,-10.00, Period,60.00, pCalc,0.00, measP,60.01, Date,Wed Sep 25 19:12:05 2019
Elect,74, time,1569453198.63, setpoint,300.00, impVal,281.00, Temp,0.00, rate,-0.12, avgDrop,67.33, avgEvp,-0.13, step,6.00, upperStepLimit,-10.00, Period,60.00, pCalc,0.00, measP,72.84, Date,Wed Sep 25 19:13:18 2019
Elect,74, time,1569453205.52, setpoint,300.00, impVal,282.00, Temp,0.00, rate,0.14, avgDrop,67.33, avgEvp,-0.13, step,6.00, upperStepLimit,-10.00, Period,60.00, pCalc,0.00, measP,6.94, Date,Wed Sep 25 19:13:25 2019
Elect,74, time,1569453245.68, setpoint,300.00, impVal,275.00, Temp,0.00, rate,-0.17, avgDrop,67.33, avgEvp,-0.13, step,6.00, upperStepLimit,-10.00, Period,60.00, pCalc,0.00, measP,40.17, Date,Wed Sep 25 19:14:05 2019
Elect,74, time,1569453305.81, setpoint,300.00, impVal,267.00, Temp,0.00, rate,-0.13, avgDrop,67.33, avgEvp,-0.14, step,6.00, upperStepLimit,-10.00, Period,60.00, pCalc,0.00, measP,60.08, Date,Wed Sep 25 19:15:05 2019
Elect,74, time,1569453318.23, setpoint,300.00, impVal,321.00, Temp,0.00, rate,4.35, avgDrop,60.00, avgEvp,-0.14, step,6.00, upperStepLimit,-10.00, Period,60.00, pCalc,0.00, measP,12.41, Date,Wed Sep 25 19:15:18 2019
Elect,74, time,1569453365.69, setpoint,300.00, impVal,314.00, Temp,0.00, rate,-0.15, avgDrop,60.00, avgEvp,-0.15, step,6.00, upperStepLimit,-10.00, Period,60.00, pCalc,0.00, measP,47.52, Date,Wed Sep 25 19:16:05 2019
Elect,74, time,1569453425.68, setpoint,300.00, impVal,308.00, Temp,0.00, rate,-0.10, avgDrop,60.00, avgEvp,-0.13, step,6.00, upperStepLimit,-10.00, Period,60.00, pCalc,0.00, measP,59.98, Date,Wed Sep 25 19:17:05 2019
Elect,74, time,1569453485.71, setpoint,300.00, impVal,302.00, Temp,0.00, rate,-0.10, avgDrop,60.00, avgEvp,-0.12, step,6.00, upperStepLimit,-10.00, Period,60.00, pCalc,0.00, measP,59.96, Date,Wed Sep 25 19:18:05 2019
Elect,74, time,1569453559.21, setpoint,300.00, impVal,294.00, Temp,0.00, rate,-0.11, avgDrop,60.00, avgEvp,-0.10, step,6.00, upperStepLimit,-10.00, Period,60.00, pCalc,0.00, measP,73.57, Date,Wed Sep 25 19:19:19 2019
Elect,74, time,1569453565.52, setpoint,300.00, impVal,291.00, Temp,0.00, rate,-0.47, avgDrop,60.00, avgEvp,-0.23, step,6.00, upperStepLimit,-10.00, Period,60.00, pCalc,0.00, measP,6.32, Date,Wed Sep 25 19:19:25 2019
Elect,74, time,1569453605.86, setpoint,300.00, impVal,286.00, Temp,0.00, rate,-0.12, avgDrop,60.00, avgEvp,-0.24, step,6.00, upperStepLimit,-10.00, Period,60.00, pCalc,0.00, measP,40.26, Date,Wed Sep 25 19:20:05 2019
Elect,74, time,1569453665.86, setpoint,300.00, impVal,280.00, Temp,0.00, rate,-0.10, avgDrop,60.00, avgEvp,-0.23, step,6.00, upperStepLimit,-10.00, Period,60.00, pCalc,0.00, measP,60.07, Date,Wed Sep 25 19:21:05 2019
Elect,74, time,1569453725.87, setpoint,300.00, impVal,273.00, Temp,0.00, rate,-0.12, avgDrop,60.00, avgEvp,-0.11, step,6.00, upperStepLimit,-10.00, Period,60.00, pCalc,0.00, measP,60.01, Date,Wed Sep 25 19:22:05 2019
Elect,74, time,1569453738.28, setpoint,300.00, impVal,329.00, Temp,0.00, rate,4.53, avgDrop,58.00, avgEvp,-0.11, step,6.00, upperStepLimit,-10.00, Period,60.00, pCalc,0.00, measP,12.35, Date,Wed Sep 25 19:22:18 2019
Elect,74, time,1569453788.55, setpoint,300.00, impVal,320.00, Temp,0.00, rate,-0.18, avgDrop,58.00, avgEvp,-0.13, step,6.00, upperStepLimit,-10.00, Period,60.00, pCalc,0.00, measP,50.33, Date,Wed Sep 25 19:23:08 2019
Elect,74, time,1569453858.55, setpoint,300.00, impVal,313.00, Temp,0.00, rate,-0.10, avgDrop,58.00, avgEvp,-0.13, step,6.00, upperStepLimit,-10.00, Period,60.00, pCalc,0.00, measP,70.00, Date,Wed Sep 25 19:24:18 2019
Elect,74, time,1569453865.27, setpoint,300.00, impVal,314.00, Temp,0.00, rate,0.15, avgDrop,58.00, avgEvp,-0.13, step,6.00, upperStepLimit,-10.00, Period,60.00, pCalc,0.00, measP,6.72, Date,Wed Sep 25 19:24:25 2019
Elect,74, time,1569453905.88, setpoint,300.00, impVal,308.00, Temp,0.00, rate,-0.15, avgDrop,58.00, avgEvp,-0.14, step,6.00, upperStepLimit,-10.00, Period,60.00, pCalc,0.00, measP,40.53, Date,Wed Sep 25 19:25:05 2019
Elect,74, time,1569453979.44, setpoint,300.00, impVal,300.00, Temp,0.00, rate,-0.11, avgDrop,58.00, avgEvp,-0.12, step,6.00, upperStepLimit,-10.00, Period,60.00, pCalc,0.00, measP,73.64, Date,Wed Sep 25 19:26:19 2019
Elect,74, time,1569454003.97, setpoint,300.00, impVal,296.00, Temp,0.00, rate,-0.16, avgDrop,58.00, avgEvp,-0.14, step,6.00, upperStepLimit,-10.00, Period,60.00, pCalc,0.00, measP,24.45, Date,Wed Sep 25 19:26:43 2019
Elect,74, time,1569454025.65, setpoint,300.00, impVal,295.00, Temp,0.00, rate,-0.05, avgDrop,58.00, avgEvp,-0.11, step,6.00, upperStepLimit,-10.00, Period,60.00, pCalc,0.00, measP,21.76, Date,Wed Sep 25 19:27:05 2019
Elect,74, time,1569454085.92, setpoint,300.00, impVal,287.00, Temp,0.00, rate,-0.13, avgDrop,58.00, avgEvp,-0.11, step,6.00, upperStepLimit,-10.00, Period,60.00, pCalc,0.00, measP,60.20, Date,Wed Sep 25 19:28:05 2019
Elect,74, time,1569454145.63, setpoint,300.00, impVal,280.00, Temp,0.00, rate,-0.12, avgDrop,58.00, avgEvp,-0.10, step,6.00, upperStepLimit,-10.00, Period,60.00, pCalc,0.00, measP,59.78, Date,Wed Sep 25 19:29:05 2019
Elect,74, time,1569454205.68, setpoint,300.00, impVal,270.00, Temp,0.00, rate,-0.17, avgDrop,58.00, avgEvp,-0.14, step,6.00, upperStepLimit,-10.00, Period,60.00, pCalc,0.00, measP,60.06, Date,Wed Sep 25 19:30:05 2019
Elect,74, time,1569454218.12, setpoint,300.00, impVal,322.00, Temp,0.00, rate,4.18, avgDrop,54.00, avgEvp,-0.14, step,6.00, upperStepLimit,-10.00, Period,60.00, pCalc,0.00, measP,12.43, Date,Wed Sep 25 19:30:18 2019
Elect,74, time,1569454265.66, setpoint,300.00, impVal,315.00, Temp,0.00, rate,-0.15, avgDrop,54.00, avgEvp,-0.14, step,6.00, upperStepLimit,-10.00, Period,60.00, pCalc,0.00, measP,47.54, Date,Wed Sep 25 19:31:05 2019
Elect,74, time,1569454325.81, setpoint,300.00, impVal,308.00, Temp,0.00, rate,-0.12, avgDrop,54.00, avgEvp,-0.14, step,6.00, upperStepLimit,-10.00, Period,60.00, pCalc,0.00, measP,60.09, Date,Wed Sep 25 19:32:05 2019
Elect,74, time,1569454412.29, setpoint,300.00, impVal,299.00, Temp,0.00, rate,-0.10, avgDrop,54.00, avgEvp,-0.12, step,6.00, upperStepLimit,-10.00, Period,60.00, pCalc,0.00, measP,86.54, Date,Wed Sep 25 19:33:32 2019
Elect,74, time,1569454453.43, setpoint,300.00, impVal,297.00, Temp,0.00, rate,-0.05, avgDrop,54.00, avgEvp,-0.09, step,6.00, upperStepLimit,-10.00, Period,60.00, pCalc,0.00, measP,41.13, Date,Wed Sep 25 19:34:13 2019
Elect,74, time,1569454461.10, setpoint,300.00, impVal,298.00, Temp,0.00, rate,0.13, avgDrop,54.00, avgEvp,-0.09, step,6.00, upperStepLimit,-10.00, Period,60.00, pCalc,0.00, measP,7.60, Date,Wed Sep 25 19:34:21 2019
Elect,74, time,1569454505.66, setpoint,300.00, impVal,290.00, Temp,0.00, rate,-0.18, avgDrop,54.00, avgEvp,-0.11, step,6.00, upperStepLimit,-10.00, Period,60.00, pCalc,0.00, measP,44.62, Date,Wed Sep 25 19:35:05 2019
Elect,74, time,1569454565.67, setpoint,300.00, impVal,284.00, Temp,0.00, rate,-0.10, avgDrop,54.00, avgEvp,-0.11, step,6.00, upperStepLimit,-10.00, Period,60.00, pCalc,0.00, measP,60.00, Date,Wed Sep 25 19:36:05 2019
Elect,74, time,1569454625.64, setpoint,300.00, impVal,274.00, Temp,0.00, rate,-0.17, avgDrop,54.00, avgEvp,-0.15, step,6.00, upperStepLimit,-10.00, Period,60.00, pCalc,0.00, measP,59.97, Date,Wed Sep 25 19:37:05 2019
Elect,74, time,1569454637.75, setpoint,300.00, impVal,327.00, Temp,0.00, rate,4.37, avgDrop,53.67, avgEvp,-0.15, step,6.00, upperStepLimit,-10.00, Period,60.00, pCalc,0.00, measP,12.12, Date,Wed Sep 25 19:37:17 2019
Elect,74, time,1569454685.64, setpoint,300.00, impVal,322.00, Temp,0.00, rate,-0.10, avgDrop,53.67, avgEvp,-0.12, step,6.00, upperStepLimit,-10.00, Period,60.00, pCalc,0.00, measP,47.89, Date,Wed Sep 25 19:38:05 2019
Elect,74, time,1569454745.70, setpoint,300.00, impVal,316.00, Temp,0.00, rate,-0.10, avgDrop,53.67, avgEvp,-0.12, step,6.00, upperStepLimit,-10.00, Period,60.00, pCalc,0.00, measP,60.06, Date,Wed Sep 25 19:39:05 2019
Elect,74, time,1569454832.15, setpoint,300.00, impVal,305.00, Temp,0.00, rate,-0.13, avgDrop,53.67, avgEvp,-0.11, step,6.00, upperStepLimit,-10.00, Period,60.00, pCalc,0.00, measP,86.45, Date,Wed Sep 25 19:40:32 2019
Elect,74, time,1569454837.48, setpoint,300.00, impVal,304.00, Temp,0.00, rate,-0.19, avgDrop,53.67, avgEvp,-0.14, step,6.00, upperStepLimit,-10.00, Period,60.00, pCalc,0.00, measP,5.27, Date,Wed Sep 25 19:40:37 2019
Elect,74, time,1569454843.79, setpoint,300.00, impVal,304.00, Temp,0.00, rate,0.00, avgDrop,53.67, avgEvp,-0.14, step,6.00, upperStepLimit,-10.00, Period,60.00, pCalc,0.00, measP,6.37, Date,Wed Sep 25 19:40:43 2019
Elect,74, time,1569454865.73, setpoint,300.00, impVal,301.00, Temp,0.00, rate,-0.14, avgDrop,53.67, avgEvp,-0.15, step,6.00, upperStepLimit,-10.00, Period,60.00, pCalc,0.00, measP,21.89, Date,Wed Sep 25 19:41:05 2019
Elect,74, time,1569454925.72, setpoint,300.00, impVal,294.00, Temp,0.00, rate,-0.12, avgDrop,53.67, avgEvp,-0.15, step,6.00, upperStepLimit,-10.00, Period,60.00, pCalc,0.00, measP,60.05, Date,Wed Sep 25 19:42:05 2019
Elect,74, time,1569454985.93, setpoint,300.00, impVal,287.00, Temp,0.00, rate,-0.12, avgDrop,53.67, avgEvp,-0.12, step,6.00, upperStepLimit,-10.00, Period,60.00, pCalc,0.00, measP,60.15, Date,Wed Sep 25 19:43:05 2019
Elect,74, time,1569455045.69, setpoint,300.00, impVal,280.00, Temp,0.00, rate,-0.12, avgDrop,53.67, avgEvp,-0.12, step,6.00, upperStepLimit,-10.00, Period,60.00, pCalc,0.00, measP,59.83, Date,Wed Sep 25 19:44:05 2019
Elect,74, time,1569455105.76, setpoint,300.00, impVal,274.00, Temp,0.00, rate,-0.10, avgDrop,53.67, avgEvp,-0.11, step,6.00, upperStepLimit,-10.00, Period,60.00, pCalc,0.00, measP,60.07, Date,Wed Sep 25 19:45:05 2019
Elect,74, time,1569455118.14, setpoint,300.00, impVal,327.00, Temp,0.00, rate,4.30, avgDrop,52.67, avgEvp,-0.11, step,6.00, upperStepLimit,-10.00, Period,60.00, pCalc,0.00, measP,12.31, Date,Wed Sep 25 19:45:18 2019
Elect,74, time,1569455165.67, setpoint,300.00, impVal,320.00, Temp,0.00, rate,-0.15, avgDrop,52.67, avgEvp,-0.12, step,6.00, upperStepLimit,-10.00, Period,60.00, pCalc,0.00, measP,47.60, Date,Wed Sep 25 19:46:05 2019
Elect,74, time,1569455252.17, setpoint,300.00, impVal,310.00, Temp,0.00, rate,-0.12, avgDrop,52.67, avgEvp,-0.12, step,6.00, upperStepLimit,-10.00, Period,60.00, pCalc,0.00, measP,86.50, Date,Wed Sep 25 19:47:32 2019
Elect,74, time,1569455258.90, setpoint,300.00, impVal,310.00, Temp,0.00, rate,0.00, avgDrop,52.67, avgEvp,-0.12, step,6.00, upperStepLimit,-10.00, Period,60.00, pCalc,0.00, measP,6.73, Date,Wed Sep 25 19:47:38 2019
Elect,74, time,1569455266.53, setpoint,300.00, impVal,308.00, Temp,0.00, rate,-0.26, avgDrop,52.67, avgEvp,-0.17, step,6.00, upperStepLimit,-10.00, Period,60.00, pCalc,0.00, measP,7.63, Date,Wed Sep 25 19:47:46 2019
Elect,74, time,1569455285.89, setpoint,300.00, impVal,307.00, Temp,0.00, rate,-0.05, avgDrop,52.67, avgEvp,-0.14, step,6.00, upperStepLimit,-10.00, Period,60.00, pCalc,0.00, measP,19.29, Date,Wed Sep 25 19:48:05 2019
Elect,74, time,1569455345.63, setpoint,300.00, impVal,299.00, Temp,0.00, rate,-0.13, avgDrop,52.67, avgEvp,-0.15, step,6.00, upperStepLimit,-10.00, Period,60.00, pCalc,0.00, measP,59.80, Date,Wed Sep 25 19:49:05 2019
Elect,74, time,1569514153.82, setpoint,300.00, impVal,0.00, Temp,0.00, rate,0.00, avgDrop,33.33, avgEvp,-1.00, step,6.00, upperStepLimit,-10.00, Period,60.00, pCalc,0.00, measP,85.33, Date,Thu Sep 26 12:09:13 2019
Elect,74, time,1569514157.03, setpoint,300.00, impVal,0.00, Temp,0.00, rate,0.00, avgDrop,33.33, avgEvp,-1.00, step,6.00, upperStepLimit,-10.00, Period,60.00, pCalc,0.00, measP,3.23, Date,Thu Sep 26 12:09:17 2019
Elect,74, time,1569514160.19, setpoint,300.00, impVal,0.00, Temp,0.00, rate,0.00, avgDrop,33.33, avgEvp,-1.00, step,6.00, upperStepLimit,-10.00, Period,60.00, pCalc,0.00, measP,3.21, Date,Thu Sep 26 12:09:20 2019
Elect,74, time,1569518010.61, setpoint,300.00, impVal,0.00, Temp,0.00, rate,0.00, avgDrop,33.33, avgEvp,-1.00, step,6.00, upperStepLimit,-10.00, Period,60.00, pCalc,0.00, measP,214.50, Date,Thu Sep 26 13:13:30 2019
Elect,74, time,1569518013.77, setpoint,300.00, impVal,0.00, Temp,0.00, rate,0.00, avgDrop,33.33, avgEvp,-1.00, step,6.00, upperStepLimit,-10.00, Period,60.00, pCalc,0.00, measP,3.08, Date,Thu Sep 26 13:13:33 2019
Elect,74, time,1569518016.94, setpoint,300.00, impVal,0.00, Temp,0.00, rate,0.00, avgDrop,33.33, avgEvp,-1.00, step,6.00, upperStepLimit,-10.00, Period,60.00, pCalc,0.00, measP,3.25, Date,Thu Sep 26 13:13:36 2019
Elect,74, time,1569518402.31, setpoint,300.00, impVal,7.00, Temp,0.00, rate,0.13, avgDrop,33.33, avgEvp,-1.00, step,6.00, upperStepLimit,-10.00, Period,60.00, pCalc,0.00, measP,52.75, Date,Thu Sep 26 13:20:02 2019
Elect,74, time,1569518414.46, setpoint,300.00, impVal,0.00, Temp,0.00, rate,-0.58, avgDrop,33.33, avgEvp,-1.00, step,6.00, upperStepLimit,-10.00, Period,60.00, pCalc,0.00, measP,12.15, Date,Thu Sep 26 13:20:14 2019
Elect,74, time,1569518426.73, setpoint,300.00, impVal,77.00, Temp,0.00, rate,6.27, avgDrop,47.89, avgEvp,-1.00, step,6.00, upperStepLimit,-10.00, Period,60.00, pCalc,0.00, measP,12.28, Date,Thu Sep 26 13:20:26 2019
Elect,74, time,1569518439.05, setpoint,300.00, impVal,76.00, Temp,0.00, rate,-0.08, avgDrop,47.89, avgEvp,-1.00, step,6.00, upperStepLimit,-10.00, Period,60.00, pCalc,0.00, measP,12.31, Date,Thu Sep 26 13:20:39 2019
Elect,74, time,1569518451.37, setpoint,300.00, impVal,194.00, Temp,0.00, rate,9.57, avgDrop,76.11, avgEvp,-1.00, step,6.00, upperStepLimit,-10.00, Period,60.00, pCalc,0.00, measP,12.33, Date,Thu Sep 26 13:20:51 2019
Elect,74, time,1569518463.58, setpoint,300.00, impVal,251.00, Temp,0.00, rate,4.67, avgDrop,84.00, avgEvp,-1.00, step,6.00, upperStepLimit,-10.00, Period,60.00, pCalc,0.00, measP,12.21, Date,Thu Sep 26 13:21:03 2019
Elect,74, time,1569518475.87, setpoint,300.00, impVal,298.00, Temp,0.00, rate,3.82, avgDrop,74.00, avgEvp,-1.00, step,6.00, upperStepLimit,-10.00, Period,60.00, pCalc,0.00, measP,12.30, Date,Thu Sep 26 13:21:15 2019
Elect,74, time,1569518831.32, setpoint,300.00, impVal,258.00, Temp,0.00, rate,-0.11, avgDrop,74.00, avgEvp,-0.70, step,6.00, upperStepLimit,-10.00, Period,60.00, pCalc,0.00, measP,355.44, Date,Thu Sep 26 13:27:11 2019
Elect,74, time,1569518843.95, setpoint,300.00, impVal,316.00, Temp,0.00, rate,4.62, avgDrop,54.00, avgEvp,-0.70, step,6.00, upperStepLimit,-10.00, Period,60.00, pCalc,0.00, measP,12.57, Date,Thu Sep 26 13:27:23 2019
Elect,74, time,1569518853.64, setpoint,300.00, impVal,315.00, Temp,0.00, rate,-0.10, avgDrop,54.00, avgEvp,-0.41, step,6.00, upperStepLimit,-10.00, Period,60.00, pCalc,0.00, measP,9.75, Date,Thu Sep 26 13:27:33 2019
Elect,74, time,1569518967.01, setpoint,300.00, impVal,303.00, Temp,0.00, rate,-0.11, avgDrop,54.00, avgEvp,-0.11, step,6.00, upperStepLimit,-10.00, Period,60.00, pCalc,0.00, measP,113.36, Date,Thu Sep 26 13:29:27 2019
Elect,74, time,1569518983.93, setpoint,300.00, impVal,299.00, Temp,0.00, rate,-0.24, avgDrop,54.00, avgEvp,-0.15, step,6.00, upperStepLimit,-10.00, Period,60.00, pCalc,0.00, measP,16.87, Date,Thu Sep 26 13:29:43 2019
Elect,74, time,1569519029.45, setpoint,300.00, impVal,294.00, Temp,0.00, rate,-0.11, avgDrop,54.00, avgEvp,-0.15, step,6.00, upperStepLimit,-10.00, Period,60.00, pCalc,0.00, measP,45.59, Date,Thu Sep 26 13:30:29 2019
Elect,74, time,1569519035.85, setpoint,300.00, impVal,293.00, Temp,0.00, rate,-0.16, avgDrop,54.00, avgEvp,-0.17, step,6.00, upperStepLimit,-10.00, Period,60.00, pCalc,0.00, measP,6.39, Date,Thu Sep 26 13:30:35 2019
Elect,74, time,1569519075.63, setpoint,300.00, impVal,288.00, Temp,0.00, rate,-0.13, avgDrop,54.00, avgEvp,-0.13, step,6.00, upperStepLimit,-10.00, Period,60.00, pCalc,0.00, measP,39.78, Date,Thu Sep 26 13:31:15 2019
Elect,74, time,1569519195.61, setpoint,300.00, impVal,278.00, Temp,0.00, rate,-0.08, avgDrop,54.00, avgEvp,-0.12, step,6.00, upperStepLimit,-10.00, Period,60.00, pCalc,0.00, measP,119.97, Date,Thu Sep 26 13:33:15 2019
Elect,74, time,1569519282.53, setpoint,300.00, impVal,271.00, Temp,0.00, rate,-0.08, avgDrop,54.00, avgEvp,-0.10, step,6.00, upperStepLimit,-10.00, Period,60.00, pCalc,0.00, measP,86.80, Date,Thu Sep 26 13:34:42 2019
Elect,74, time,1569519312.49, setpoint,300.00, impVal,328.00, Temp,0.00, rate,1.89, avgDrop,54.00, avgEvp,-0.10, step,6.00, upperStepLimit,-10.00, Period,60.00, pCalc,0.00, measP,30.09, Date,Thu Sep 26 13:35:12 2019
Elect,74, time,1569519325.34, setpoint,300.00, impVal,326.00, Temp,0.00, rate,-0.16, avgDrop,54.00, avgEvp,-0.11, step,6.00, upperStepLimit,-10.00, Period,60.00, pCalc,0.00, measP,12.79, Date,Thu Sep 26 13:35:25 2019
Elect,74, time,1569519333.16, setpoint,300.00, impVal,324.00, Temp,0.00, rate,-0.25, avgDrop,54.00, avgEvp,-0.16, step,6.00, upperStepLimit,-10.00, Period,60.00, pCalc,0.00, measP,7.89, Date,Thu Sep 26 13:35:33 2019
Elect,74, time,1569519375.78, setpoint,300.00, impVal,320.00, Temp,0.00, rate,-0.09, avgDrop,54.00, avgEvp,-0.17, step,6.00, upperStepLimit,-10.00, Period,60.00, pCalc,0.00, measP,42.55, Date,Thu Sep 26 13:36:15 2019
Elect,74, time,1569519435.59, setpoint,300.00, impVal,314.00, Temp,0.00, rate,-0.10, avgDrop,54.00, avgEvp,-0.15, step,6.00, upperStepLimit,-10.00, Period,60.00, pCalc,0.00, measP,59.87, Date,Thu Sep 26 13:37:15 2019
Elect,74, time,1569519495.65, setpoint,300.00, impVal,310.00, Temp,0.00, rate,-0.07, avgDrop,54.00, avgEvp,-0.09, step,6.00, upperStepLimit,-10.00, Period,60.00, pCalc,0.00, measP,60.06, Date,Thu Sep 26 13:38:15 2019
Elect,74, time,1569519555.61, setpoint,300.00, impVal,305.00, Temp,0.00, rate,-0.08, avgDrop,54.00, avgEvp,-0.08, step,6.00, upperStepLimit,-10.00, Period,60.00, pCalc,0.00, measP,59.96, Date,Thu Sep 26 13:39:15 2019
Elect,74, time,1569519615.60, setpoint,300.00, impVal,300.00, Temp,0.00, rate,-0.08, avgDrop,54.00, avgEvp,-0.08, step,6.00, upperStepLimit,-10.00, Period,60.00, pCalc,0.00, measP,59.98, Date,Thu Sep 26 13:40:15 2019
Elect,74, time,1569519675.74, setpoint,300.00, impVal,293.00, Temp,0.00, rate,-0.12, avgDrop,54.00, avgEvp,-0.09, step,6.00, upperStepLimit,-10.00, Period,60.00, pCalc,0.00, measP,60.05, Date,Thu Sep 26 13:41:15 2019
Elect,74, time,1569519766.59, setpoint,300.00, impVal,281.00, Temp,0.00, rate,-0.13, avgDrop,54.00, avgEvp,-0.11, step,6.00, upperStepLimit,-10.00, Period,60.00, pCalc,0.00, measP,90.88, Date,Thu Sep 26 13:42:46 2019
Elect,74, time,1569519771.90, setpoint,300.00, impVal,281.00, Temp,0.00, rate,0.00, avgDrop,54.00, avgEvp,-0.11, step,6.00, upperStepLimit,-10.00, Period,60.00, pCalc,0.00, measP,5.36, Date,Thu Sep 26 13:42:51 2019
Elect,74, time,1569519795.66, setpoint,300.00, impVal,278.00, Temp,0.00, rate,-0.13, avgDrop,54.00, avgEvp,-0.12, step,6.00, upperStepLimit,-10.00, Period,60.00, pCalc,0.00, measP,23.77, Date,Thu Sep 26 13:43:15 2019
Elect,74, time,1569519869.40, setpoint,300.00, impVal,271.00, Temp,0.00, rate,-0.09, avgDrop,54.00, avgEvp,-0.12, step,6.00, upperStepLimit,-10.00, Period,60.00, pCalc,0.00, measP,73.73, Date,Thu Sep 26 13:44:29 2019
Elect,74, time,1569519889.34, setpoint,300.00, impVal,321.00, Temp,0.00, rate,2.51, avgDrop,55.00, avgEvp,-0.12, step,6.00, upperStepLimit,-10.00, Period,60.00, pCalc,0.00, measP,19.96, Date,Thu Sep 26 13:44:49 2019
Elect,74, time,1569519899.96, setpoint,300.00, impVal,320.00, Temp,0.00, rate,-0.09, avgDrop,55.00, avgEvp,-0.11, step,6.00, upperStepLimit,-10.00, Period,60.00, pCalc,0.00, measP,10.62, Date,Thu Sep 26 13:44:59 2019
Elect,74, time,1569519916.02, setpoint,300.00, impVal,319.00, Temp,0.00, rate,-0.06, avgDrop,55.00, avgEvp,-0.08, step,6.00, upperStepLimit,-10.00, Period,60.00, pCalc,0.00, measP,16.05, Date,Thu Sep 26 13:45:16 2019
Elect,74, time,1569519975.70, setpoint,300.00, impVal,314.00, Temp,0.00, rate,-0.08, avgDrop,55.00, avgEvp,-0.08, step,6.00, upperStepLimit,-10.00, Period,60.00, pCalc,0.00, measP,59.69, Date,Thu Sep 26 13:46:15 2019
Elect,74, time,1569520035.63, setpoint,300.00, impVal,314.00, Temp,0.00, rate,0.00, avgDrop,55.00, avgEvp,-0.08, step,6.00, upperStepLimit,-10.00, Period,60.00, pCalc,0.00, measP,59.92, Date,Thu Sep 26 13:47:15 2019
Elect,74, time,1569520095.66, setpoint,300.00, impVal,305.00, Temp,0.00, rate,-0.15, avgDrop,55.00, avgEvp,-0.10, step,6.00, upperStepLimit,-10.00, Period,60.00, pCalc,0.00, measP,60.03, Date,Thu Sep 26 13:48:15 2019
Elect,74, time,1569520155.69, setpoint,300.00, impVal,299.00, Temp,0.00, rate,-0.10, avgDrop,55.00, avgEvp,-0.11, step,6.00, upperStepLimit,-10.00, Period,60.00, pCalc,0.00, measP,60.03, Date,Thu Sep 26 13:49:15 2019
Elect,74, time,1569520215.62, setpoint,300.00, impVal,292.00, Temp,0.00, rate,-0.12, avgDrop,55.00, avgEvp,-0.12, step,6.00, upperStepLimit,-10.00, Period,60.00, pCalc,0.00, measP,59.93, Date,Thu Sep 26 13:50:15 2019
Elect,74, time,1569520288.81, setpoint,300.00, impVal,284.00, Temp,0.00, rate,-0.11, avgDrop,55.00, avgEvp,-0.11, step,6.00, upperStepLimit,-10.00, Period,60.00, pCalc,0.00, measP,73.19, Date,Thu Sep 26 13:51:28 2019
Elect,74, time,1569520314.03, setpoint,300.00, impVal,282.00, Temp,0.00, rate,-0.08, avgDrop,55.00, avgEvp,-0.10, step,6.00, upperStepLimit,-10.00, Period,60.00, pCalc,0.00, measP,25.15, Date,Thu Sep 26 13:51:54 2019
Elect,74, time,1569520335.67, setpoint,300.00, impVal,279.00, Temp,0.00, rate,-0.14, avgDrop,55.00, avgEvp,-0.11, step,6.00, upperStepLimit,-10.00, Period,60.00, pCalc,0.00, measP,21.65, Date,Thu Sep 26 13:52:15 2019
Elect,74, time,1569520427.13, setpoint,300.00, impVal,276.00, Temp,0.00, rate,-0.03, avgDrop,55.00, avgEvp,-0.08, step,6.00, upperStepLimit,-10.00, Period,60.00, pCalc,0.00, measP,91.53, Date,Thu Sep 26 13:53:47 2019
Elect,74, time,1569520434.86, setpoint,300.00, impVal,270.00, Temp,0.00, rate,-0.78, avgDrop,55.00, avgEvp,-0.32, step,6.00, upperStepLimit,-10.00, Period,60.00, pCalc,0.00, measP,7.72, Date,Thu Sep 26 13:53:54 2019
Elect,74, time,1569520447.20, setpoint,300.00, impVal,331.00, Temp,0.00, rate,4.94, avgDrop,56.00, avgEvp,-0.32, step,6.00, upperStepLimit,-10.00, Period,60.00, pCalc,0.00, measP,12.34, Date,Thu Sep 26 13:54:07 2019
Elect,74, time,1569520515.68, setpoint,300.00, impVal,325.00, Temp,0.00, rate,-0.09, avgDrop,56.00, avgEvp,-0.30, step,6.00, upperStepLimit,-10.00, Period,60.00, pCalc,0.00, measP,68.42, Date,Thu Sep 26 13:55:15 2019
Elect,74, time,1569520575.61, setpoint,300.00, impVal,318.00, Temp,0.00, rate,-0.12, avgDrop,56.00, avgEvp,-0.33, step,6.00, upperStepLimit,-10.00, Period,60.00, pCalc,0.00, measP,59.99, Date,Thu Sep 26 13:56:15 2019
Elect,74, time,1569520635.58, setpoint,300.00, impVal,310.00, Temp,0.00, rate,-0.13, avgDrop,56.00, avgEvp,-0.11, step,6.00, upperStepLimit,-10.00, Period,60.00, pCalc,0.00, measP,59.97, Date,Thu Sep 26 13:57:15 2019
Elect,74, time,1569520702.46, setpoint,300.00, impVal,306.00, Temp,0.00, rate,-0.06, avgDrop,56.00, avgEvp,-0.10, step,6.00, upperStepLimit,-10.00, Period,60.00, pCalc,0.00, measP,66.88, Date,Thu Sep 26 13:58:22 2019
Elect,74, time,1569520755.87, setpoint,300.00, impVal,301.00, Temp,0.00, rate,-0.09, avgDrop,56.00, avgEvp,-0.10, step,6.00, upperStepLimit,-10.00, Period,60.00, pCalc,0.00, measP,53.28, Date,Thu Sep 26 13:59:15 2019
Elect,74, time,1569520855.04, setpoint,300.00, impVal,293.00, Temp,0.00, rate,6.97, avgDrop,33.33, avgEvp,-1.00, step,6.00, upperStepLimit,-10.00, Period,60.00, pCalc,0.00, measP,42.05, Date,Thu Sep 26 14:00:55 2019
Elect,74, time,1569520867.45, setpoint,300.00, impVal,331.00, Temp,0.00, rate,3.06, avgDrop,34.89, avgEvp,-1.00, step,6.00, upperStepLimit,-10.00, Period,60.00, pCalc,0.00, measP,12.41, Date,Thu Sep 26 14:01:07 2019
Elect,74, time,1569520941.14, setpoint,300.00, impVal,325.00, Temp,0.00, rate,-0.08, avgDrop,34.89, avgEvp,-0.69, step,6.00, upperStepLimit,-10.00, Period,60.00, pCalc,0.00, measP,73.76, Date,Thu Sep 26 14:02:21 2019
Elect,74, time,1569521046.88, setpoint,300.00, impVal,311.00, Temp,0.00, rate,-0.13, avgDrop,34.89, avgEvp,-0.40, step,6.00, upperStepLimit,-10.00, Period,60.00, pCalc,0.00, measP,105.60, Date,Thu Sep 26 14:04:06 2019
Elect,74, time,1569521061.19, setpoint,300.00, impVal,310.00, Temp,0.00, rate,-0.07, avgDrop,34.89, avgEvp,-0.09, step,6.00, upperStepLimit,-10.00, Period,60.00, pCalc,0.00, measP,14.45, Date,Thu Sep 26 14:04:21 2019
Elect,74, time,1569521121.08, setpoint,300.00, impVal,311.00, Temp,0.00, rate,0.02, avgDrop,34.89, avgEvp,-0.09, step,6.00, upperStepLimit,-10.00, Period,60.00, pCalc,0.00, measP,59.88, Date,Thu Sep 26 14:05:21 2019
Elect,74, time,1569521194.09, setpoint,300.00, impVal,299.00, Temp,0.00, rate,-0.16, avgDrop,34.89, avgEvp,-0.12, step,6.00, upperStepLimit,-10.00, Period,60.00, pCalc,0.00, measP,73.02, Date,Thu Sep 26 14:06:34 2019
Elect,74, time,1569521241.17, setpoint,300.00, impVal,295.00, Temp,0.00, rate,-0.08, avgDrop,34.89, avgEvp,-0.11, step,6.00, upperStepLimit,-10.00, Period,60.00, pCalc,0.00, measP,47.08, Date,Thu Sep 26 14:07:21 2019
Elect,74, time,1569521301.13, setpoint,300.00, impVal,290.00, Temp,0.00, rate,-0.08, avgDrop,34.89, avgEvp,-0.11, step,6.00, upperStepLimit,-10.00, Period,60.00, pCalc,0.00, measP,59.96, Date,Thu Sep 26 14:08:21 2019
Elect,74, time,1569521361.13, setpoint,300.00, impVal,284.00, Temp,0.00, rate,-0.10, avgDrop,34.89, avgEvp,-0.09, step,6.00, upperStepLimit,-10.00, Period,60.00, pCalc,0.00, measP,59.99, Date,Thu Sep 26 14:09:21 2019
Elect,74, time,1569521373.38, setpoint,300.00, impVal,339.00, Temp,0.00, rate,4.53, avgDrop,42.11, avgEvp,-0.09, step,6.00, upperStepLimit,-10.00, Period,60.00, pCalc,0.00, measP,12.14, Date,Thu Sep 26 14:09:33 2019
Elect,74, time,1569521421.09, setpoint,300.00, impVal,336.00, Temp,0.00, rate,-0.06, avgDrop,42.11, avgEvp,-0.08, step,6.00, upperStepLimit,-10.00, Period,60.00, pCalc,0.00, measP,47.84, Date,Thu Sep 26 14:10:21 2019
Elect,74, time,1569521481.13, setpoint,300.00, impVal,328.00, Temp,0.00, rate,-0.13, avgDrop,42.11, avgEvp,-0.10, step,6.00, upperStepLimit,-10.00, Period,60.00, pCalc,0.00, measP,60.03, Date,Thu Sep 26 14:11:21 2019
Elect,74, time,1569521541.32, setpoint,300.00, impVal,319.00, Temp,0.00, rate,-0.15, avgDrop,42.11, avgEvp,-0.12, step,6.00, upperStepLimit,-10.00, Period,60.00, pCalc,0.00, measP,60.06, Date,Thu Sep 26 14:12:21 2019
Elect,74, time,1569521601.20, setpoint,300.00, impVal,316.00, Temp,0.00, rate,-0.05, avgDrop,42.11, avgEvp,-0.11, step,6.00, upperStepLimit,-10.00, Period,60.00, pCalc,0.00, measP,59.95, Date,Thu Sep 26 14:13:21 2019
Elect,74, time,1569521661.33, setpoint,300.00, impVal,308.00, Temp,0.00, rate,-0.13, avgDrop,42.11, avgEvp,-0.11, step,6.00, upperStepLimit,-10.00, Period,60.00, pCalc,0.00, measP,60.13, Date,Thu Sep 26 14:14:21 2019
Elect,74, time,1569521734.83, setpoint,300.00, impVal,303.00, Temp,0.00, rate,-0.07, avgDrop,42.11, avgEvp,-0.08, step,6.00, upperStepLimit,-10.00, Period,60.00, pCalc,0.00, measP,73.57, Date,Thu Sep 26 14:15:34 2019
Elect,74, time,1569521794.20, setpoint,300.00, impVal,292.00, Temp,0.00, rate,-0.19, avgDrop,42.11, avgEvp,-0.13, step,6.00, upperStepLimit,-10.00, Period,60.00, pCalc,0.00, measP,59.37, Date,Thu Sep 26 14:16:34 2019
Elect,74, time,1569521841.31, setpoint,300.00, impVal,288.00, Temp,0.00, rate,-0.09, avgDrop,42.11, avgEvp,-0.11, step,6.00, upperStepLimit,-10.00, Period,60.00, pCalc,0.00, measP,47.05, Date,Thu Sep 26 14:17:21 2019
Elect,74, time,1569521901.08, setpoint,300.00, impVal,282.00, Temp,0.00, rate,-0.10, avgDrop,42.11, avgEvp,-0.12, step,6.00, upperStepLimit,-10.00, Period,60.00, pCalc,0.00, measP,59.84, Date,Thu Sep 26 14:18:21 2019
Elect,74, time,1569521913.54, setpoint,300.00, impVal,343.00, Temp,0.00, rate,4.90, avgDrop,51.33, avgEvp,-0.12, step,6.00, upperStepLimit,-10.00, Period,60.00, pCalc,0.00, measP,12.45, Date,Thu Sep 26 14:18:33 2019
Elect,74, time,1569521961.11, setpoint,300.00, impVal,340.00, Temp,0.00, rate,-0.06, avgDrop,51.33, avgEvp,-0.08, step,6.00, upperStepLimit,-10.00, Period,60.00, pCalc,0.00, measP,47.57, Date,Thu Sep 26 14:19:21 2019
Elect,74, time,1569522021.12, setpoint,300.00, impVal,330.00, Temp,0.00, rate,-0.17, avgDrop,51.33, avgEvp,-0.11, step,6.00, upperStepLimit,-10.00, Period,60.00, pCalc,0.00, measP,60.02, Date,Thu Sep 26 14:20:21 2019
Elect,74, time,1569522081.05, setpoint,300.00, impVal,323.00, Temp,0.00, rate,-0.12, avgDrop,51.33, avgEvp,-0.12, step,6.00, upperStepLimit,-10.00, Period,60.00, pCalc,0.00, measP,59.93, Date,Thu Sep 26 14:21:21 2019
Elect,74, time,1569522141.09, setpoint,300.00, impVal,318.00, Temp,0.00, rate,-0.08, avgDrop,51.33, avgEvp,-0.12, step,6.00, upperStepLimit,-10.00, Period,60.00, pCalc,0.00, measP,60.02, Date,Thu Sep 26 14:22:21 2019
Elect,74, time,1569522201.11, setpoint,300.00, impVal,310.00, Temp,0.00, rate,-0.13, avgDrop,51.33, avgEvp,-0.11, step,6.00, upperStepLimit,-10.00, Period,60.00, pCalc,0.00, measP,60.04, Date,Thu Sep 26 14:23:21 2019
Elect,74, time,1569522305.21, setpoint,300.00, impVal,300.00, Temp,0.00, rate,-0.10, avgDrop,51.33, avgEvp,-0.10, step,6.00, upperStepLimit,-10.00, Period,60.00, pCalc,0.00, measP,104.10, Date,Thu Sep 26 14:25:05 2019
Elect,74, time,1569522321.10, setpoint,300.00, impVal,300.00, Temp,0.00, rate,0.00, avgDrop,51.33, avgEvp,-0.10, step,6.00, upperStepLimit,-10.00, Period,60.00, pCalc,0.00, measP,15.89, Date,Thu Sep 26 14:25:21 2019
Elect,74, time,1569522381.15, setpoint,300.00, impVal,293.00, Temp,0.00, rate,-0.12, avgDrop,51.33, avgEvp,-0.12, step,6.00, upperStepLimit,-10.00, Period,60.00, pCalc,0.00, measP,59.98, Date,Thu Sep 26 14:26:21 2019
Elect,74, time,1569522441.05, setpoint,300.00, impVal,287.00, Temp,0.00, rate,-0.10, avgDrop,51.33, avgEvp,-0.10, step,6.00, upperStepLimit,-10.00, Period,60.00, pCalc,0.00, measP,59.96, Date,Thu Sep 26 14:27:21 2019
Elect,74, time,1569522501.11, setpoint,300.00, impVal,282.00, Temp,0.00, rate,-0.08, avgDrop,51.33, avgEvp,-0.10, step,6.00, upperStepLimit,-10.00, Period,60.00, pCalc,0.00, measP,60.05, Date,Thu Sep 26 14:28:21 2019
Elect,74, time,1569522561.19, setpoint,300.00, impVal,276.00, Temp,0.00, rate,-0.10, avgDrop,51.33, avgEvp,-0.09, step,6.00, upperStepLimit,-10.00, Period,60.00, pCalc,0.00, measP,60.01, Date,Thu Sep 26 14:29:21 2019
Elect,74, time,1569522573.38, setpoint,300.00, impVal,317.00, Temp,0.00, rate,3.36, avgDrop,52.33, avgEvp,-0.09, step,6.00, upperStepLimit,-10.00, Period,60.00, pCalc,0.00, measP,12.20, Date,Thu Sep 26 14:29:33 2019
Elect,74, time,1569522621.10, setpoint,300.00, impVal,312.00, Temp,0.00, rate,-0.10, avgDrop,52.33, avgEvp,-0.10, step,6.00, upperStepLimit,-10.00, Period,60.00, pCalc,0.00, measP,47.79, Date,Thu Sep 26 14:30:21 2019
Elect,74, time,1569522681.24, setpoint,300.00, impVal,307.00, Temp,0.00, rate,-0.08, avgDrop,52.33, avgEvp,-0.10, step,6.00, upperStepLimit,-10.00, Period,60.00, pCalc,0.00, measP,60.08, Date,Thu Sep 26 14:31:21 2019
Elect,74, time,1569522741.06, setpoint,300.00, impVal,300.00, Temp,0.00, rate,-0.12, avgDrop,52.33, avgEvp,-0.10, step,6.00, upperStepLimit,-10.00, Period,60.00, pCalc,0.00, measP,59.88, Date,Thu Sep 26 14:32:21 2019
Elect,74, time,1569522828.28, setpoint,300.00, impVal,292.00, Temp,0.00, rate,-0.09, avgDrop,52.33, avgEvp,-0.10, step,6.00, upperStepLimit,-10.00, Period,60.00, pCalc,0.00, measP,87.20, Date,Thu Sep 26 14:33:48 2019
Elect,74, time,1569522861.10, setpoint,300.00, impVal,287.00, Temp,0.00, rate,-0.15, avgDrop,52.33, avgEvp,-0.12, step,6.00, upperStepLimit,-10.00, Period,60.00, pCalc,0.00, measP,32.85, Date,Thu Sep 26 14:34:21 2019
Elect,74, time,1569522921.10, setpoint,300.00, impVal,281.00, Temp,0.00, rate,-0.10, avgDrop,52.33, avgEvp,-0.11, step,6.00, upperStepLimit,-10.00, Period,60.00, pCalc,0.00, measP,59.99, Date,Thu Sep 26 14:35:21 2019
Elect,74, time,1569522981.30, setpoint,300.00, impVal,276.00, Temp,0.00, rate,-0.08, avgDrop,52.33, avgEvp,-0.11, step,6.00, upperStepLimit,-10.00, Period,60.00, pCalc,0.00, measP,60.10, Date,Thu Sep 26 14:36:21 2019
Elect,74, time,1569522993.88, setpoint,300.00, impVal,315.00, Temp,0.00, rate,3.10, avgDrop,47.00, avgEvp,-0.11, step,6.00, upperStepLimit,-10.00, Period,60.00, pCalc,0.00, measP,12.57, Date,Thu Sep 26 14:36:33 2019
Elect,74, time,1569523041.29, setpoint,300.00, impVal,309.00, Temp,0.00, rate,-0.13, avgDrop,47.00, avgEvp,-0.10, step,6.00, upperStepLimit,-10.00, Period,60.00, pCalc,0.00, measP,47.48, Date,Thu Sep 26 14:37:21 2019
Elect,74, time,1569523101.42, setpoint,300.00, impVal,300.00, Temp,0.00, rate,-0.15, avgDrop,47.00, avgEvp,-0.12, step,6.00, upperStepLimit,-10.00, Period,60.00, pCalc,0.00, measP,60.05, Date,Thu Sep 26 14:38:21 2019
Elect,74, time,1569523188.74, setpoint,300.00, impVal,290.00, Temp,24.96, rate,-0.11, avgDrop,47.00, avgEvp,-0.13, step,6.00, upperStepLimit,-10.00, Period,60.00, pCalc,0.00, measP,87.44, Date,Thu Sep 26 14:39:48 2019
Elect,74, time,1569523221.31, setpoint,300.00, impVal,286.00, Temp,24.96, rate,-0.12, avgDrop,47.00, avgEvp,-0.13, step,6.00, upperStepLimit,-10.00, Period,60.00, pCalc,0.00, measP,32.46, Date,Thu Sep 26 14:40:21 2019
Elect,74, time,1569523281.42, setpoint,300.00, impVal,279.00, Temp,24.96, rate,-0.12, avgDrop,47.00, avgEvp,-0.12, step,6.00, upperStepLimit,-10.00, Period,60.00, pCalc,0.00, measP,60.11, Date,Thu Sep 26 14:41:21 2019
Elect,74, time,1569523301.01, setpoint,300.00, impVal,319.00, Temp,24.96, rate,2.04, avgDrop,40.00, avgEvp,-0.12, step,6.00, upperStepLimit,-10.00, Period,60.00, pCalc,0.00, measP,19.64, Date,Thu Sep 26 14:41:41 2019
Elect,74, time,1569523341.38, setpoint,300.00, impVal,315.00, Temp,24.96, rate,-0.10, avgDrop,40.00, avgEvp,-0.11, step,6.00, upperStepLimit,-10.00, Period,60.00, pCalc,0.00, measP,40.32, Date,Thu Sep 26 14:42:21 2019
Elect,74, time,1569523401.25, setpoint,300.00, impVal,308.00, Temp,24.96, rate,-0.12, avgDrop,40.00, avgEvp,-0.11, step,6.00, upperStepLimit,-10.00, Period,60.00, pCalc,0.00, measP,59.99, Date,Thu Sep 26 14:43:21 2019
Elect,74, time,1569523461.37, setpoint,300.00, impVal,306.00, Temp,24.96, rate,-0.03, avgDrop,40.00, avgEvp,-0.08, step,6.00, upperStepLimit,-10.00, Period,60.00, pCalc,0.00, measP,60.06, Date,Thu Sep 26 14:44:21 2019
Elect,74, time,1569523521.26, setpoint,300.00, impVal,306.00, Temp,14.88, rate,0.00, avgDrop,40.00, avgEvp,-0.08, step,6.00, upperStepLimit,-10.00, Period,60.00, pCalc,0.00, measP,59.95, Date,Thu Sep 26 14:45:21 2019
Elect,74, time,1569523581.34, setpoint,300.00, impVal,304.00, Temp,15.98, rate,-0.03, avgDrop,40.00, avgEvp,-0.06, step,6.00, upperStepLimit,-10.00, Period,60.00, pCalc,0.00, measP,60.01, Date,Thu Sep 26 14:46:21 2019
Elect,74, time,1569523654.77, setpoint,300.00, impVal,289.00, Temp,15.98, rate,-0.20, avgDrop,40.00, avgEvp,-0.09, step,6.00, upperStepLimit,-10.00, Period,60.00, pCalc,0.00, measP,73.44, Date,Thu Sep 26 14:47:34 2019
Elect,74, time,1569523717.91, setpoint,300.00, impVal,268.00, Temp,37.95, rate,-0.33, avgDrop,40.00, avgEvp,-0.19, step,6.00, upperStepLimit,-10.00, Period,60.00, pCalc,0.00, measP,63.06, Date,Thu Sep 26 14:48:37 2019
Elect,74, time,1569523737.35, setpoint,300.00, impVal,304.00, Temp,36.94, rate,1.84, avgDrop,38.33, avgEvp,-0.19, step,6.00, upperStepLimit,-10.00, Period,60.00, pCalc,0.00, measP,19.57, Date,Thu Sep 26 14:48:57 2019
Elect,74, time,1569879545.72, setpoint,313.00, impVal,289.00, Temp,0.00, rate,0.15, avgDrop,33.33, avgEvp,-1.00, step,6.00, upperStepLimit,-10.00, Period,60.00, pCalc,0.00, measP,1936.19, Date,Mon Sep 30 17:39:05 2019
Elect,74, time,1569879558.14, setpoint,313.00, impVal,330.00, Temp,0.00, rate,3.27, avgDrop,35.89, avgEvp,-1.00, step,6.00, upperStepLimit,-10.00, Period,60.00, pCalc,0.00, measP,12.54, Date,Mon Sep 30 17:39:18 2019
Elect,74, time,1569879605.62, setpoint,313.00, impVal,322.00, Temp,0.00, rate,-0.17, avgDrop,35.89, avgEvp,-0.72, step,6.00, upperStepLimit,-10.00, Period,60.00, pCalc,0.00, measP,47.40, Date,Mon Sep 30 17:40:05 2019
Elect,74, time,1569879665.59, setpoint,313.00, impVal,295.00, Temp,35.66, rate,-0.45, avgDrop,35.89, avgEvp,-0.54, step,6.00, upperStepLimit,-10.00, Period,60.00, pCalc,0.00, measP,59.99, Date,Mon Sep 30 17:41:05 2019
Elect,74, time,1569879695.74, setpoint,313.00, impVal,344.00, Temp,37.04, rate,1.62, avgDrop,41.11, avgEvp,-0.54, step,6.00, upperStepLimit,-10.00, Period,60.00, pCalc,0.00, measP,30.20, Date,Mon Sep 30 17:41:35 2019
Elect,74, time,1569879726.90, setpoint,313.00, impVal,323.00, Temp,36.94, rate,-0.71, avgDrop,41.11, avgEvp,-0.44, step,6.00, upperStepLimit,-10.00, Period,60.00, pCalc,0.00, measP,29.77, Date,Mon Sep 30 17:42:06 2019
Elect,74, time,1569879785.61, setpoint,313.00, impVal,290.00, Temp,43.05, rate,-0.55, avgDrop,41.11, avgEvp,-0.57, step,6.00, upperStepLimit,-10.00, Period,60.00, pCalc,0.00, measP,60.05, Date,Mon Sep 30 17:43:05 2019
Elect,74, time,1569879798.22, setpoint,313.00, impVal,344.00, Temp,36.94, rate,4.29, avgDrop,48.00, avgEvp,-0.57, step,6.00, upperStepLimit,-10.00, Period,60.00, pCalc,0.00, measP,12.60, Date,Mon Sep 30 17:43:18 2019
Elect,74, time,1569879845.57, setpoint,313.00, impVal,319.00, Temp,37.04, rate,-0.53, avgDrop,48.00, avgEvp,-0.59, step,6.00, upperStepLimit,-10.00, Period,60.00, pCalc,0.00, measP,47.36, Date,Mon Sep 30 17:44:05 2019
Elect,74, time,1569880062.59, setpoint,313.00, impVal,364.00, Temp,0.00, rate,5.61, avgDrop,33.33, avgEvp,-1.00, step,6.00, upperStepLimit,-10.00, Period,60.00, pCalc,0.00, measP,64.92, Date,Mon Sep 30 17:47:42 2019
Elect,74, time,1569880675.09, setpoint,314.00, impVal,292.00, Temp,0.00, rate,0.58, avgDrop,33.33, avgEvp,-1.00, step,6.00, upperStepLimit,-10.00, Period,60.00, pCalc,0.00, measP,506.45, Date,Mon Sep 30 17:57:55 2019
Elect,74, time,1569880694.66, setpoint,314.00, impVal,288.00, Temp,24.96, rate,-0.21, avgDrop,33.33, avgEvp,-1.00, step,6.00, upperStepLimit,-10.00, Period,60.00, pCalc,0.00, measP,19.51, Date,Mon Sep 30 17:58:14 2019
Elect,74, time,1569880714.18, setpoint,314.00, impVal,278.00, Temp,24.96, rate,-0.51, avgDrop,33.33, avgEvp,-1.00, step,6.00, upperStepLimit,-10.00, Period,60.00, pCalc,0.00, measP,19.53, Date,Mon Sep 30 17:58:34 2019
Elect,74, time,1569881050.32, setpoint,314.00, impVal,113.00, Temp,35.76, rate,-0.49, avgDrop,33.33, avgEvp,-1.00, step,6.00, upperStepLimit,-10.00, Period,60.00, pCalc,0.00, measP,336.12, Date,Mon Sep 30 18:04:10 2019
Elect,74, time,1569881062.90, setpoint,314.00, impVal,187.00, Temp,36.94, rate,5.88, avgDrop,46.89, avgEvp,-1.00, step,6.00, upperStepLimit,-10.00, Period,60.00, pCalc,0.00, measP,12.59, Date,Mon Sep 30 18:04:22 2019
Elect,74, time,1569881075.54, setpoint,314.00, impVal,247.00, Temp,36.94, rate,4.76, avgDrop,55.78, avgEvp,-1.00, step,6.00, upperStepLimit,-10.00, Period,60.00, pCalc,0.00, measP,12.61, Date,Mon Sep 30 18:04:35 2019
Elect,74, time,1569881105.81, setpoint,314.00, impVal,294.00, Temp,36.94, rate,1.55, avgDrop,60.33, avgEvp,-1.00, step,6.00, upperStepLimit,-10.00, Period,60.00, pCalc,0.00, measP,30.33, Date,Mon Sep 30 18:05:05 2019
Elect,74, time,1569881118.13, setpoint,314.00, impVal,386.00, Temp,37.04, rate,7.48, avgDrop,66.33, avgEvp,-1.00, step,6.00, upperStepLimit,-10.00, Period,60.00, pCalc,0.00, measP,12.30, Date,Mon Sep 30 18:05:18 2019
Elect,74, time,1569881308.54, setpoint,314.00, impVal,308.00, Temp,37.04, rate,-0.41, avgDrop,66.33, avgEvp,-0.80, step,6.00, upperStepLimit,-10.00, Period,60.00, pCalc,0.00, measP,190.42, Date,Mon Sep 30 18:08:28 2019
Elect,74, time,1569881414.20, setpoint,314.00, impVal,265.00, Temp,36.94, rate,-0.41, avgDrop,66.33, avgEvp,-0.61, step,6.00, upperStepLimit,-10.00, Period,60.00, pCalc,0.00, measP,105.60, Date,Mon Sep 30 18:10:14 2019
Elect,74, time,1569881426.62, setpoint,314.00, impVal,309.00, Temp,37.04, rate,3.53, avgDrop,61.00, avgEvp,-0.61, step,6.00, upperStepLimit,-10.00, Period,60.00, pCalc,0.00, measP,12.47, Date,Mon Sep 30 18:10:26 2019
Elect,74, time,1569881490.21, setpoint,314.00, impVal,286.00, Temp,36.94, rate,-0.36, avgDrop,61.00, avgEvp,-0.39, step,6.00, upperStepLimit,-10.00, Period,60.00, pCalc,0.00, measP,63.59, Date,Mon Sep 30 18:11:30 2019
Elect,74, time,1569881502.60, setpoint,314.00, impVal,342.00, Temp,35.37, rate,4.52, avgDrop,64.00, avgEvp,-0.39, step,6.00, upperStepLimit,-10.00, Period,60.00, pCalc,0.00, measP,12.38, Date,Mon Sep 30 18:11:42 2019
Elect,74, time,1569881550.23, setpoint,314.00, impVal,343.00, Temp,22.31, rate,0.02, avgDrop,64.00, avgEvp,-0.39, step,6.00, upperStepLimit,-10.00, Period,60.00, pCalc,0.00, measP,47.59, Date,Mon Sep 30 18:12:30 2019
Elect,74, time,1569881610.14, setpoint,314.00, impVal,339.00, Temp,15.90, rate,-0.07, avgDrop,64.00, avgEvp,-0.28, step,6.00, upperStepLimit,-10.00, Period,60.00, pCalc,0.00, measP,59.95, Date,Mon Sep 30 18:13:30 2019
Elect,74, time,1569881670.13, setpoint,314.00, impVal,336.00, Temp,15.98, rate,-0.05, avgDrop,64.00, avgEvp,-0.16, step,6.00, upperStepLimit,-10.00, Period,60.00, pCalc,0.00, measP,59.99, Date,Mon Sep 30 18:14:30 2019
Elect,74, time,1569881756.79, setpoint,314.00, impVal,304.00, Temp,15.98, rate,-0.37, avgDrop,64.00, avgEvp,-0.16, step,6.00, upperStepLimit,-10.00, Period,60.00, pCalc,0.00, measP,86.71, Date,Mon Sep 30 18:15:56 2019
Elect,74, time,1569881790.27, setpoint,314.00, impVal,289.00, Temp,36.94, rate,-0.45, avgDrop,64.00, avgEvp,-0.29, step,6.00, upperStepLimit,-10.00, Period,60.00, pCalc,0.00, measP,33.37, Date,Mon Sep 30 18:16:30 2019
Elect,74, time,1569881793.62, setpoint,314.00, impVal,288.00, Temp,36.94, rate,-0.30, avgDrop,64.00, avgEvp,-0.29, step,6.00, upperStepLimit,-10.00, Period,60.00, pCalc,0.00, measP,3.36, Date,Mon Sep 30 18:16:33 2019
Elect,74, time,1569881796.84, setpoint,314.00, impVal,286.00, Temp,37.04, rate,-0.61, avgDrop,64.00, avgEvp,-0.29, step,6.00, upperStepLimit,-10.00, Period,60.00, pCalc,0.00, measP,3.28, Date,Mon Sep 30 18:16:36 2019
Elect,74, time,1569881970.15, setpoint,314.00, impVal,242.00, Temp,37.04, rate,-0.25, avgDrop,64.00, avgEvp,-0.29, step,6.00, upperStepLimit,-10.00, Period,60.00, pCalc,0.00, measP,173.29, Date,Mon Sep 30 18:19:30 2019
Elect,74, time,1569882000.55, setpoint,314.00, impVal,311.00, Temp,15.98, rate,2.27, avgDrop,56.33, avgEvp,-0.29, step,6.00, upperStepLimit,-10.00, Period,60.00, pCalc,0.00, measP,30.35, Date,Mon Sep 30 18:20:00 2019
Elect,74, time,1569882030.25, setpoint,314.00, impVal,308.00, Temp,16.07, rate,-0.10, avgDrop,56.33, avgEvp,-0.31, step,6.00, upperStepLimit,-10.00, Period,60.00, pCalc,0.00, measP,29.76, Date,Mon Sep 30 18:20:30 2019
Elect,74, time,1569882090.31, setpoint,314.00, impVal,309.00, Temp,16.07, rate,0.02, avgDrop,56.33, avgEvp,-0.31, step,6.00, upperStepLimit,-10.00, Period,60.00, pCalc,0.00, measP,60.00, Date,Mon Sep 30 18:21:30 2019
Elect,74, time,1569882150.33, setpoint,314.00, impVal,275.00, Temp,23.59, rate,-0.57, avgDrop,56.33, avgEvp,-0.37, step,6.00, upperStepLimit,-10.00, Period,60.00, pCalc,0.00, measP,60.03, Date,Mon Sep 30 18:22:30 2019
Elect,74, time,1569882162.84, setpoint,314.00, impVal,268.00, Temp,36.84, rate,-0.55, avgDrop,56.33, avgEvp,-0.37, step,6.00, upperStepLimit,-10.00, Period,60.00, pCalc,0.00, measP,12.62, Date,Mon Sep 30 18:22:42 2019
Elect,74, time,1569882193.08, setpoint,314.00, impVal,344.00, Temp,36.94, rate,2.51, avgDrop,67.00, avgEvp,-0.37, step,6.00, upperStepLimit,-10.00, Period,60.00, pCalc,0.00, measP,30.24, Date,Mon Sep 30 18:23:13 2019
Elect,74, time,1569882304.73, setpoint,314.00, impVal,316.00, Temp,37.14, rate,-0.25, avgDrop,67.00, avgEvp,-0.31, step,6.00, upperStepLimit,-10.00, Period,60.00, pCalc,0.00, measP,111.60, Date,Mon Sep 30 18:25:04 2019
Elect,74, time,1569882330.26, setpoint,314.00, impVal,315.00, Temp,16.74, rate,-0.04, avgDrop,67.00, avgEvp,-0.29, step,6.00, upperStepLimit,-10.00, Period,60.00, pCalc,0.00, measP,25.48, Date,Mon Sep 30 18:25:30 2019
Elect,74, time,1569882390.26, setpoint,314.00, impVal,309.00, Temp,15.73, rate,-0.10, avgDrop,67.00, avgEvp,-0.13, step,6.00, upperStepLimit,-10.00, Period,60.00, pCalc,0.00, measP,59.98, Date,Mon Sep 30 18:26:30 2019
Elect,74, time,1569882450.27, setpoint,314.00, impVal,304.00, Temp,16.07, rate,-0.08, avgDrop,67.00, avgEvp,-0.07, step,6.00, upperStepLimit,-10.00, Period,60.00, pCalc,0.00, measP,60.03, Date,Mon Sep 30 18:27:30 2019
Elect,74, time,1569882530.42, setpoint,314.00, impVal,280.00, Temp,16.07, rate,-0.30, avgDrop,67.00, avgEvp,-0.16, step,6.00, upperStepLimit,-10.00, Period,60.00, pCalc,0.00, measP,80.21, Date,Mon Sep 30 18:28:50 2019
Elect,74, time,1569882542.98, setpoint,314.00, impVal,275.00, Temp,36.94, rate,-0.40, avgDrop,67.00, avgEvp,-0.16, step,6.00, upperStepLimit,-10.00, Period,60.00, pCalc,0.00, measP,12.51, Date,Mon Sep 30 18:29:02 2019
Elect,74, time,1569882555.38, setpoint,314.00, impVal,343.00, Temp,37.04, rate,5.46, avgDrop,71.00, avgEvp,-0.16, step,6.00, upperStepLimit,-10.00, Period,60.00, pCalc,0.00, measP,12.45, Date,Mon Sep 30 18:29:15 2019
Elect,74, time,1569882570.32, setpoint,314.00, impVal,337.00, Temp,37.04, rate,-0.40, avgDrop,71.00, avgEvp,-0.26, step,6.00, upperStepLimit,-10.00, Period,60.00, pCalc,0.00, measP,14.87, Date,Mon Sep 30 18:29:30 2019
Elect,74, time,1569882734.63, setpoint,314.00, impVal,304.00, Temp,37.04, rate,-0.20, avgDrop,71.00, avgEvp,-0.30, step,6.00, upperStepLimit,-10.00, Period,60.00, pCalc,0.00, measP,164.41, Date,Mon Sep 30 18:32:14 2019
Elect,74, time,1569882750.20, setpoint,314.00, impVal,303.00, Temp,15.90, rate,-0.06, avgDrop,71.00, avgEvp,-0.22, step,6.00, upperStepLimit,-10.00, Period,60.00, pCalc,0.00, measP,15.52, Date,Mon Sep 30 18:32:30 2019
Elect,74, time,1569882810.16, setpoint,314.00, impVal,298.00, Temp,15.98, rate,-0.08, avgDrop,71.00, avgEvp,-0.12, step,6.00, upperStepLimit,-10.00, Period,60.00, pCalc,0.00, measP,59.96, Date,Mon Sep 30 18:33:30 2019
Elect,74, time,1569882870.56, setpoint,314.00, impVal,294.00, Temp,15.98, rate,-0.07, avgDrop,71.00, avgEvp,-0.07, step,6.00, upperStepLimit,-10.00, Period,60.00, pCalc,0.00, measP,60.40, Date,Mon Sep 30 18:34:30 2019
Elect,74, time,1569882974.45, setpoint,314.00, impVal,250.00, Temp,15.98, rate,-0.42, avgDrop,71.00, avgEvp,-0.19, step,6.00, upperStepLimit,-10.00, Period,60.00, pCalc,0.00, measP,103.89, Date,Mon Sep 30 18:36:14 2019
Elect,74, time,1569882987.43, setpoint,314.00, impVal,292.00, Temp,37.04, rate,3.25, avgDrop,62.00, avgEvp,-0.19, step,6.00, upperStepLimit,-10.00, Period,60.00, pCalc,0.00, measP,12.91, Date,Mon Sep 30 18:36:27 2019
Elect,74, time,1569883050.28, setpoint,314.00, impVal,268.00, Temp,37.04, rate,-0.38, avgDrop,62.00, avgEvp,-0.29, step,6.00, upperStepLimit,-10.00, Period,60.00, pCalc,0.00, measP,62.92, Date,Mon Sep 30 18:37:30 2019
Elect,74, time,1569883080.37, setpoint,314.00, impVal,341.00, Temp,36.94, rate,2.43, avgDrop,61.00, avgEvp,-0.29, step,6.00, upperStepLimit,-10.00, Period,60.00, pCalc,0.00, measP,30.10, Date,Mon Sep 30 18:38:00 2019
Elect,74, time,1569883110.24, setpoint,314.00, impVal,346.00, Temp,25.04, rate,0.17, avgDrop,61.00, avgEvp,-0.29, step,6.00, upperStepLimit,-10.00, Period,60.00, pCalc,0.00, measP,29.81, Date,Mon Sep 30 18:38:30 2019
Elect,74, time,1569883230.24, setpoint,314.00, impVal,338.00, Temp,15.90, rate,-0.07, avgDrop,61.00, avgEvp,-0.29, step,6.00, upperStepLimit,-10.00, Period,60.00, pCalc,0.00, measP,120.07, Date,Mon Sep 30 18:40:30 2019
Elect,74, time,1569883290.16, setpoint,314.00, impVal,335.00, Temp,16.07, rate,-0.05, avgDrop,61.00, avgEvp,-0.17, step,6.00, upperStepLimit,-10.00, Period,60.00, pCalc,0.00, measP,59.91, Date,Mon Sep 30 18:41:30 2019
Elect,74, time,1569883381.90, setpoint,314.00, impVal,293.00, Temp,37.04, rate,-0.46, avgDrop,61.00, avgEvp,-0.19, step,6.00, upperStepLimit,-10.00, Period,60.00, pCalc,0.00, measP,91.67, Date,Mon Sep 30 18:43:01 2019
Elect,74, time,1569883501.26, setpoint,314.00, impVal,259.00, Temp,36.94, rate,-0.28, avgDrop,61.00, avgEvp,-0.26, step,6.00, upperStepLimit,-10.00, Period,60.00, pCalc,0.00, measP,119.47, Date,Mon Sep 30 18:45:01 2019
Elect,74, time,1569883513.57, setpoint,314.00, impVal,260.00, Temp,16.15, rate,0.08, avgDrop,61.00, avgEvp,-0.26, step,6.00, upperStepLimit,-10.00, Period,60.00, pCalc,0.00, measP,12.31, Date,Mon Sep 30 18:45:13 2019
Elect,74, time,1569883526.11, setpoint,314.00, impVal,311.00, Temp,15.81, rate,4.08, avgDrop,55.33, avgEvp,-0.26, step,6.00, upperStepLimit,-10.00, Period,60.00, pCalc,0.00, measP,12.50, Date,Mon Sep 30 18:45:26 2019
Elect,74, time,1569883590.19, setpoint,314.00, impVal,306.00, Temp,15.90, rate,-0.08, avgDrop,55.33, avgEvp,-0.27, step,6.00, upperStepLimit,-10.00, Period,60.00, pCalc,0.00, measP,64.14, Date,Mon Sep 30 18:46:30 2019
Elect,74, time,1569883650.29, setpoint,314.00, impVal,299.00, Temp,15.98, rate,-0.12, avgDrop,55.33, avgEvp,-0.16, step,6.00, upperStepLimit,-10.00, Period,60.00, pCalc,0.00, measP,59.96, Date,Mon Sep 30 18:47:30 2019
Elect,74, time,1569883710.37, setpoint,314.00, impVal,280.00, Temp,15.98, rate,-0.32, avgDrop,55.33, avgEvp,-0.17, step,6.00, upperStepLimit,-10.00, Period,60.00, pCalc,0.00, measP,60.10, Date,Mon Sep 30 18:48:30 2019
Elect,74, time,1569883740.56, setpoint,314.00, impVal,316.00, Temp,36.94, rate,1.19, avgDrop,53.33, avgEvp,-0.17, step,6.00, upperStepLimit,-10.00, Period,60.00, pCalc,0.00, measP,30.30, Date,Mon Sep 30 18:49:00 2019
Elect,74, time,1569883783.47, setpoint,314.00, impVal,299.00, Temp,37.04, rate,-0.40, avgDrop,53.33, avgEvp,-0.28, step,6.00, upperStepLimit,-10.00, Period,60.00, pCalc,0.00, measP,42.79, Date,Mon Sep 30 18:49:43 2019
Elect,74, time,1569883874.38, setpoint,314.00, impVal,270.00, Temp,36.94, rate,-0.32, avgDrop,53.33, avgEvp,-0.34, step,6.00, upperStepLimit,-10.00, Period,60.00, pCalc,0.00, measP,90.94, Date,Mon Sep 30 18:51:14 2019
Elect,74, time,1569883886.68, setpoint,314.00, impVal,321.00, Temp,25.56, rate,4.13, avgDrop,46.00, avgEvp,-0.34, step,6.00, upperStepLimit,-10.00, Period,60.00, pCalc,0.00, measP,12.34, Date,Mon Sep 30 18:51:26 2019
Elect,74, time,1569883950.25, setpoint,314.00, impVal,321.00, Temp,18.68, rate,0.00, avgDrop,46.00, avgEvp,-0.34, step,6.00, upperStepLimit,-10.00, Period,60.00, pCalc,0.00, measP,63.56, Date,Mon Sep 30 18:52:30 2019
Elect,74, time,1569884010.29, setpoint,314.00, impVal,316.00, Temp,15.90, rate,-0.08, avgDrop,46.00, avgEvp,-0.27, step,6.00, upperStepLimit,-10.00, Period,60.00, pCalc,0.00, measP,59.97, Date,Mon Sep 30 18:53:30 2019
Elect,74, time,1569884070.24, setpoint,314.00, impVal,309.00, Temp,16.07, rate,-0.12, avgDrop,46.00, avgEvp,-0.17, step,6.00, upperStepLimit,-10.00, Period,60.00, pCalc,0.00, measP,59.99, Date,Mon Sep 30 18:54:30 2019
Elect,74, time,1569884130.18, setpoint,314.00, impVal,280.00, Temp,39.80, rate,-0.48, avgDrop,46.00, avgEvp,-0.23, step,6.00, upperStepLimit,-10.00, Period,60.00, pCalc,0.00, measP,60.04, Date,Mon Sep 30 18:55:30 2019
Elect,74, time,1569884149.64, setpoint,314.00, impVal,275.00, Temp,37.04, rate,-0.26, avgDrop,46.00, avgEvp,-0.23, step,6.00, upperStepLimit,-10.00, Period,60.00, pCalc,0.00, measP,19.35, Date,Mon Sep 30 18:55:49 2019
Elect,74, time,1569884162.08, setpoint,314.00, impVal,344.00, Temp,37.04, rate,5.50, avgDrop,52.00, avgEvp,-0.23, step,6.00, upperStepLimit,-10.00, Period,60.00, pCalc,0.00, measP,12.55, Date,Mon Sep 30 18:56:02 2019
Elect,74, time,1569884294.54, setpoint,314.00, impVal,317.00, Temp,37.04, rate,-0.20, avgDrop,52.00, avgEvp,-0.27, step,6.00, upperStepLimit,-10.00, Period,60.00, pCalc,0.00, measP,132.46, Date,Mon Sep 30 18:58:14 2019
Elect,74, time,1569884497.57, setpoint,314.00, impVal,0.00, Temp,15.98, rate,-1.56, avgDrop,52.00, avgEvp,-0.75, step,6.00, upperStepLimit,-10.00, Period,60.00, pCalc,0.00, measP,202.99, Date,Mon Sep 30 19:01:37 2019
Elect,74, time,1569884500.88, setpoint,314.00, impVal,0.00, Temp,36.94, rate,0.00, avgDrop,52.00, avgEvp,-0.75, step,6.00, upperStepLimit,-10.00, Period,60.00, pCalc,0.00, measP,3.30, Date,Mon Sep 30 19:01:40 2019
Elect,74, time,1569884545.70, setpoint,314.00, impVal,44.00, Temp,37.04, rate,0.98, avgDrop,54.67, avgEvp,-0.75, step,6.00, upperStepLimit,-10.00, Period,60.00, pCalc,0.00, measP,44.83, Date,Mon Sep 30 19:02:25 2019
Elect,74, time,1569884549.01, setpoint,314.00, impVal,42.00, Temp,37.04, rate,-0.62, avgDrop,54.67, avgEvp,-0.75, step,6.00, upperStepLimit,-10.00, Period,60.00, pCalc,0.00, measP,3.23, Date,Mon Sep 30 19:02:29 2019
Elect,74, time,1569884552.25, setpoint,314.00, impVal,41.00, Temp,36.94, rate,-0.30, avgDrop,54.67, avgEvp,-0.75, step,6.00, upperStepLimit,-10.00, Period,60.00, pCalc,0.00, measP,3.36, Date,Mon Sep 30 19:02:32 2019
Elect,74, time,1569957600.54, setpoint,254.00, impVal,57.00, Temp,0.00, rate,0.01, avgDrop,33.33, avgEvp,-1.00, step,6.00, upperStepLimit,-10.00, Period,60.00, pCalc,0.00, measP,4655.07, Date,Tue Oct 01 15:20:00 2019
Elect,74, time,1569957613.30, setpoint,254.00, impVal,303.00, Temp,0.00, rate,19.20, avgDrop,104.22, avgEvp,-1.00, step,6.00, upperStepLimit,-10.00, Period,60.00, pCalc,0.00, measP,12.81, Date,Tue Oct 01 15:20:13 2019
Elect,74, time,1569957669.05, setpoint,254.00, impVal,241.00, Temp,0.00, rate,-1.11, avgDrop,104.22, avgEvp,-1.04, step,6.00, upperStepLimit,-10.00, Period,60.00, pCalc,0.00, measP,55.62, Date,Tue Oct 01 15:21:09 2019
Elect,74, time,1569957728.97, setpoint,254.00, impVal,232.00, Temp,0.00, rate,-0.15, avgDrop,104.22, avgEvp,-0.75, step,6.00, upperStepLimit,-10.00, Period,60.00, pCalc,0.00, measP,59.95, Date,Tue Oct 01 15:22:08 2019
Elect,74, time,1569957789.01, setpoint,254.00, impVal,222.00, Temp,0.00, rate,-0.17, avgDrop,104.22, avgEvp,-0.48, step,6.00, upperStepLimit,-10.00, Period,60.00, pCalc,0.00, measP,60.03, Date,Tue Oct 01 15:23:09 2019
Elect,74, time,1569957848.89, setpoint,254.00, impVal,214.00, Temp,23.93, rate,-0.13, avgDrop,104.22, avgEvp,-0.15, step,6.00, upperStepLimit,-10.00, Period,60.00, pCalc,0.00, measP,59.94, Date,Tue Oct 01 15:24:08 2019
Elect,74, time,1569957884.94, setpoint,254.00, impVal,207.00, Temp,23.67, rate,-0.19, avgDrop,104.22, avgEvp,-0.16, step,6.00, upperStepLimit,-10.00, Period,60.00, pCalc,0.00, measP,35.98, Date,Tue Oct 01 15:24:44 2019
Elect,74, time,1569957908.93, setpoint,254.00, impVal,204.00, Temp,23.67, rate,-0.12, avgDrop,104.22, avgEvp,-0.15, step,6.00, upperStepLimit,-10.00, Period,60.00, pCalc,0.00, measP,24.01, Date,Tue Oct 01 15:25:08 2019
Elect,74, time,1569957939.44, setpoint,254.00, impVal,270.00, Temp,23.67, rate,2.16, avgDrop,115.11, avgEvp,-0.15, step,6.00, upperStepLimit,-10.00, Period,60.00, pCalc,0.00, measP,30.57, Date,Tue Oct 01 15:25:39 2019
Elect,74, time,1569957968.80, setpoint,254.00, impVal,265.00, Temp,23.67, rate,-0.17, avgDrop,115.11, avgEvp,-0.16, step,6.00, upperStepLimit,-10.00, Period,60.00, pCalc,0.00, measP,29.41, Date,Tue Oct 01 15:26:08 2019
Elect,74, time,1569958085.71, setpoint,254.00, impVal,303.00, Temp,23.67, rate,0.33, avgDrop,115.11, avgEvp,-0.16, step,6.00, upperStepLimit,-10.00, Period,60.00, pCalc,0.00, measP,116.85, Date,Tue Oct 01 15:28:05 2019
Elect,74, time,1569958148.88, setpoint,254.00, impVal,339.00, Temp,23.67, rate,0.57, avgDrop,115.11, avgEvp,-0.16, step,6.00, upperStepLimit,-10.00, Period,60.00, pCalc,0.00, measP,63.19, Date,Tue Oct 01 15:29:08 2019
Elect,74, time,1569958208.85, setpoint,254.00, impVal,332.00, Temp,23.67, rate,-0.12, avgDrop,115.11, avgEvp,-0.14, step,6.00, upperStepLimit,-10.00, Period,60.00, pCalc,0.00, measP,59.96, Date,Tue Oct 01 15:30:08 2019
Elect,74, time,1569958268.81, setpoint,254.00, impVal,326.00, Temp,23.67, rate,-0.10, avgDrop,115.11, avgEvp,-0.13, step,6.00, upperStepLimit,-10.00, Period,60.00, pCalc,0.00, measP,60.00, Date,Tue Oct 01 15:31:08 2019
Elect,74, time,1569958388.93, setpoint,254.00, impVal,313.00, Temp,23.67, rate,-0.11, avgDrop,115.11, avgEvp,-0.11, step,6.00, upperStepLimit,-10.00, Period,60.00, pCalc,0.00, measP,120.06, Date,Tue Oct 01 15:33:08 2019
Elect,74, time,1569958448.87, setpoint,254.00, impVal,305.00, Temp,23.67, rate,-0.13, avgDrop,115.11, avgEvp,-0.11, step,6.00, upperStepLimit,-10.00, Period,60.00, pCalc,0.00, measP,59.94, Date,Tue Oct 01 15:34:08 2019
Elect,74, time,1569958508.94, setpoint,254.00, impVal,298.00, Temp,23.67, rate,-0.12, avgDrop,115.11, avgEvp,-0.12, step,6.00, upperStepLimit,-10.00, Period,60.00, pCalc,0.00, measP,60.09, Date,Tue Oct 01 15:35:08 2019
Elect,74, time,1569958568.93, setpoint,254.00, impVal,342.00, Temp,23.67, rate,0.73, avgDrop,115.11, avgEvp,-0.12, step,6.00, upperStepLimit,-10.00, Period,60.00, pCalc,0.00, measP,59.93, Date,Tue Oct 01 15:36:08 2019
Elect,74, time,1569958832.09, setpoint,254.00, impVal,465.00, Temp,0.00, rate,5.92, avgDrop,33.33, avgEvp,-1.00, step,6.00, upperStepLimit,-10.00, Period,60.00, pCalc,0.00, measP,78.58, Date,Tue Oct 01 15:40:32 2019
Elect,74, time,1569958948.14, setpoint,254.00, impVal,381.00, Temp,36.84, rate,-0.73, avgDrop,33.33, avgEvp,-0.91, step,6.00, upperStepLimit,-10.00, Period,60.00, pCalc,0.00, measP,115.72, Date,Tue Oct 01 15:42:28 2019
Elect,74, time,1569959040.75, setpoint,254.00, impVal,215.00, Temp,74.70, rate,-1.79, avgDrop,33.33, avgEvp,-1.17, step,6.00, upperStepLimit,-10.00, Period,60.00, pCalc,0.00, measP,92.95, Date,Tue Oct 01 15:44:00 2019
Elect,74, time,1569959053.14, setpoint,254.00, impVal,315.00, Temp,37.54, rate,8.04, avgDrop,55.56, avgEvp,-1.17, step,6.00, upperStepLimit,-10.00, Period,60.00, pCalc,0.00, measP,12.43, Date,Tue Oct 01 15:44:13 2019
Elect,74, time,1569959101.59, setpoint,254.00, impVal,403.00, Temp,36.64, rate,1.83, avgDrop,55.56, avgEvp,-1.17, step,6.00, upperStepLimit,-10.00, Period,60.00, pCalc,0.00, measP,48.04, Date,Tue Oct 01 15:45:01 2019
Elect,74, time,1569959161.68, setpoint,254.00, impVal,399.00, Temp,37.00, rate,-0.07, avgDrop,55.56, avgEvp,-0.86, step,6.00, upperStepLimit,-10.00, Period,60.00, pCalc,0.00, measP,60.14, Date,Tue Oct 01 15:46:01 2019
Elect,74, time,1569960081.07, setpoint,254.00, impVal,306.00, Temp,0.00, rate,0.35, avgDrop,33.33, avgEvp,-1.00, step,6.00, upperStepLimit,-10.00, Period,60.00, pCalc,0.00, measP,882.24, Date,Tue Oct 01 16:01:21 2019
Elect,74, time,1569960156.90, setpoint,254.00, impVal,282.00, Temp,24.96, rate,-0.32, avgDrop,33.33, avgEvp,-0.77, step,6.00, upperStepLimit,-10.00, Period,60.00, pCalc,0.00, measP,75.84, Date,Tue Oct 01 16:02:36 2019
Elect,74, time,1569963880.29, setpoint,170.00, impVal,140.00, Temp,0.00, rate,0.05, avgDrop,33.33, avgEvp,-1.00, step,6.00, upperStepLimit,-10.00, Period,60.00, pCalc,0.00, measP,2874.74, Date,Tue Oct 01 17:04:40 2019
Elect,74, time,1569963899.77, setpoint,170.00, impVal,139.00, Temp,0.00, rate,-0.05, avgDrop,33.33, avgEvp,-1.00, step,6.00, upperStepLimit,-10.00, Period,60.00, pCalc,0.00, measP,19.48, Date,Tue Oct 01 17:04:59 2019
Elect,74, time,1569963919.43, setpoint,170.00, impVal,159.00, Temp,0.00, rate,1.01, avgDrop,28.89, avgEvp,-1.00, step,6.00, upperStepLimit,-10.00, Period,60.00, pCalc,0.00, measP,19.71, Date,Tue Oct 01 17:05:19 2019
Elect,74, time,1569963939.06, setpoint,170.00, impVal,216.00, Temp,0.00, rate,2.92, avgDrop,36.78, avgEvp,-1.00, step,6.00, upperStepLimit,-10.00, Period,60.00, pCalc,0.00, measP,19.51, Date,Tue Oct 01 17:05:39 2019
Elect,74, time,1569964019.75, setpoint,170.00, impVal,209.00, Temp,0.00, rate,-0.09, avgDrop,36.78, avgEvp,-0.70, step,6.00, upperStepLimit,-10.00, Period,60.00, pCalc,0.00, measP,80.75, Date,Tue Oct 01 17:06:59 2019
Elect,74, time,1569964223.90, setpoint,196.00, impVal,187.00, Temp,0.00, rate,1.72, avgDrop,33.33, avgEvp,-1.00, step,6.00, upperStepLimit,-10.00, Period,60.00, pCalc,0.00, measP,108.54, Date,Tue Oct 01 17:10:23 2019
Elect,74, time,1569964236.49, setpoint,196.00, impVal,184.00, Temp,36.94, rate,-0.24, avgDrop,33.33, avgEvp,-1.00, step,6.00, upperStepLimit,-10.00, Period,60.00, pCalc,0.00, measP,12.60, Date,Tue Oct 01 17:10:36 2019
Elect,74, time,1569964256.05, setpoint,196.00, impVal,237.00, Temp,37.04, rate,2.72, avgDrop,39.89, avgEvp,-1.00, step,6.00, upperStepLimit,-10.00, Period,60.00, pCalc,0.00, measP,19.51, Date,Tue Oct 01 17:10:56 2019
Elect,74, time,1569964373.57, setpoint,196.00, impVal,384.00, Temp,36.94, rate,1.26, avgDrop,39.89, avgEvp,-1.00, step,6.00, upperStepLimit,-10.00, Period,60.00, pCalc,0.00, measP,117.11, Date,Tue Oct 01 17:12:53 2019
Elect,74, time,1569964533.09, setpoint,196.00, impVal,171.00, Temp,37.00, rate,-1.33, avgDrop,39.89, avgEvp,-1.11, step,6.00, upperStepLimit,-10.00, Period,60.00, pCalc,0.00, measP,159.98, Date,Tue Oct 01 17:15:33 2019
Elect,74, time,1569964545.56, setpoint,196.00, impVal,228.00, Temp,37.04, rate,4.59, avgDrop,47.78, avgEvp,-1.11, step,6.00, upperStepLimit,-10.00, Period,60.00, pCalc,0.00, measP,12.41, Date,Tue Oct 01 17:15:45 2019
Elect,74, time,1569964612.87, setpoint,196.00, impVal,213.00, Temp,37.44, rate,-0.22, avgDrop,47.78, avgEvp,-0.85, step,6.00, upperStepLimit,-10.00, Period,60.00, pCalc,0.00, measP,67.31, Date,Tue Oct 01 17:16:52 2019
Elect,74, time,1569964672.83, setpoint,196.00, impVal,195.00, Temp,36.94, rate,-0.30, avgDrop,47.78, avgEvp,-0.62, step,6.00, upperStepLimit,-10.00, Period,60.00, pCalc,0.00, measP,59.95, Date,Tue Oct 01 17:17:52 2019
Elect,74, time,1569964732.76, setpoint,196.00, impVal,175.00, Temp,36.84, rate,-0.33, avgDrop,47.78, avgEvp,-0.29, step,6.00, upperStepLimit,-10.00, Period,60.00, pCalc,0.00, measP,59.94, Date,Tue Oct 01 17:18:52 2019
Elect,74, time,1569964752.57, setpoint,196.00, impVal,76.00, Temp,36.94, rate,-0.80, avgDrop,47.78, avgEvp,-0.29, step,6.00, upperStepLimit,-10.00, Period,60.00, pCalc,0.00, measP,19.72, Date,Tue Oct 01 17:19:12 2019
Elect,74, time,1569964772.09, setpoint,196.00, impVal,240.00, Temp,37.00, rate,8.36, avgDrop,91.33, avgEvp,-0.29, step,6.00, upperStepLimit,-10.00, Period,60.00, pCalc,0.00, measP,19.62, Date,Tue Oct 01 17:19:32 2019
Elect,74, time,1569964866.02, setpoint,196.00, impVal,216.00, Temp,37.04, rate,-0.26, avgDrop,91.33, avgEvp,-0.30, step,6.00, upperStepLimit,-10.00, Period,60.00, pCalc,0.00, measP,93.87, Date,Tue Oct 01 17:21:06 2019
Elect,74, time,1569964933.21, setpoint,196.00, impVal,198.00, Temp,37.04, rate,-0.27, avgDrop,91.33, avgEvp,-0.29, step,6.00, upperStepLimit,-10.00, Period,60.00, pCalc,0.00, measP,67.18, Date,Tue Oct 01 17:22:13 2019
Elect,74, time,1569964973.62, setpoint,196.00, impVal,193.00, Temp,37.04, rate,-0.13, avgDrop,91.33, avgEvp,-0.22, step,6.00, upperStepLimit,-10.00, Period,60.00, pCalc,0.00, measP,39.89, Date,Tue Oct 01 17:22:53 2019
Elect,74, time,1569965033.81, setpoint,196.00, impVal,192.00, Temp,15.56, rate,-0.02, avgDrop,91.33, avgEvp,-0.14, step,6.00, upperStepLimit,-10.00, Period,60.00, pCalc,0.00, measP,60.77, Date,Tue Oct 01 17:23:53 2019
Elect,74, time,1569965092.86, setpoint,196.00, impVal,190.00, Temp,15.98, rate,-0.03, avgDrop,91.33, avgEvp,-0.06, step,6.00, upperStepLimit,-10.00, Period,60.00, pCalc,0.00, measP,59.00, Date,Tue Oct 01 17:24:52 2019
Elect,74, time,1569965152.85, setpoint,196.00, impVal,184.00, Temp,15.98, rate,-0.10, avgDrop,91.33, avgEvp,-0.05, step,6.00, upperStepLimit,-10.00, Period,60.00, pCalc,0.00, measP,59.98, Date,Tue Oct 01 17:25:52 2019
Elect,74, time,1569965212.85, setpoint,196.00, impVal,164.00, Temp,39.70, rate,-0.33, avgDrop,91.33, avgEvp,-0.16, step,6.00, upperStepLimit,-10.00, Period,60.00, pCalc,0.00, measP,60.01, Date,Tue Oct 01 17:26:52 2019
Elect,74, time,1569965303.87, setpoint,196.00, impVal,135.00, Temp,37.04, rate,-0.32, avgDrop,91.33, avgEvp,-0.25, step,6.00, upperStepLimit,-10.00, Period,60.00, pCalc,0.00, measP,91.01, Date,Tue Oct 01 17:28:23 2019
Elect,74, time,1569965323.50, setpoint,196.00, impVal,215.00, Temp,37.04, rate,4.07, avgDrop,100.33, avgEvp,-0.25, step,6.00, upperStepLimit,-10.00, Period,60.00, pCalc,0.00, measP,19.67, Date,Tue Oct 01 17:28:43 2019
Elect,74, time,1569965392.72, setpoint,196.00, impVal,167.00, Temp,36.94, rate,-0.69, avgDrop,100.33, avgEvp,-0.45, step,6.00, upperStepLimit,-10.00, Period,60.00, pCalc,0.00, measP,69.25, Date,Tue Oct 01 17:29:52 2019
Elect,74, time,1569965452.80, setpoint,196.00, impVal,223.00, Temp,15.81, rate,0.93, avgDrop,100.33, avgEvp,-0.45, step,6.00, upperStepLimit,-10.00, Period,60.00, pCalc,0.00, measP,60.02, Date,Tue Oct 01 17:30:52 2019
Elect,74, time,1569965532.95, setpoint,196.00, impVal,220.00, Temp,15.98, rate,-0.04, avgDrop,100.33, avgEvp,-0.35, step,6.00, upperStepLimit,-10.00, Period,60.00, pCalc,0.00, measP,80.15, Date,Tue Oct 01 17:32:12 2019
Elect,74, time,1569965572.80, setpoint,196.00, impVal,211.00, Temp,36.54, rate,-0.23, avgDrop,100.33, avgEvp,-0.32, step,6.00, upperStepLimit,-10.00, Period,60.00, pCalc,0.00, measP,39.93, Date,Tue Oct 01 17:32:52 2019
Elect,74, time,1569965652.91, setpoint,196.00, impVal,191.00, Temp,36.94, rate,-0.25, avgDrop,100.33, avgEvp,-0.17, step,6.00, upperStepLimit,-10.00, Period,60.00, pCalc,0.00, measP,80.15, Date,Tue Oct 01 17:34:12 2019
Elect,74, time,1569965692.90, setpoint,196.00, impVal,178.00, Temp,37.04, rate,-0.33, avgDrop,100.33, avgEvp,-0.27, step,6.00, upperStepLimit,-10.00, Period,60.00, pCalc,0.00, measP,39.88, Date,Tue Oct 01 17:34:52 2019
Elect,74, time,1569965752.83, setpoint,196.00, impVal,173.00, Temp,37.04, rate,-0.08, avgDrop,100.33, avgEvp,-0.22, step,6.00, upperStepLimit,-10.00, Period,60.00, pCalc,0.00, measP,59.98, Date,Tue Oct 01 17:35:52 2019
Elect,74, time,1569965812.81, setpoint,196.00, impVal,174.00, Temp,15.56, rate,0.02, avgDrop,100.33, avgEvp,-0.22, step,6.00, upperStepLimit,-10.00, Period,60.00, pCalc,0.00, measP,60.05, Date,Tue Oct 01 17:36:52 2019
Elect,74, time,1569965872.74, setpoint,196.00, impVal,172.00, Temp,16.07, rate,-0.03, avgDrop,100.33, avgEvp,-0.15, step,6.00, upperStepLimit,-10.00, Period,60.00, pCalc,0.00, measP,59.83, Date,Tue Oct 01 17:37:52 2019
Elect,74, time,1569965932.84, setpoint,196.00, impVal,163.00, Temp,15.98, rate,-0.15, avgDrop,100.33, avgEvp,-0.09, step,6.00, upperStepLimit,-10.00, Period,60.00, pCalc,0.00, measP,60.13, Date,Tue Oct 01 17:38:52 2019
Elect,74, time,1569966052.89, setpoint,196.00, impVal,129.00, Temp,36.25, rate,-0.28, avgDrop,100.33, avgEvp,-0.16, step,6.00, upperStepLimit,-10.00, Period,60.00, pCalc,0.00, measP,120.01, Date,Tue Oct 01 17:40:52 2019
Elect,74, time,1569966072.47, setpoint,196.00, impVal,123.00, Temp,37.04, rate,-0.31, avgDrop,100.33, avgEvp,-0.16, step,6.00, upperStepLimit,-10.00, Period,60.00, pCalc,0.00, measP,19.62, Date,Tue Oct 01 17:41:12 2019
Elect,74, time,1569966092.23, setpoint,196.00, impVal,118.00, Temp,36.94, rate,-0.25, avgDrop,100.33, avgEvp,-0.16, step,6.00, upperStepLimit,-10.00, Period,60.00, pCalc,0.00, measP,19.77, Date,Tue Oct 01 17:41:32 2019
Elect,74, time,1569966251.90, setpoint,196.00, impVal,113.00, Temp,37.04, rate,-0.03, avgDrop,100.33, avgEvp,-0.16, step,6.00, upperStepLimit,-10.00, Period,60.00, pCalc,0.00, measP,159.66, Date,Tue Oct 01 17:44:11 2019
Elect,74, time,1569966372.07, setpoint,196.00, impVal,93.00, Temp,16.07, rate,-0.17, avgDrop,100.33, avgEvp,-0.16, step,6.00, upperStepLimit,-10.00, Period,60.00, pCalc,0.00, measP,120.24, Date,Tue Oct 01 17:46:12 2019
Elect,74, time,1569966472.77, setpoint,196.00, impVal,557.00, Temp,37.04, rate,4.61, avgDrop,236.00, avgEvp,-0.16, step,6.00, upperStepLimit,-10.00, Period,60.00, pCalc,0.00, measP,100.70, Date,Tue Oct 01 17:47:52 2019
Elect,74, time,1569966604.40, setpoint,196.00, impVal,65.00, Temp,36.94, rate,-3.74, avgDrop,236.00, avgEvp,-1.39, step,6.00, upperStepLimit,-10.00, Period,60.00, pCalc,0.00, measP,131.53, Date,Tue Oct 01 17:50:04 2019
Elect,74, time,1569966623.80, setpoint,196.00, impVal,112.00, Temp,16.07, rate,2.41, avgDrop,236.00, avgEvp,-1.39, step,6.00, upperStepLimit,-10.00, Period,60.00, pCalc,0.00, measP,19.46, Date,Tue Oct 01 17:50:23 2019
Elect,74, time,1569966643.48, setpoint,196.00, impVal,178.00, Temp,15.98, rate,3.35, avgDrop,236.00, avgEvp,-1.39, step,6.00, upperStepLimit,-10.00, Period,60.00, pCalc,0.00, measP,19.72, Date,Tue Oct 01 17:50:43 2019
Elect,74, time,1569966772.75, setpoint,196.00, impVal,151.00, Temp,15.98, rate,-0.21, avgDrop,236.00, avgEvp,-1.41, step,6.00, upperStepLimit,-10.00, Period,60.00, pCalc,0.00, measP,129.20, Date,Tue Oct 01 17:52:52 2019
Elect,74, time,1569966873.21, setpoint,196.00, impVal,122.00, Temp,37.04, rate,-0.29, avgDrop,236.00, avgEvp,-1.41, step,6.00, upperStepLimit,-10.00, Period,60.00, pCalc,0.00, measP,100.43, Date,Tue Oct 01 17:54:33 2019
Elect,74, time,1569966952.79, setpoint,196.00, impVal,115.00, Temp,37.04, rate,-0.09, avgDrop,236.00, avgEvp,-0.20, step,6.00, upperStepLimit,-10.00, Period,60.00, pCalc,0.00, measP,79.60, Date,Tue Oct 01 17:55:52 2019
Elect,74, time,1569967012.81, setpoint,196.00, impVal,118.00, Temp,15.90, rate,0.05, avgDrop,236.00, avgEvp,-0.20, step,6.00, upperStepLimit,-10.00, Period,60.00, pCalc,0.00, measP,59.98, Date,Tue Oct 01 17:56:52 2019
Elect,74, time,1569967072.80, setpoint,196.00, impVal,118.00, Temp,16.07, rate,0.00, avgDrop,236.00, avgEvp,-0.20, step,6.00, upperStepLimit,-10.00, Period,60.00, pCalc,0.00, measP,60.00, Date,Tue Oct 01 17:57:52 2019
Elect,74, time,1569967132.79, setpoint,196.00, impVal,108.00, Temp,16.07, rate,-0.17, avgDrop,236.00, avgEvp,-0.18, step,6.00, upperStepLimit,-10.00, Period,60.00, pCalc,0.00, measP,60.00, Date,Tue Oct 01 17:58:52 2019
Elect,74, time,1569967192.81, setpoint,196.00, impVal,94.00, Temp,36.84, rate,-0.23, avgDrop,236.00, avgEvp,-0.16, step,6.00, upperStepLimit,-10.00, Period,60.00, pCalc,0.00, measP,60.06, Date,Tue Oct 01 17:59:52 2019
Elect,74, time,1569967252.76, setpoint,196.00, impVal,78.00, Temp,36.94, rate,-0.27, avgDrop,236.00, avgEvp,-0.22, step,6.00, upperStepLimit,-10.00, Period,60.00, pCalc,0.00, measP,60.00, Date,Tue Oct 01 18:00:52 2019
Elect,74, time,1569967312.73, setpoint,196.00, impVal,110.00, Temp,36.94, rate,0.53, avgDrop,236.00, avgEvp,-0.22, step,6.00, upperStepLimit,-10.00, Period,60.00, pCalc,0.00, measP,59.93, Date,Tue Oct 01 18:01:52 2019
Elect,74, time,1569967372.82, setpoint,196.00, impVal,111.00, Temp,18.93, rate,0.02, avgDrop,236.00, avgEvp,-0.22, step,6.00, upperStepLimit,-10.00, Period,60.00, pCalc,0.00, measP,60.02, Date,Tue Oct 01 18:02:52 2019
Elect,74, time,1569967432.67, setpoint,196.00, impVal,111.00, Temp,15.98, rate,0.00, avgDrop,236.00, avgEvp,-0.22, step,6.00, upperStepLimit,-10.00, Period,60.00, pCalc,0.00, measP,59.96, Date,Tue Oct 01 18:03:52 2019
Elect,74, time,1569967492.82, setpoint,196.00, impVal,112.00, Temp,16.07, rate,0.02, avgDrop,236.00, avgEvp,-0.22, step,6.00, upperStepLimit,-10.00, Period,60.00, pCalc,0.00, measP,60.08, Date,Tue Oct 01 18:04:52 2019
Elect,74, time,1569967552.74, setpoint,196.00, impVal,164.00, Temp,16.07, rate,0.87, avgDrop,236.00, avgEvp,-0.22, step,6.00, upperStepLimit,-10.00, Period,60.00, pCalc,0.00, measP,59.95, Date,Tue Oct 01 18:05:52 2019
Elect,74, time,1569967612.73, setpoint,196.00, impVal,147.00, Temp,37.04, rate,-0.28, avgDrop,236.00, avgEvp,-0.26, step,6.00, upperStepLimit,-10.00, Period,60.00, pCalc,0.00, measP,59.98, Date,Tue Oct 01 18:06:52 2019
Elect,74, time,1569967693.10, setpoint,196.00, impVal,126.00, Temp,36.94, rate,-0.26, avgDrop,236.00, avgEvp,-0.27, step,6.00, upperStepLimit,-10.00, Period,60.00, pCalc,0.00, measP,80.36, Date,Tue Oct 01 18:08:13 2019
Elect,74, time,1569967732.79, setpoint,196.00, impVal,127.00, Temp,30.96, rate,0.03, avgDrop,236.00, avgEvp,-0.27, step,6.00, upperStepLimit,-10.00, Period,60.00, pCalc,0.00, measP,39.64, Date,Tue Oct 01 18:08:52 2019
Elect,74, time,1569967792.75, setpoint,196.00, impVal,126.00, Temp,15.90, rate,-0.02, avgDrop,236.00, avgEvp,-0.19, step,6.00, upperStepLimit,-10.00, Period,60.00, pCalc,0.00, measP,60.07, Date,Tue Oct 01 18:09:52 2019
Elect,74, time,1569967852.83, setpoint,196.00, impVal,129.00, Temp,15.98, rate,0.05, avgDrop,236.00, avgEvp,-0.19, step,6.00, upperStepLimit,-10.00, Period,60.00, pCalc,0.00, measP,59.97, Date,Tue Oct 01 18:10:52 2019
Elect,74, time,1569967912.87, setpoint,196.00, impVal,192.00, Temp,16.07, rate,1.05, avgDrop,236.00, avgEvp,-0.19, step,6.00, upperStepLimit,-10.00, Period,60.00, pCalc,0.00, measP,60.03, Date,Tue Oct 01 18:11:52 2019
Elect,74, time,1569967972.90, setpoint,196.00, impVal,176.00, Temp,37.04, rate,-0.27, avgDrop,236.00, avgEvp,-0.18, step,6.00, upperStepLimit,-10.00, Period,60.00, pCalc,0.00, measP,60.05, Date,Tue Oct 01 18:12:52 2019
Elect,74, time,1569968078.19, setpoint,196.00, impVal,145.00, Temp,36.94, rate,-0.29, avgDrop,236.00, avgEvp,-0.19, step,6.00, upperStepLimit,-10.00, Period,60.00, pCalc,0.00, measP,105.33, Date,Tue Oct 01 18:14:38 2019
Elect,74, time,1569968112.19, setpoint,196.00, impVal,142.00, Temp,37.04, rate,-0.09, avgDrop,236.00, avgEvp,-0.22, step,6.00, upperStepLimit,-10.00, Period,60.00, pCalc,0.00, measP,34.01, Date,Tue Oct 01 18:15:12 2019
Elect,74, time,1569968152.73, setpoint,196.00, impVal,143.00, Temp,19.19, rate,0.02, avgDrop,236.00, avgEvp,-0.22, step,6.00, upperStepLimit,-10.00, Period,60.00, pCalc,0.00, measP,40.55, Date,Tue Oct 01 18:15:52 2019
Elect,74, time,1569968212.74, setpoint,196.00, impVal,146.00, Temp,15.90, rate,0.05, avgDrop,236.00, avgEvp,-0.22, step,6.00, upperStepLimit,-10.00, Period,60.00, pCalc,0.00, measP,60.01, Date,Tue Oct 01 18:16:52 2019
Elect,74, time,1569968272.78, setpoint,196.00, impVal,144.00, Temp,16.07, rate,-0.03, avgDrop,236.00, avgEvp,-0.14, step,6.00, upperStepLimit,-10.00, Period,60.00, pCalc,0.00, measP,60.04, Date,Tue Oct 01 18:17:52 2019
Elect,74, time,1569968332.83, setpoint,196.00, impVal,129.00, Temp,15.98, rate,-0.25, avgDrop,236.00, avgEvp,-0.12, step,6.00, upperStepLimit,-10.00, Period,60.00, pCalc,0.00, measP,60.05, Date,Tue Oct 01 18:18:52 2019
Elect,74, time,1569968432.86, setpoint,196.00, impVal,104.00, Temp,37.04, rate,-0.25, avgDrop,236.00, avgEvp,-0.18, step,6.00, upperStepLimit,-10.00, Period,60.00, pCalc,0.00, measP,99.99, Date,Tue Oct 01 18:20:32 2019
Elect,74, time,1569968512.69, setpoint,196.00, impVal,93.00, Temp,37.04, rate,-0.14, avgDrop,236.00, avgEvp,-0.21, step,6.00, upperStepLimit,-10.00, Period,60.00, pCalc,0.00, measP,79.89, Date,Tue Oct 01 18:21:52 2019
Elect,74, time,1569968572.82, setpoint,196.00, impVal,92.00, Temp,16.07, rate,-0.02, avgDrop,236.00, avgEvp,-0.13, step,6.00, upperStepLimit,-10.00, Period,60.00, pCalc,0.00, measP,60.11, Date,Tue Oct 01 18:22:52 2019
Elect,74, time,1569968632.90, setpoint,196.00, impVal,94.00, Temp,15.98, rate,0.03, avgDrop,236.00, avgEvp,-0.13, step,6.00, upperStepLimit,-10.00, Period,60.00, pCalc,0.00, measP,60.03, Date,Tue Oct 01 18:23:52 2019
Elect,74, time,1569968692.84, setpoint,196.00, impVal,90.00, Temp,16.07, rate,-0.07, avgDrop,236.00, avgEvp,-0.07, step,6.00, upperStepLimit,-10.00, Period,60.00, pCalc,0.00, measP,60.02, Date,Tue Oct 01 18:24:52 2019
Elect,74, time,1569968793.08, setpoint,196.00, impVal,70.00, Temp,39.07, rate,-0.20, avgDrop,236.00, avgEvp,-0.09, step,6.00, upperStepLimit,-10.00, Period,60.00, pCalc,0.00, measP,100.23, Date,Tue Oct 01 18:26:33 2019
Elect,74, time,1569968872.76, setpoint,196.00, impVal,54.00, Temp,36.94, rate,-0.20, avgDrop,236.00, avgEvp,-0.09, step,6.00, upperStepLimit,-10.00, Period,60.00, pCalc,0.00, measP,79.68, Date,Tue Oct 01 18:27:52 2019
Elect,74, time,1569968992.70, setpoint,196.00, impVal,105.00, Temp,34.89, rate,0.43, avgDrop,236.00, avgEvp,-0.09, step,6.00, upperStepLimit,-10.00, Period,60.00, pCalc,0.00, measP,119.95, Date,Tue Oct 01 18:29:52 2019
Elect,74, time,1569969052.89, setpoint,196.00, impVal,105.00, Temp,15.90, rate,0.00, avgDrop,236.00, avgEvp,-0.09, step,6.00, upperStepLimit,-10.00, Period,60.00, pCalc,0.00, measP,60.12, Date,Tue Oct 01 18:30:52 2019
Elect,74, time,1569969153.33, setpoint,196.00, impVal,86.00, Temp,16.07, rate,-0.19, avgDrop,236.00, avgEvp,-0.15, step,6.00, upperStepLimit,-10.00, Period,60.00, pCalc,0.00, measP,100.46, Date,Tue Oct 01 18:32:33 2019
Elect,74, time,1569969233.33, setpoint,196.00, impVal,71.00, Temp,36.94, rate,-0.19, avgDrop,236.00, avgEvp,-0.19, step,6.00, upperStepLimit,-10.00, Period,60.00, pCalc,0.00, measP,79.54, Date,Tue Oct 01 18:33:53 2019
Elect,74, time,1569969293.25, setpoint,196.00, impVal,68.00, Temp,37.04, rate,-0.05, avgDrop,236.00, avgEvp,-0.19, step,6.00, upperStepLimit,-10.00, Period,60.00, pCalc,0.00, measP,60.43, Date,Tue Oct 01 18:34:53 2019
Elect,74, time,1569969353.04, setpoint,196.00, impVal,142.00, Temp,16.07, rate,1.24, avgDrop,236.00, avgEvp,-0.19, step,6.00, upperStepLimit,-10.00, Period,60.00, pCalc,0.00, measP,59.85, Date,Tue Oct 01 18:35:53 2019
Elect,74, time,1569969412.78, setpoint,196.00, impVal,143.00, Temp,15.98, rate,0.02, avgDrop,236.00, avgEvp,-0.19, step,6.00, upperStepLimit,-10.00, Period,60.00, pCalc,0.00, measP,59.63, Date,Tue Oct 01 18:36:52 2019
Elect,74, time,1569969472.82, setpoint,196.00, impVal,131.00, Temp,15.90, rate,-0.20, avgDrop,236.00, avgEvp,-0.19, step,6.00, upperStepLimit,-10.00, Period,60.00, pCalc,0.00, measP,60.04, Date,Tue Oct 01 18:37:52 2019
Elect,74, time,1569969553.03, setpoint,196.00, impVal,111.00, Temp,37.04, rate,-0.25, avgDrop,236.00, avgEvp,-0.21, step,6.00, upperStepLimit,-10.00, Period,60.00, pCalc,0.00, measP,80.26, Date,Tue Oct 01 18:39:13 2019
Elect,74, time,1569969712.53, setpoint,196.00, impVal,92.00, Temp,36.94, rate,-0.12, avgDrop,236.00, avgEvp,-0.19, step,6.00, upperStepLimit,-10.00, Period,60.00, pCalc,0.00, measP,159.56, Date,Tue Oct 01 18:41:52 2019
Elect,74, time,1569969772.76, setpoint,196.00, impVal,91.00, Temp,15.98, rate,-0.02, avgDrop,236.00, avgEvp,-0.13, step,6.00, upperStepLimit,-10.00, Period,60.00, pCalc,0.00, measP,60.22, Date,Tue Oct 01 18:42:52 2019
Elect,74, time,1569969832.71, setpoint,196.00, impVal,92.00, Temp,16.07, rate,0.02, avgDrop,236.00, avgEvp,-0.13, step,6.00, upperStepLimit,-10.00, Period,60.00, pCalc,0.00, measP,59.89, Date,Tue Oct 01 18:43:52 2019
Elect,74, time,1569969892.77, setpoint,196.00, impVal,80.00, Temp,15.98, rate,-0.20, avgDrop,236.00, avgEvp,-0.11, step,6.00, upperStepLimit,-10.00, Period,60.00, pCalc,0.00, measP,60.07, Date,Tue Oct 01 18:44:52 2019
Elect,74, time,1569969952.74, setpoint,196.00, impVal,68.00, Temp,37.04, rate,-0.20, avgDrop,236.00, avgEvp,-0.11, step,6.00, upperStepLimit,-10.00, Period,60.00, pCalc,0.00, measP,60.03, Date,Tue Oct 01 18:45:52 2019
Elect,74, time,1569970084.57, setpoint,196.00, impVal,93.00, Temp,0.00, rate,1.51, avgDrop,33.33, avgEvp,-1.00, step,6.00, upperStepLimit,-10.00, Period,60.00, pCalc,0.00, measP,61.51, Date,Tue Oct 01 18:48:04 2019
Elect,74, time,1569970103.99, setpoint,196.00, impVal,131.00, Temp,0.00, rate,1.96, avgDrop,34.89, avgEvp,-1.00, step,6.00, upperStepLimit,-10.00, Period,60.00, pCalc,0.00, measP,19.37, Date,Tue Oct 01 18:48:23 2019
Elect,74, time,1569970116.50, setpoint,196.00, impVal,11.00, Temp,0.00, rate,-0.80, avgDrop,34.89, avgEvp,-1.00, step,6.00, upperStepLimit,-10.00, Period,60.00, pCalc,0.00, measP,12.50, Date,Tue Oct 01 18:48:36 2019
Elect,74, time,1569970210.58, setpoint,196.00, impVal,193.00, Temp,0.00, rate,3.91, avgDrop,33.33, avgEvp,-1.00, step,6.00, upperStepLimit,-10.00, Period,60.00, pCalc,0.00, measP,49.35, Date,Tue Oct 01 18:50:10 2019
Elect,74, time,1569970241.03, setpoint,196.00, impVal,221.00, Temp,36.84, rate,0.92, avgDrop,31.56, avgEvp,-1.00, step,6.00, upperStepLimit,-10.00, Period,60.00, pCalc,0.00, measP,30.43, Date,Tue Oct 01 18:50:41 2019
Elect,74, time,1570033594.98, setpoint,196.00, impVal,0.00, Temp,0.00, rate,0.00, avgDrop,33.33, avgEvp,-1.00, step,6.00, upperStepLimit,-10.00, Period,60.00, pCalc,0.00, measP,1362.15, Date,Wed Oct 02 12:26:34 2019
Elect,74, time,1570033614.34, setpoint,196.00, impVal,0.00, Temp,0.00, rate,0.00, avgDrop,33.33, avgEvp,-1.00, step,6.00, upperStepLimit,-10.00, Period,60.00, pCalc,0.00, measP,19.38, Date,Wed Oct 02 12:26:54 2019
Elect,74, time,1570033626.59, setpoint,196.00, impVal,0.00, Temp,0.00, rate,0.00, avgDrop,33.33, avgEvp,-1.00, step,6.00, upperStepLimit,-10.00, Period,60.00, pCalc,0.00, measP,12.29, Date,Wed Oct 02 12:27:06 2019
Elect,74, time,1570033921.70, setpoint,196.00, impVal,0.00, Temp,0.00, rate,0.00, avgDrop,33.33, avgEvp,-1.00, step,6.00, upperStepLimit,-10.00, Period,60.00, pCalc,0.00, measP,295.05, Date,Wed Oct 02 12:32:01 2019
Elect,74, time,1570034055.98, setpoint,196.00, impVal,3.00, Temp,0.00, rate,0.02, avgDrop,33.33, avgEvp,-1.00, step,6.00, upperStepLimit,-10.00, Period,60.00, pCalc,0.00, measP,134.28, Date,Wed Oct 02 12:34:15 2019
Elect,74, time,1570034149.73, setpoint,196.00, impVal,2.00, Temp,0.00, rate,-0.01, avgDrop,33.33, avgEvp,-1.00, step,6.00, upperStepLimit,-10.00, Period,60.00, pCalc,0.00, measP,93.69, Date,Wed Oct 02 12:35:49 2019
Elect,74, time,1570034209.65, setpoint,196.00, impVal,54.00, Temp,0.00, rate,0.87, avgDrop,39.56, avgEvp,-1.00, step,6.00, upperStepLimit,-10.00, Period,60.00, pCalc,0.00, measP,59.98, Date,Wed Oct 02 12:36:49 2019
Elect,74, time,1570034227.46, setpoint,196.00, impVal,127.00, Temp,0.00, rate,4.11, avgDrop,52.78, avgEvp,-1.00, step,6.00, upperStepLimit,-10.00, Period,60.00, pCalc,0.00, measP,17.74, Date,Wed Oct 02 12:37:07 2019
Elect,74, time,1570034240.35, setpoint,196.00, impVal,205.00, Temp,0.00, rate,6.05, avgDrop,67.67, avgEvp,-1.00, step,6.00, upperStepLimit,-10.00, Period,60.00, pCalc,0.00, measP,12.90, Date,Wed Oct 02 12:37:20 2019
Elect,74, time,1570034269.86, setpoint,196.00, impVal,204.00, Temp,0.00, rate,-0.03, avgDrop,67.67, avgEvp,-0.68, step,6.00, upperStepLimit,-10.00, Period,60.00, pCalc,0.00, measP,29.50, Date,Wed Oct 02 12:37:49 2019
Elect,74, time,1570034330.01, setpoint,196.00, impVal,199.00, Temp,0.00, rate,-0.08, avgDrop,67.67, avgEvp,-0.37, step,6.00, upperStepLimit,-10.00, Period,60.00, pCalc,0.00, measP,60.15, Date,Wed Oct 02 12:38:50 2019
Elect,74, time,1570034389.83, setpoint,196.00, impVal,191.00, Temp,0.00, rate,-0.13, avgDrop,67.67, avgEvp,-0.08, step,6.00, upperStepLimit,-10.00, Period,60.00, pCalc,0.00, measP,59.81, Date,Wed Oct 02 12:39:49 2019
Elect,74, time,1570034449.92, setpoint,196.00, impVal,185.00, Temp,0.00, rate,-0.10, avgDrop,67.67, avgEvp,-0.11, step,6.00, upperStepLimit,-10.00, Period,60.00, pCalc,0.00, measP,60.12, Date,Wed Oct 02 12:40:49 2019
Elect,74, time,1570038650.91, setpoint,196.00, impVal,0.00, Temp,0.00, rate,0.00, avgDrop,33.33, avgEvp,-1.00, step,6.00, upperStepLimit,-10.00, Period,60.00, pCalc,0.00, measP,26.87, Date,Wed Oct 02 13:50:50 2019
Elect,74, time,1570038656.40, setpoint,196.00, impVal,0.00, Temp,0.00, rate,0.00, avgDrop,33.33, avgEvp,-1.00, step,6.00, upperStepLimit,-10.00, Period,60.00, pCalc,0.00, measP,5.54, Date,Wed Oct 02 13:50:56 2019
Elect,74, time,1570038661.78, setpoint,196.00, impVal,0.00, Temp,0.00, rate,0.00, avgDrop,33.33, avgEvp,-1.00, step,6.00, upperStepLimit,-10.00, Period,60.00, pCalc,0.00, measP,5.43, Date,Wed Oct 02 13:51:01 2019
Elect,74, time,1570042295.24, setpoint,196.00, impVal,0.00, Temp,0.00, rate,0.00, avgDrop,33.33, avgEvp,-1.00, step,6.00, upperStepLimit,-10.00, Period,60.00, pCalc,0.00, measP,3600.58, Date,Wed Oct 02 14:51:35 2019
Elect,74, time,1570042306.39, setpoint,196.00, impVal,0.00, Temp,0.00, rate,0.00, avgDrop,33.33, avgEvp,-1.00, step,6.00, upperStepLimit,-10.00, Period,60.00, pCalc,0.00, measP,11.14, Date,Wed Oct 02 14:51:46 2019
Elect,74, time,1570042317.53, setpoint,196.00, impVal,0.00, Temp,0.00, rate,0.00, avgDrop,33.33, avgEvp,-1.00, step,6.00, upperStepLimit,-10.00, Period,60.00, pCalc,0.00, measP,11.14, Date,Wed Oct 02 14:51:57 2019
Elect,74, time,1570042505.76, setpoint,196.00, impVal,0.00, Temp,0.00, rate,0.00, avgDrop,33.33, avgEvp,-1.00, step,6.00, upperStepLimit,-10.00, Period,60.00, pCalc,0.00, measP,188.23, Date,Wed Oct 02 14:55:05 2019
Elect,74, time,1570042565.72, setpoint,196.00, impVal,15.00, Temp,0.00, rate,0.25, avgDrop,33.33, avgEvp,-1.00, step,6.00, upperStepLimit,-10.00, Period,60.00, pCalc,0.00, measP,59.97, Date,Wed Oct 02 14:56:05 2019
Elect,74, time,1570042656.34, setpoint,196.00, impVal,55.00, Temp,0.00, rate,0.44, avgDrop,35.56, avgEvp,-1.00, step,6.00, upperStepLimit,-10.00, Period,60.00, pCalc,0.00, measP,90.63, Date,Wed Oct 02 14:57:36 2019
Elect,74, time,1570042667.45, setpoint,196.00, impVal,111.00, Temp,0.00, rate,5.04, avgDrop,43.11, avgEvp,-1.00, step,6.00, upperStepLimit,-10.00, Period,60.00, pCalc,0.00, measP,11.10, Date,Wed Oct 02 14:57:47 2019
Elect,74, time,1570042678.54, setpoint,196.00, impVal,170.00, Temp,0.00, rate,5.32, avgDrop,51.67, avgEvp,-1.00, step,6.00, upperStepLimit,-10.00, Period,60.00, pCalc,0.00, measP,11.09, Date,Wed Oct 02 14:57:58 2019
Elect,74, time,1570042689.63, setpoint,196.00, impVal,216.00, Temp,0.00, rate,4.15, avgDrop,53.67, avgEvp,-1.00, step,6.00, upperStepLimit,-10.00, Period,60.00, pCalc,0.00, measP,11.09, Date,Wed Oct 02 14:58:09 2019
Elect,74, time,1570042732.08, setpoint,196.00, impVal,210.00, Temp,0.00, rate,-0.14, avgDrop,53.67, avgEvp,-0.71, step,6.00, upperStepLimit,-10.00, Period,60.00, pCalc,0.00, measP,42.39, Date,Wed Oct 02 14:58:52 2019
Elect,74, time,1570042791.99, setpoint,196.00, impVal,202.00, Temp,0.00, rate,-0.13, avgDrop,53.67, avgEvp,-0.42, step,6.00, upperStepLimit,-10.00, Period,60.00, pCalc,0.00, measP,59.97, Date,Wed Oct 02 14:59:51 2019
Elect,74, time,1570042852.02, setpoint,196.00, impVal,196.00, Temp,0.00, rate,-0.10, avgDrop,53.67, avgEvp,-0.12, step,6.00, upperStepLimit,-10.00, Period,60.00, pCalc,0.00, measP,60.03, Date,Wed Oct 02 15:00:52 2019
Elect,74, time,1570042911.98, setpoint,196.00, impVal,189.00, Temp,0.00, rate,-0.12, avgDrop,53.67, avgEvp,-0.12, step,6.00, upperStepLimit,-10.00, Period,60.00, pCalc,0.00, measP,59.96, Date,Wed Oct 02 15:01:51 2019
Elect,74, time,1570042972.05, setpoint,196.00, impVal,181.00, Temp,0.00, rate,-0.13, avgDrop,53.67, avgEvp,-0.12, step,6.00, upperStepLimit,-10.00, Period,60.00, pCalc,0.00, measP,60.00, Date,Wed Oct 02 15:02:52 2019
