Elect,15, time,1570047644.02, setpoint,700.00, impVal,-11.08, Temp,0.00, rate,-1.00, avgDrop,33.33, avgEvp,-1.00, step,1.00, upperStepLimit,-10.00, Period,2.00, pCalc,0.00, measP,11.12, Date,Wed Oct 02 16:20:44 2019
Elect,15, time,1570047645.07, setpoint,700.00, impVal,97.81, Temp,0.00, rate,103.80, avgDrop,33.33, avgEvp,-0.99, step,1.00, upperStepLimit,-10.00, Period,2.00, pCalc,0.00, measP,1.05, Date,Wed Oct 02 16:20:45 2019
Elect,15, time,1570047646.13, setpoint,700.00, impVal,198.30, Temp,0.00, rate,95.25, avgDrop,33.33, avgEvp,-0.99, step,1.00, upperStepLimit,-10.00, Period,2.00, pCalc,0.00, measP,1.05, Date,Wed Oct 02 16:20:46 2019
Elect,15, time,1570047647.19, setpoint,700.00, impVal,305.98, Temp,0.00, rate,101.39, avgDrop,33.33, avgEvp,-0.99, step,1.00, upperStepLimit,-10.00, Period,2.00, pCalc,0.00, measP,1.06, Date,Wed Oct 02 16:20:47 2019
Elect,15, time,1570047648.24, setpoint,700.00, impVal,416.20, Temp,0.00, rate,104.98, avgDrop,33.33, avgEvp,-0.99, step,1.00, upperStepLimit,-10.00, Period,2.00, pCalc,0.00, measP,1.05, Date,Wed Oct 02 16:20:48 2019
Elect,15, time,1570047649.30, setpoint,700.00, impVal,518.17, Temp,0.00, rate,95.83, avgDrop,33.33, avgEvp,-0.99, step,1.00, upperStepLimit,-10.00, Period,2.00, pCalc,0.00, measP,1.06, Date,Wed Oct 02 16:20:49 2019
Elect,15, time,1570047650.36, setpoint,700.00, impVal,629.38, Temp,0.00, rate,105.41, avgDrop,33.33, avgEvp,-0.99, step,1.00, upperStepLimit,-10.00, Period,2.00, pCalc,0.00, measP,1.06, Date,Wed Oct 02 16:20:50 2019
Elect,15, time,1570047651.41, setpoint,700.00, impVal,736.35, Temp,0.00, rate,101.88, avgDrop,33.33, avgEvp,-1.00, step,1.00, upperStepLimit,-10.00, Period,2.00, pCalc,0.00, measP,1.05, Date,Wed Oct 02 16:20:51 2019
Elect,15, time,1570047660.62, setpoint,700.00, impVal,727.24, Temp,0.00, rate,-0.99, avgDrop,33.33, avgEvp,-1.00, step,1.00, upperStepLimit,-10.00, Period,2.00, pCalc,0.00, measP,9.21, Date,Wed Oct 02 16:21:00 2019
Elect,15, time,1570047662.62, setpoint,700.00, impVal,725.24, Temp,0.00, rate,-1.00, avgDrop,33.33, avgEvp,-0.99, step,1.00, upperStepLimit,-10.00, Period,2.00, pCalc,0.00, measP,2.00, Date,Wed Oct 02 16:21:02 2019
Elect,15, time,1570047664.62, setpoint,700.00, impVal,723.25, Temp,0.00, rate,-0.99, avgDrop,33.33, avgEvp,-0.99, step,1.00, upperStepLimit,-10.00, Period,2.00, pCalc,0.00, measP,2.00, Date,Wed Oct 02 16:21:04 2019
Elect,15, time,1570047666.61, setpoint,700.00, impVal,721.27, Temp,0.00, rate,-1.00, avgDrop,33.33, avgEvp,-0.99, step,1.00, upperStepLimit,-10.00, Period,2.00, pCalc,0.00, measP,2.00, Date,Wed Oct 02 16:21:06 2019
Elect,15, time,1570047668.61, setpoint,700.00, impVal,719.28, Temp,0.00, rate,-0.99, avgDrop,33.33, avgEvp,-1.00, step,1.00, upperStepLimit,-10.00, Period,2.00, pCalc,0.00, measP,2.00, Date,Wed Oct 02 16:21:08 2019
Elect,15, time,1570047670.60, setpoint,700.00, impVal,717.32, Temp,0.00, rate,-0.99, avgDrop,33.33, avgEvp,-0.99, step,1.00, upperStepLimit,-10.00, Period,2.00, pCalc,0.00, measP,1.98, Date,Wed Oct 02 16:21:10 2019
Elect,15, time,1570047672.60, setpoint,700.00, impVal,715.34, Temp,0.00, rate,-0.99, avgDrop,33.33, avgEvp,-0.99, step,1.00, upperStepLimit,-10.00, Period,2.00, pCalc,0.00, measP,2.00, Date,Wed Oct 02 16:21:12 2019
Elect,15, time,1570047674.60, setpoint,700.00, impVal,713.34, Temp,0.00, rate,-0.99, avgDrop,33.33, avgEvp,-0.99, step,1.00, upperStepLimit,-10.00, Period,2.00, pCalc,0.00, measP,2.00, Date,Wed Oct 02 16:21:14 2019
Elect,15, time,1570047676.60, setpoint,700.00, impVal,711.35, Temp,0.00, rate,-1.00, avgDrop,33.33, avgEvp,-1.00, step,1.00, upperStepLimit,-10.00, Period,2.00, pCalc,0.00, measP,2.00, Date,Wed Oct 02 16:21:16 2019
Elect,15, time,1570047678.60, setpoint,700.00, impVal,709.37, Temp,0.00, rate,-0.99, avgDrop,33.33, avgEvp,-0.99, step,1.00, upperStepLimit,-10.00, Period,2.00, pCalc,0.00, measP,2.00, Date,Wed Oct 02 16:21:18 2019
Elect,15, time,1570047680.60, setpoint,700.00, impVal,707.39, Temp,0.00, rate,-0.99, avgDrop,33.33, avgEvp,-0.99, step,1.00, upperStepLimit,-10.00, Period,2.00, pCalc,0.00, measP,2.00, Date,Wed Oct 02 16:21:20 2019
Elect,15, time,1570047682.60, setpoint,700.00, impVal,705.41, Temp,0.00, rate,-0.99, avgDrop,33.33, avgEvp,-0.99, step,1.00, upperStepLimit,-10.00, Period,2.00, pCalc,0.00, measP,2.00, Date,Wed Oct 02 16:21:22 2019
Elect,15, time,1570047684.60, setpoint,700.00, impVal,703.44, Temp,0.00, rate,-0.99, avgDrop,33.33, avgEvp,-0.99, step,1.00, upperStepLimit,-10.00, Period,2.00, pCalc,0.00, measP,1.99, Date,Wed Oct 02 16:21:24 2019
Elect,15, time,1570047686.61, setpoint,700.00, impVal,701.42, Temp,0.00, rate,-1.00, avgDrop,33.33, avgEvp,-0.99, step,1.00, upperStepLimit,-10.00, Period,2.00, pCalc,0.00, measP,2.02, Date,Wed Oct 02 16:21:26 2019
Elect,15, time,1570047688.61, setpoint,700.00, impVal,699.44, Temp,0.00, rate,-1.00, avgDrop,33.33, avgEvp,-1.00, step,1.00, upperStepLimit,-10.00, Period,2.00, pCalc,0.00, measP,2.00, Date,Wed Oct 02 16:21:28 2019
Elect,15, time,1570047690.61, setpoint,700.00, impVal,697.44, Temp,0.00, rate,-0.99, avgDrop,33.33, avgEvp,-0.99, step,1.00, upperStepLimit,-10.00, Period,2.00, pCalc,0.00, measP,2.01, Date,Wed Oct 02 16:21:30 2019
Elect,15, time,1570047692.61, setpoint,700.00, impVal,695.46, Temp,0.00, rate,-0.99, avgDrop,33.33, avgEvp,-0.99, step,1.00, upperStepLimit,-10.00, Period,2.00, pCalc,0.00, measP,2.00, Date,Wed Oct 02 16:21:32 2019
Elect,15, time,1570047694.61, setpoint,700.00, impVal,693.47, Temp,0.00, rate,-0.99, avgDrop,33.33, avgEvp,-0.99, step,1.00, upperStepLimit,-10.00, Period,2.00, pCalc,0.00, measP,2.00, Date,Wed Oct 02 16:21:34 2019
Elect,15, time,1570047696.60, setpoint,700.00, impVal,691.50, Temp,0.00, rate,-0.99, avgDrop,33.33, avgEvp,-0.99, step,1.00, upperStepLimit,-10.00, Period,2.00, pCalc,0.00, measP,1.99, Date,Wed Oct 02 16:21:36 2019
Elect,15, time,1570047698.60, setpoint,700.00, impVal,689.51, Temp,0.00, rate,-1.00, avgDrop,33.33, avgEvp,-1.00, step,1.00, upperStepLimit,-10.00, Period,2.00, pCalc,0.00, measP,2.00, Date,Wed Oct 02 16:21:38 2019
Elect,15, time,1570047700.60, setpoint,700.00, impVal,687.53, Temp,0.00, rate,-0.99, avgDrop,33.33, avgEvp,-0.99, step,1.00, upperStepLimit,-10.00, Period,2.00, pCalc,0.00, measP,2.00, Date,Wed Oct 02 16:21:40 2019
Elect,15, time,1570047702.61, setpoint,700.00, impVal,685.54, Temp,0.00, rate,-0.99, avgDrop,33.33, avgEvp,-0.99, step,1.00, upperStepLimit,-10.00, Period,2.00, pCalc,0.00, measP,2.01, Date,Wed Oct 02 16:21:42 2019
Elect,15, time,1570047704.64, setpoint,700.00, impVal,683.53, Temp,0.00, rate,-0.99, avgDrop,33.33, avgEvp,-0.99, step,1.00, upperStepLimit,-10.00, Period,2.00, pCalc,0.00, measP,2.03, Date,Wed Oct 02 16:21:44 2019
Elect,15, time,1570047705.70, setpoint,700.00, impVal,787.56, Temp,0.00, rate,97.96, avgDrop,33.33, avgEvp,-0.99, step,1.00, upperStepLimit,-10.00, Period,2.00, pCalc,0.00, measP,1.06, Date,Wed Oct 02 16:21:45 2019
Elect,15, time,1570047706.65, setpoint,700.00, impVal,786.63, Temp,0.00, rate,-0.99, avgDrop,33.33, avgEvp,-0.99, step,1.00, upperStepLimit,-10.00, Period,2.00, pCalc,0.00, measP,0.94, Date,Wed Oct 02 16:21:46 2019
Elect,15, time,1570047708.64, setpoint,700.00, impVal,784.64, Temp,0.00, rate,-1.00, avgDrop,33.33, avgEvp,-0.99, step,1.00, upperStepLimit,-10.00, Period,2.00, pCalc,0.00, measP,1.99, Date,Wed Oct 02 16:21:48 2019
Elect,15, time,1570047710.64, setpoint,700.00, impVal,782.65, Temp,0.00, rate,-0.99, avgDrop,33.33, avgEvp,-1.00, step,1.00, upperStepLimit,-10.00, Period,2.00, pCalc,0.00, measP,2.00, Date,Wed Oct 02 16:21:50 2019
Elect,15, time,1570047712.65, setpoint,700.00, impVal,780.65, Temp,0.00, rate,-1.00, avgDrop,33.33, avgEvp,-1.00, step,1.00, upperStepLimit,-10.00, Period,2.00, pCalc,0.00, measP,2.01, Date,Wed Oct 02 16:21:52 2019
Elect,15, time,1570047714.65, setpoint,700.00, impVal,778.66, Temp,0.00, rate,-0.99, avgDrop,33.33, avgEvp,-1.00, step,1.00, upperStepLimit,-10.00, Period,2.00, pCalc,0.00, measP,2.00, Date,Wed Oct 02 16:21:54 2019
Elect,15, time,1570047717.72, setpoint,700.00, impVal,775.62, Temp,0.00, rate,-0.99, avgDrop,33.33, avgEvp,-0.99, step,1.00, upperStepLimit,-10.00, Period,2.00, pCalc,0.00, measP,3.07, Date,Wed Oct 02 16:21:57 2019
Elect,15, time,1570047718.60, setpoint,700.00, impVal,774.74, Temp,0.00, rate,-1.00, avgDrop,33.33, avgEvp,-0.99, step,1.00, upperStepLimit,-10.00, Period,2.00, pCalc,0.00, measP,0.88, Date,Wed Oct 02 16:21:58 2019
Elect,15, time,1570047720.66, setpoint,700.00, impVal,772.69, Temp,0.00, rate,-0.99, avgDrop,33.33, avgEvp,-0.99, step,1.00, upperStepLimit,-10.00, Period,2.00, pCalc,0.00, measP,2.06, Date,Wed Oct 02 16:22:00 2019
Elect,15, time,1570047722.67, setpoint,700.00, impVal,770.71, Temp,0.00, rate,-0.99, avgDrop,33.33, avgEvp,-0.99, step,1.00, upperStepLimit,-10.00, Period,2.00, pCalc,0.00, measP,2.00, Date,Wed Oct 02 16:22:02 2019
Elect,15, time,1570047724.60, setpoint,700.00, impVal,768.79, Temp,0.00, rate,-0.99, avgDrop,33.33, avgEvp,-0.99, step,1.00, upperStepLimit,-10.00, Period,2.00, pCalc,0.00, measP,1.94, Date,Wed Oct 02 16:22:04 2019
Elect,15, time,1570047726.60, setpoint,700.00, impVal,766.79, Temp,0.00, rate,-1.00, avgDrop,33.33, avgEvp,-0.99, step,1.00, upperStepLimit,-10.00, Period,2.00, pCalc,0.00, measP,2.00, Date,Wed Oct 02 16:22:06 2019
Elect,15, time,1570047728.60, setpoint,700.00, impVal,764.80, Temp,0.00, rate,-1.00, avgDrop,33.33, avgEvp,-1.00, step,1.00, upperStepLimit,-10.00, Period,2.00, pCalc,0.00, measP,2.00, Date,Wed Oct 02 16:22:08 2019
Elect,15, time,1570047730.62, setpoint,700.00, impVal,762.79, Temp,0.00, rate,-1.00, avgDrop,33.33, avgEvp,-1.00, step,1.00, upperStepLimit,-10.00, Period,2.00, pCalc,0.00, measP,2.02, Date,Wed Oct 02 16:22:10 2019
Elect,15, time,1570047732.61, setpoint,700.00, impVal,760.81, Temp,0.00, rate,-0.99, avgDrop,33.33, avgEvp,-1.00, step,1.00, upperStepLimit,-10.00, Period,2.00, pCalc,0.00, measP,1.99, Date,Wed Oct 02 16:22:12 2019
Elect,15, time,1570047734.61, setpoint,700.00, impVal,758.82, Temp,0.00, rate,-1.00, avgDrop,33.33, avgEvp,-1.00, step,1.00, upperStepLimit,-10.00, Period,2.00, pCalc,0.00, measP,2.00, Date,Wed Oct 02 16:22:14 2019
Elect,15, time,1570047736.60, setpoint,700.00, impVal,756.85, Temp,0.00, rate,-0.99, avgDrop,33.33, avgEvp,-1.00, step,1.00, upperStepLimit,-10.00, Period,2.00, pCalc,0.00, measP,1.99, Date,Wed Oct 02 16:22:16 2019
Elect,15, time,1570660637.03, setpoint,700.00, impVal,-5.36, Temp,0.00, rate,-0.99, avgDrop,33.33, avgEvp,-0.99, step,1.00, upperStepLimit,-10.00, Period,2.00, pCalc,0.00, measP,5.42, Date,Wed Oct 09 18:37:17 2019
Elect,15, time,1570660638.26, setpoint,700.00, impVal,-6.58, Temp,0.00, rate,-1.00, avgDrop,33.33, avgEvp,-0.99, step,1.00, upperStepLimit,-10.00, Period,2.00, pCalc,0.00, measP,1.23, Date,Wed Oct 09 18:37:18 2019
Elect,15, time,1570660639.37, setpoint,700.00, impVal,-7.68, Temp,0.00, rate,-1.00, avgDrop,33.33, avgEvp,-1.00, step,1.00, upperStepLimit,-10.00, Period,2.00, pCalc,0.00, measP,1.11, Date,Wed Oct 09 18:37:19 2019
Elect,15, time,1570660646.74, setpoint,700.00, impVal,-15.01, Temp,0.00, rate,-0.99, avgDrop,33.33, avgEvp,-1.00, step,1.00, upperStepLimit,-10.00, Period,2.00, pCalc,0.00, measP,7.37, Date,Wed Oct 09 18:37:26 2019
Elect,15, time,1570661251.79, setpoint,700.00, impVal,-6.78, Temp,0.00, Diff, -6.78, rate,-1.00, avgDrop,33.33, avgEvp,-1.00, step,1.00, upperStepLimit,-10.00, Period,2.00, pCalc,0.00, measP,6.79, Date,Wed Oct 09 18:47:31 2019
Elect,15, time,1570661252.88, setpoint,700.00, impVal,-7.86, Temp,0.00, Diff, -1.07, rate,-0.99, avgDrop,33.33, avgEvp,-0.99, step,1.00, upperStepLimit,-10.00, Period,2.00, pCalc,0.00, measP,1.09, Date,Wed Oct 09 18:47:32 2019
Elect,15, time,1570661253.94, setpoint,700.00, impVal,-8.91, Temp,0.00, Diff, -1.05, rate,-0.99, avgDrop,33.33, avgEvp,-0.99, step,1.00, upperStepLimit,-10.00, Period,2.00, pCalc,0.00, measP,1.07, Date,Wed Oct 09 18:47:33 2019
Elect,15, time,1570661259.56, setpoint,700.00, impVal,-14.51, Temp,0.00, Diff, -5.60, rate,-1.00, avgDrop,33.33, avgEvp,-0.99, step,1.00, upperStepLimit,-10.00, Period,2.00, pCalc,0.00, measP,5.62, Date,Wed Oct 09 18:47:39 2019
Elect,15, time,1570661263.68, setpoint,700.00, impVal,-18.60, Temp,0.00, Diff, -4.09, rate,-0.99, avgDrop,33.33, avgEvp,-0.99, step,1.00, upperStepLimit,-10.00, Period,2.00, pCalc,0.00, measP,4.11, Date,Wed Oct 09 18:47:43 2019
Elect,15, time,1570661267.62, setpoint,700.00, impVal,-22.51, Temp,0.00, Diff, -3.91, rate,-0.99, avgDrop,33.33, avgEvp,-0.99, step,1.00, upperStepLimit,-10.00, Period,2.00, pCalc,0.00, measP,3.94, Date,Wed Oct 09 18:47:47 2019
Elect,15, time,1570661271.62, setpoint,700.00, impVal,-26.48, Temp,0.00, Diff, -3.97, rate,-0.99, avgDrop,33.33, avgEvp,-0.99, step,1.00, upperStepLimit,-10.00, Period,2.00, pCalc,0.00, measP,4.00, Date,Wed Oct 09 18:47:51 2019
Elect,15, time,1570661275.70, setpoint,700.00, impVal,-30.53, Temp,0.00, Diff, -4.06, rate,-0.99, avgDrop,33.33, avgEvp,-0.99, step,1.00, upperStepLimit,-10.00, Period,2.00, pCalc,0.00, measP,4.08, Date,Wed Oct 09 18:47:55 2019
Elect,15, time,1570661279.63, setpoint,700.00, impVal,-34.42, Temp,0.00, Diff, -3.89, rate,-0.99, avgDrop,33.33, avgEvp,-0.99, step,1.00, upperStepLimit,-10.00, Period,2.00, pCalc,0.00, measP,3.93, Date,Wed Oct 09 18:47:59 2019
Elect,15, time,1570661283.76, setpoint,700.00, impVal,-38.53, Temp,0.00, Diff, -4.11, rate,-0.99, avgDrop,33.33, avgEvp,-0.99, step,1.00, upperStepLimit,-10.00, Period,2.00, pCalc,0.00, measP,4.13, Date,Wed Oct 09 18:48:03 2019
Elect,15, time,1570661287.59, setpoint,700.00, impVal,-42.34, Temp,0.00, Diff, -3.82, rate,-0.99, avgDrop,33.33, avgEvp,-0.99, step,1.00, upperStepLimit,-10.00, Period,2.00, pCalc,0.00, measP,3.84, Date,Wed Oct 09 18:48:07 2019
Elect,15, time,1570661291.65, setpoint,700.00, impVal,-46.38, Temp,0.00, Diff, -4.04, rate,-1.00, avgDrop,33.33, avgEvp,-1.00, step,1.00, upperStepLimit,-10.00, Period,2.00, pCalc,0.00, measP,4.05, Date,Wed Oct 09 18:48:11 2019
Elect,15, time,1570661295.65, setpoint,700.00, impVal,-50.38, Temp,0.00, Diff, -4.00, rate,-1.00, avgDrop,33.33, avgEvp,-1.00, step,1.00, upperStepLimit,-10.00, Period,2.00, pCalc,0.00, measP,4.00, Date,Wed Oct 09 18:48:15 2019
Elect,15, time,1570661299.63, setpoint,700.00, impVal,-54.33, Temp,0.00, Diff, -3.94, rate,-0.99, avgDrop,33.33, avgEvp,-0.99, step,1.00, upperStepLimit,-10.00, Period,2.00, pCalc,0.00, measP,3.98, Date,Wed Oct 09 18:48:19 2019
Elect,15, time,1570661303.63, setpoint,700.00, impVal,-58.32, Temp,0.00, Diff, -3.99, rate,-1.00, avgDrop,33.33, avgEvp,-1.00, step,1.00, upperStepLimit,-10.00, Period,2.00, pCalc,0.00, measP,3.99, Date,Wed Oct 09 18:48:23 2019
Elect,15, time,1570661307.66, setpoint,700.00, impVal,-62.34, Temp,0.00, Diff, -4.02, rate,-1.00, avgDrop,33.33, avgEvp,-1.00, step,1.00, upperStepLimit,-10.00, Period,2.00, pCalc,0.00, measP,4.03, Date,Wed Oct 09 18:48:27 2019
Elect,15, time,1570661311.59, setpoint,700.00, impVal,-66.27, Temp,0.00, Diff, -3.93, rate,-1.00, avgDrop,33.33, avgEvp,-1.00, step,1.00, upperStepLimit,-10.00, Period,2.00, pCalc,0.00, measP,3.93, Date,Wed Oct 09 18:48:31 2019
Elect,15, time,1570661315.64, setpoint,700.00, impVal,-70.30, Temp,0.00, Diff, -4.03, rate,-0.99, avgDrop,33.33, avgEvp,-0.99, step,1.00, upperStepLimit,-10.00, Period,2.00, pCalc,0.00, measP,4.05, Date,Wed Oct 09 18:48:35 2019
Elect,15, time,1570661319.68, setpoint,700.00, impVal,-74.31, Temp,0.00, Diff, -4.01, rate,-0.99, avgDrop,33.33, avgEvp,-0.99, step,1.00, upperStepLimit,-10.00, Period,2.00, pCalc,0.00, measP,4.04, Date,Wed Oct 09 18:48:39 2019
Elect,15, time,1570661323.58, setpoint,700.00, impVal,-78.20, Temp,0.00, Diff, -3.89, rate,-1.00, avgDrop,33.33, avgEvp,-0.99, step,1.00, upperStepLimit,-10.00, Period,2.00, pCalc,0.00, measP,3.91, Date,Wed Oct 09 18:48:43 2019
Elect,15, time,1570661327.67, setpoint,700.00, impVal,-82.27, Temp,0.00, Diff, -4.07, rate,-1.00, avgDrop,33.33, avgEvp,-1.00, step,1.00, upperStepLimit,-10.00, Period,2.00, pCalc,0.00, measP,4.08, Date,Wed Oct 09 18:48:47 2019
Elect,15, time,1570661331.58, setpoint,700.00, impVal,-86.14, Temp,0.00, Diff, -3.87, rate,-0.99, avgDrop,33.33, avgEvp,-0.99, step,1.00, upperStepLimit,-10.00, Period,2.00, pCalc,0.00, measP,3.92, Date,Wed Oct 09 18:48:51 2019
Elect,15, time,1570661335.61, setpoint,700.00, impVal,-90.16, Temp,0.00, Diff, -4.02, rate,-1.00, avgDrop,33.33, avgEvp,-0.99, step,1.00, upperStepLimit,-10.00, Period,2.00, pCalc,0.00, measP,4.03, Date,Wed Oct 09 18:48:55 2019
Elect,15, time,1570661339.65, setpoint,700.00, impVal,-94.19, Temp,0.00, Diff, -4.03, rate,-1.00, avgDrop,33.33, avgEvp,-1.00, step,1.00, upperStepLimit,-10.00, Period,2.00, pCalc,0.00, measP,4.04, Date,Wed Oct 09 18:48:59 2019
Elect,15, time,1570661343.59, setpoint,700.00, impVal,-98.10, Temp,0.00, Diff, -3.91, rate,-0.99, avgDrop,33.33, avgEvp,-1.00, step,1.00, upperStepLimit,-10.00, Period,2.00, pCalc,0.00, measP,3.94, Date,Wed Oct 09 18:49:03 2019
Elect,15, time,1570661347.60, setpoint,700.00, impVal,-102.09, Temp,0.00, Diff, -3.98, rate,-0.99, avgDrop,33.33, avgEvp,-0.99, step,1.00, upperStepLimit,-10.00, Period,2.00, pCalc,0.00, measP,4.01, Date,Wed Oct 09 18:49:07 2019
Elect,15, time,1570661351.64, setpoint,700.00, impVal,-106.08, Temp,0.00, Diff, -3.99, rate,-0.99, avgDrop,33.33, avgEvp,-0.99, step,1.00, upperStepLimit,-10.00, Period,2.00, pCalc,0.00, measP,4.03, Date,Wed Oct 09 18:49:11 2019
Elect,15, time,1570661355.60, setpoint,700.00, impVal,-110.04, Temp,0.00, Diff, -3.96, rate,-1.00, avgDrop,33.33, avgEvp,-0.99, step,1.00, upperStepLimit,-10.00, Period,2.00, pCalc,0.00, measP,3.96, Date,Wed Oct 09 18:49:15 2019
Elect,15, time,1570661359.60, setpoint,700.00, impVal,-114.03, Temp,0.00, Diff, -4.00, rate,-1.00, avgDrop,33.33, avgEvp,-1.00, step,1.00, upperStepLimit,-10.00, Period,2.00, pCalc,0.00, measP,4.00, Date,Wed Oct 09 18:49:19 2019
Elect,15, time,1570661363.67, setpoint,700.00, impVal,-118.08, Temp,0.00, Diff, -4.04, rate,-0.99, avgDrop,33.33, avgEvp,-1.00, step,1.00, upperStepLimit,-10.00, Period,2.00, pCalc,0.00, measP,4.07, Date,Wed Oct 09 18:49:23 2019
Elect,15, time,1570661367.65, setpoint,700.00, impVal,-122.03, Temp,0.00, Diff, -3.95, rate,-0.99, avgDrop,33.33, avgEvp,-0.99, step,1.00, upperStepLimit,-10.00, Period,2.00, pCalc,0.00, measP,3.98, Date,Wed Oct 09 18:49:27 2019
Elect,15, time,1570661371.63, setpoint,700.00, impVal,-126.01, Temp,0.00, Diff, -3.98, rate,-1.00, avgDrop,33.33, avgEvp,-1.00, step,1.00, upperStepLimit,-10.00, Period,2.00, pCalc,0.00, measP,3.98, Date,Wed Oct 09 18:49:31 2019
Elect,15, time,1570661377.66, setpoint,700.00, impVal,-132.02, Temp,0.00, Diff, -6.02, rate,-1.00, avgDrop,33.33, avgEvp,-1.00, step,1.00, upperStepLimit,-10.00, Period,2.00, pCalc,0.00, measP,6.03, Date,Wed Oct 09 18:49:37 2019
Elect,15, time,1570661381.62, setpoint,700.00, impVal,-135.95, Temp,0.00, Diff, -3.93, rate,-0.99, avgDrop,33.33, avgEvp,-0.99, step,1.00, upperStepLimit,-10.00, Period,2.00, pCalc,0.00, measP,3.96, Date,Wed Oct 09 18:49:41 2019
Elect,15, time,1570661435.99, setpoint,700.00, impVal,-0.73, Temp,0.00, Diff, -0.73, rate,-0.10, avgDrop,33.33, avgEvp,-0.40, step,1.00, upperStepLimit,-10.00, Period,2.00, pCalc,0.00, measP,7.36, Date,Wed Oct 09 18:50:35 2019
Elect,15, time,1570661437.10, setpoint,700.00, impVal,-0.83, Temp,0.00, Diff, -0.10, rate,-0.09, avgDrop,33.33, avgEvp,-0.10, step,1.00, upperStepLimit,-10.00, Period,2.00, pCalc,0.00, measP,1.11, Date,Wed Oct 09 18:50:37 2019
Elect,15, time,1570661438.16, setpoint,700.00, impVal,-0.93, Temp,0.00, Diff, -0.10, rate,-0.10, avgDrop,33.33, avgEvp,-0.09, step,1.00, upperStepLimit,-10.00, Period,2.00, pCalc,0.00, measP,1.07, Date,Wed Oct 09 18:50:38 2019
Elect,15, time,1570661443.81, setpoint,700.00, impVal,-1.46, Temp,0.00, Diff, -0.53, rate,-0.09, avgDrop,33.33, avgEvp,-0.09, step,1.00, upperStepLimit,-10.00, Period,2.00, pCalc,0.00, measP,5.65, Date,Wed Oct 09 18:50:43 2019
Elect,15, time,1570661447.76, setpoint,700.00, impVal,-1.84, Temp,0.00, Diff, -0.38, rate,-0.10, avgDrop,33.33, avgEvp,-0.09, step,1.00, upperStepLimit,-10.00, Period,2.00, pCalc,0.00, measP,3.95, Date,Wed Oct 09 18:50:47 2019
Elect,15, time,1570661451.80, setpoint,700.00, impVal,-2.20, Temp,0.00, Diff, -0.37, rate,-0.09, avgDrop,33.33, avgEvp,-0.09, step,1.00, upperStepLimit,-10.00, Period,2.00, pCalc,0.00, measP,4.04, Date,Wed Oct 09 18:50:51 2019
Elect,15, time,1570661455.78, setpoint,700.00, impVal,-2.60, Temp,0.00, Diff, -0.39, rate,-0.10, avgDrop,33.33, avgEvp,-0.09, step,1.00, upperStepLimit,-10.00, Period,2.00, pCalc,0.00, measP,3.98, Date,Wed Oct 09 18:50:55 2019
Elect,15, time,1570661459.81, setpoint,700.00, impVal,-2.96, Temp,0.00, Diff, -0.36, rate,-0.09, avgDrop,33.33, avgEvp,-0.09, step,1.00, upperStepLimit,-10.00, Period,2.00, pCalc,0.00, measP,4.03, Date,Wed Oct 09 18:50:59 2019
Elect,15, time,1570661463.76, setpoint,700.00, impVal,-3.34, Temp,0.00, Diff, -0.38, rate,-0.10, avgDrop,33.33, avgEvp,-0.09, step,1.00, upperStepLimit,-10.00, Period,2.00, pCalc,0.00, measP,3.95, Date,Wed Oct 09 18:51:03 2019
Elect,15, time,1570661486.37, setpoint,700.00, impVal,-0.61, Temp,0.00, Diff, -0.61, rate,-0.10, avgDrop,33.33, avgEvp,-0.40, step,1.00, upperStepLimit,-10.00, Period,2.00, pCalc,0.00, measP,6.19, Date,Wed Oct 09 18:51:26 2019
Elect,15, time,1570661487.42, setpoint,700.00, impVal,-0.70, Temp,0.00, Diff, -0.10, rate,-0.09, avgDrop,33.33, avgEvp,-0.09, step,1.00, upperStepLimit,-10.00, Period,2.00, pCalc,0.00, measP,1.05, Date,Wed Oct 09 18:51:27 2019
Elect,15, time,1570661488.52, setpoint,700.00, impVal,-0.80, Temp,0.00, Diff, -0.10, rate,-0.09, avgDrop,33.33, avgEvp,-0.09, step,1.00, upperStepLimit,-10.00, Period,2.00, pCalc,0.00, measP,1.10, Date,Wed Oct 09 18:51:28 2019
Elect,15, time,1570661494.23, setpoint,700.00, impVal,-1.37, Temp,0.00, Diff, -0.57, rate,-0.10, avgDrop,33.33, avgEvp,-0.09, step,1.00, upperStepLimit,-10.00, Period,2.00, pCalc,0.00, measP,5.70, Date,Wed Oct 09 18:51:34 2019
Elect,15, time,1570661498.19, setpoint,700.00, impVal,-1.77, Temp,0.00, Diff, -0.40, rate,-0.10, avgDrop,33.33, avgEvp,-0.10, step,1.00, upperStepLimit,-10.00, Period,2.00, pCalc,0.00, measP,3.96, Date,Wed Oct 09 18:51:38 2019
Elect,15, time,1570661502.26, setpoint,700.00, impVal,-2.16, Temp,0.00, Diff, -0.39, rate,-0.10, avgDrop,33.33, avgEvp,-0.10, step,1.00, upperStepLimit,-10.00, Period,2.00, pCalc,0.00, measP,4.07, Date,Wed Oct 09 18:51:42 2019
